<?xml version="1.0" encoding="UTF-8" standalone="no"?>
<!-- Created with Inkscape (http://www.inkscape.org/) -->

<svg
   xmlns:dc="http://purl.org/dc/elements/1.1/"
   xmlns:cc="http://creativecommons.org/ns#"
   xmlns:rdf="http://www.w3.org/1999/02/22-rdf-syntax-ns#"
   xmlns:svg="http://www.w3.org/2000/svg"
   xmlns="http://www.w3.org/2000/svg"
   xmlns:sodipodi="http://sodipodi.sourceforge.net/DTD/sodipodi-0.dtd"
   xmlns:inkscape="http://www.inkscape.org/namespaces/inkscape"
   id="svg2"
   sodipodi:docname="cyberscooty-cafe-free-wifi-inside.svg"
   viewBox="0 0 557.5 638.44"
   version="1.1"
   inkscape:version="0.92.2 5c3e80d, 2017-08-06">
  <title
     id="title1507">WiFi: Free TOR &amp; I2P inside</title>
  <defs
     id="defs32" />
  <sodipodi:namedview
     id="base"
     fit-margin-left="0"
     inkscape:zoom="0.7"
     borderopacity="1.0"
     inkscape:current-layer="layer1"
     inkscape:cx="11.268513"
     inkscape:cy="237.69346"
     inkscape:object-paths="true"
     inkscape:window-maximized="1"
     showgrid="false"
     fit-margin-right="0"
     inkscape:snap-midpoints="true"
     inkscape:snap-global="false"
     showguides="true"
     bordercolor="#666666"
     inkscape:window-x="0"
     inkscape:guide-bbox="true"
     inkscape:snap-smooth-nodes="true"
     inkscape:object-nodes="true"
     inkscape:window-y="0"
     fit-margin-bottom="0"
     inkscape:window-width="1920"
     inkscape:pageopacity="0.0"
     inkscape:pageshadow="2"
     pagecolor="#ffffff"
     inkscape:document-units="px"
     inkscape:window-height="999"
     fit-margin-top="0" />
  <g
     id="layer1"
     inkscape:label="Calque 1"
     inkscape:groupmode="layer"
     transform="translate(-866.77,-57.312)">
    <path
       id="rect3072"
       style="color:#000000;fill:#000000;stroke:#000000;stroke-width:2"
       inkscape:connector-curvature="0"
       d="m 867.77,325.94 0.3125,299.12 c 0,21.825 17.581,39.406 39.406,39.406 h 3.1562 c 3.1433,0 2.51,0.98697 2.8125,3.2812 2.015,15.282 15.022,27 30.875,27 h 278.87 c 15.638,0 28.498,-11.398 30.781,-26.375 0.2263,-2.0828 1.1965,-3.9062 3.0312,-3.9062 h 3 c 21.825,0 39.406,-17.581 39.406,-39.406 l 0.031,-19.844 c 0.084,1.7e-4 0.1664,0 0.25,0 68.247,0 123.56,-55.316 123.56,-123.56 0,-68.247 -55.316,-123.59 -123.56,-123.59 l 0.031,-32 -431.97,-0.125 z m 431.83,80.31 c 0.021,-2e-5 0.042,0 0.062,0 41.637,0 75.375,33.77 75.375,75.406 0,41.637 -33.738,75.375 -75.375,75.375 -0.073,0 -0.1454,2.1e-4 -0.2187,0 l 0.2,-150.78 z" />
    <g
       id="g3367"
       transform="matrix(1.3472,0,0,1.3472,-376.29,-116.38)"
       style="display:inline">
      <path
         id="path3145"
         inkscape:connector-curvature="0"
         d="m 1149.4,276.4 c -16.871,-16.735 -40.077,-27.094 -65.664,-27.094 -25.588,0 -48.794,10.36 -65.664,27.094 -0.1785,0.17851 -0.357,0.35399 -0.5325,0.5325 l 21.276,21.279 c 0.1755,-0.17851 0.354,-0.36005 0.5325,-0.53251 11.422,-11.292 27.1,-18.278 44.388,-18.278 17.291,0 32.967,6.9861 44.392,18.278 0.1785,0.17246 0.3539,0.354 0.5325,0.53251 l 21.273,-21.279 -0.5325,-0.5325 z" />
      <path
         id="path3147"
         inkscape:connector-curvature="0"
         d="m 1191.9,233.86 c -27.769,-27.639 -66.028,-44.746 -108.21,-44.746 -42.18,0 -80.436,17.11 -108.21,44.746 -0.17851,0.17548 -0.35702,0.35399 -0.5325,0.5325 l 21.27,21.27 c 0.17549,-0.17851 0.354,-0.354 0.53251,-0.53251 22.32299,-22.19 53.05399,-35.923 86.93699,-35.923 33.884,0 64.612,13.733 86.934,35.923 0.1785,0.17851 0.357,0.354 0.5325,0.53251 l 21.27,-21.27 c -0.1755,-0.17851 -0.354,-0.35702 -0.5295,-0.5325 z" />
      <path
         id="path3149"
         inkscape:connector-curvature="0"
         d="m 1234.4,191.32 c -38.67,-38.534 -91.972,-62.394 -150.75,-62.394 -58.775,0 -112.08,23.86 -150.75,62.394 -0.17549,0.17851 -0.354,0.35702 -0.53251,0.53251 l 21.27,21.27 0.53251,-0.5325 c 33.221,-33.085 78.998,-53.568 129.48,-53.568 50.479,0 96.256,20.486 129.48,53.571 l 0.5325,0.53251 21.27,-21.27 c -0.1785,-0.17851 -0.354,-0.35702 -0.5325,-0.53553 z" />
    </g>
    <path
       id="rect3001"
       d="m 1083.7,384.1 c -36.411,0 -68.782,17.3 -89.348,44.122 h -21.763 c -28.788,0 -51.967,23.179 -51.967,51.967 v 37.681 c 0,28.788 23.179,51.967 51.967,51.967 h 25.659 c 20.637,24.064 51.267,39.313 85.456,39.313 34.184,0 64.8,-15.254 85.434,-39.313 h 24.062 c 28.788,0 51.967,-23.179 51.967,-51.967 v -37.681 c 0,-28.788 -23.179,-51.967 -51.967,-51.967 h -20.148 c -20.572,-26.823 -52.944,-44.121 -89.354,-44.121 z"
       style="color:#000000;display:inline;fill:#000000;fill-rule:evenodd"
       inkscape:connector-curvature="0" />
    <path
       id="path3794"
       d="m 1135,437.56 c -11.25,0.12972 -43.694,11.457 -45.353,44.165 v 36.62 c 0,20.906 -15.437,38.072 -35.575,40.788 1.9388,0.24728 3.924,0.36856 5.9319,0.36856 h 128.68 c 25.473,0 45.983,-20.492 45.983,-45.965 v -29.99 c 0,-25.473 -20.51,-45.983 -45.983,-45.983 z"
       sodipodi:nodetypes="ccscsssssc"
       style="color:#000000;fill:#ffffff;fill-rule:evenodd"
       inkscape:connector-curvature="0" />
    <g
       id="text3372"
       style="fill:#ffffff;stroke:#ffffff;stroke-width:6"
       inkscape:label="text free">
      <path
         id="path4234"
         style="fill:#ffffff;stroke:#ffffff"
         d="m 1016.2,408.13 v -47.623 h 30.099 v 7.353 h -21.44 v 12.163 h 19.035 v 7.353 h -19.035 v 20.753 h -8.6587"
         inkscape:connector-curvature="0" />
      <path
         id="path4236"
         style="fill:#ffffff;stroke:#ffffff"
         d="m 1067.2,360.02 c 6.8719,5e-5 12.118,1.2599 15.737,3.7796 3.665,2.5198 5.4975,6.368 5.4976,11.545 -10e-5,6.4596 -3.1841,10.835 -9.552,13.125 0.8704,1.0537 1.8554,2.3365 2.9549,3.8483 1.0995,1.5118 2.2219,3.1611 3.3673,4.9478 1.1452,1.7409 2.2448,3.5505 3.2985,5.4288 1.0536,1.8325 1.9928,3.6421 2.8175,5.4288 h -9.6894 c -0.8705,-1.6493 -1.8097,-3.2985 -2.8175,-4.9478 -1.008,-1.6951 -2.0387,-3.3214 -3.0924,-4.8791 -1.0079,-1.6034 -2.0158,-3.0924 -3.0237,-4.4668 -1.0079,-1.4202 -1.947,-2.68 -2.8175,-3.7796 -0.6414,0.0458 -1.1911,0.0687 -1.6492,0.0687 -0.4582,1e-5 -0.8934,1e-5 -1.3057,0 h -4.1919 v 18.004 h -8.6586 v -46.935 c 2.1074,-0.45809 4.3522,-0.75587 6.7345,-0.89336 2.3822,-0.1832 4.5125,-0.27482 6.3909,-0.27487 m 0.6185,7.4904 c -1.8326,4e-5 -3.5277,0.0688 -5.0853,0.20616 v 15.393 h 3.7796 c 2.1074,2e-5 3.9628,-0.11451 5.5663,-0.3436 1.6034,-0.22904 2.932,-0.64135 3.9857,-1.237 1.0995,-0.59554 1.9241,-1.3973 2.4739,-2.4052 0.5497,-1.0079 0.8246,-2.2906 0.8246,-3.8483 0,-1.466 -0.2749,-2.7029 -0.8246,-3.7108 -0.5498,-1.0078 -1.3515,-1.8096 -2.4052,-2.4052 -1.0079,-0.59553 -2.222,-1.0078 -3.6421,-1.237 -1.4202,-0.27484 -2.9779,-0.41228 -4.6729,-0.41232"
         inkscape:connector-curvature="0" />
      <path
         id="path4238"
         style="fill:#ffffff;stroke:#ffffff"
         d="m 1098.1,408.13 v -47.623 h 30.58 v 7.353 h -21.922 v 11.751 h 19.516 v 7.2155 h -19.516 v 13.95 h 23.571 v 7.353 H 1098.1"
         inkscape:connector-curvature="0" />
      <path
         id="path4240"
         style="fill:#ffffff;stroke:#ffffff"
         d="m 1138.3,408.13 v -47.623 h 30.58 v 7.353 h -21.922 v 11.751 h 19.516 v 7.2155 h -19.516 v 13.95 h 23.571 v 7.353 H 1138.3"
         inkscape:connector-curvature="0" />
    </g>
    <g
       id="text3376"
       style="fill:#ffffff;stroke:#ffffff;stroke-width:6"
       inkscape:label="text inside">
      <path
         id="path4221"
         style="fill:#ffffff;stroke:#ffffff"
         d="m 985.89,582.74 h 8.6586 v 47.623 H 985.89 V 582.74"
         inkscape:connector-curvature="0" />
      <path
         id="path4223"
         style="fill:#ffffff;stroke:#ffffff"
         d="m 1038.1,630.36 c -1.5577,-2.6113 -3.2986,-5.4059 -5.2227,-8.3838 -1.9242,-3.0236 -3.9171,-6.0473 -5.9786,-9.071 -2.0616,-3.0694 -4.169,-6.0244 -6.3222,-8.8648 -2.1074,-2.8862 -4.1232,-5.4746 -6.0473,-7.7653 v 34.085 h -8.5212 v -47.623 h 7.0781 c 1.8325,1.9242 3.8025,4.2148 5.9099,6.8719 2.1073,2.6114 4.2147,5.3372 6.3221,8.1776 2.1532,2.8404 4.2148,5.7037 6.1848,8.5899 2.0157,2.8404 3.8024,5.4976 5.3601,7.9714 v -31.611 h 8.5899 v 47.623 H 1038.1"
         inkscape:connector-curvature="0" />
      <path
         id="path4225"
         style="fill:#ffffff;stroke:#ffffff"
         d="m 1068.4,623.9 c 3.1153,10e-6 5.383,-0.52684 6.8032,-1.5805 1.4202,-1.05366 2.1303,-2.5426 2.1303,-4.4668 0,-1.1453 -0.252,-2.1303 -0.7559,-2.9549 -0.4581,-0.82462 -1.1453,-1.5576 -2.0616,-2.199 -0.8704,-0.68717 -1.947,-1.3056 -3.2298,-1.8554 -1.2828,-0.59555 -2.7488,-1.1682 -4.398,-1.718 -1.6493,-0.59555 -3.2527,-1.2369 -4.8104,-1.9242 -1.5118,-0.73298 -2.8633,-1.6263 -4.0544,-2.68 -1.1453,-1.0537 -2.0845,-2.3135 -2.8175,-3.7796 -0.6872,-1.466 -1.0308,-3.2298 -1.0308,-5.2914 0,-4.3064 1.4889,-7.6736 4.4668,-10.102 2.9778,-2.4738 7.0322,-3.7108 12.163,-3.7108 2.9778,5e-5 5.612,0.34365 7.9027,1.0308 2.3364,0.64143 4.169,1.3515 5.4976,2.1303 l -2.6801,7.0094 c -1.5577,-0.8704 -3.2756,-1.5347 -5.1539,-1.9929 -1.8326,-0.45809 -3.7338,-0.68715 -5.7038,-0.68719 -2.3364,4e-5 -4.1689,0.48107 -5.4975,1.4431 -1.2828,0.96211 -1.9242,2.3136 -1.9241,4.0544 -10e-5,1.0537 0.2061,1.97 0.6184,2.7488 0.4581,0.73304 1.0766,1.3973 1.8555,1.9929 0.8246,0.5956 1.7637,1.1454 2.8174,1.6493 1.0995,0.50397 2.2907,0.98501 3.5735,1.4431 2.2448,0.82466 4.2376,1.6722 5.9785,2.5426 1.7867,0.82466 3.2756,1.8325 4.4668,3.0237 1.2369,1.1453 2.1761,2.5197 2.8175,4.1232 0.6413,1.5577 0.962,3.4589 0.9621,5.7037 -10e-5,4.3064 -1.5348,7.6508 -4.6042,10.033 -3.0237,2.3365 -7.4676,3.5047 -13.332,3.5047 -1.97,0 -3.7796,-0.13744 -5.4288,-0.41232 -1.6035,-0.22906 -3.0466,-0.52685 -4.3293,-0.89335 -1.237,-0.3665 -2.3136,-0.73301 -3.2299,-1.0995 -0.9162,-0.41232 -1.6492,-0.77882 -2.199,-1.0995 l 2.5426,-7.0781 c 1.237,0.6872 2.9092,1.3744 5.0166,2.0616 2.1073,0.6872 4.65,1.0308 7.6278,1.0308"
         inkscape:connector-curvature="0" />
      <path
         id="path4227"
         style="fill:#ffffff;stroke:#ffffff"
         d="m 1093.9,582.74 h 8.6586 v 47.623 H 1093.9 V 582.74"
         inkscape:connector-curvature="0" />
      <path
         id="path4229"
         style="fill:#ffffff;stroke:#ffffff"
         d="m 1122.7,623.22 c 0.5039,0.0458 1.1682,0.0916 1.9928,0.13744 0.8246,10e-6 1.9471,10e-6 3.3673,0 5.8182,10e-6 10.148,-1.466 12.988,-4.398 2.8862,-2.9778 4.3293,-7.1239 4.3294,-12.438 -10e-5,-5.4059 -1.3974,-9.552 -4.1919,-12.438 -2.7946,-2.8862 -7.124,-4.3293 -12.988,-4.3293 -2.5655,4e-5 -4.398,0.0688 -5.4975,0.20616 v 33.26 m 31.748,-16.699 c 0,4.1232 -0.6414,7.7195 -1.9241,10.789 -1.2828,3.0237 -3.1153,5.5663 -5.4976,7.6279 -2.3365,2.0158 -5.1769,3.5276 -8.5212,4.5355 -3.2985,0.96208 -6.9636,1.4431 -10.995,1.4431 -1.9241,0 -4.1003,-0.0916 -6.5283,-0.27488 -2.4281,-0.13743 -4.7417,-0.45813 -6.9407,-0.96207 v -46.248 c 2.199,-0.5039 4.5355,-0.82459 7.0094,-0.96207 2.4739,-0.13739 4.6729,-0.20611 6.5971,-0.20616 3.9857,5e-5 7.6278,0.48108 10.926,1.4431 3.2985,0.9163 6.116,2.3823 8.4525,4.398 2.3823,1.97 4.2148,4.4897 5.4976,7.5591 1.2827,3.0237 1.9241,6.6429 1.9241,10.858"
         inkscape:connector-curvature="0" />
      <path
         id="path4231"
         style="fill:#ffffff;stroke:#ffffff"
         d="m 1164,630.36 v -47.623 h 30.58 v 7.353 h -21.922 v 11.751 h 19.516 v 7.2155 h -19.516 v 13.95 h 23.571 v 7.353 H 1164"
         inkscape:connector-curvature="0" />
    </g>
    <g
       id="I2P_Label"
       inkscape:label="i2p icon"
       transform="matrix(0.94915254,0,0,0.94915254,407.99334,47.691666)">
      <circle
         r="25.253813"
         cy="444.7291"
         cx="761.20905"
         id="path839"
         style="fill:#60ab60;fill-opacity:1;fill-rule:evenodd;stroke:none;stroke-width:1px;stroke-linecap:butt;stroke-linejoin:miter;stroke-opacity:1" />
      <circle
         style="fill:#ffc434;fill-opacity:1;fill-rule:evenodd;stroke:none;stroke-width:1px;stroke-linecap:butt;stroke-linejoin:miter;stroke-opacity:1"
         id="circle881"
         cx="823.33344"
         cy="444.7291"
         r="25.253813" />
      <circle
         style="fill:#ffc434;fill-opacity:1;fill-rule:evenodd;stroke:none;stroke-width:1px;stroke-linecap:butt;stroke-linejoin:miter;stroke-opacity:1"
         id="circle883"
         cx="761.20905"
         cy="507.35855"
         r="25.253813" />
      <circle
         r="25.253813"
         cy="507.35855"
         cx="823.33344"
         id="circle885"
         style="fill:#e15647;fill-opacity:1;fill-rule:evenodd;stroke:none;stroke-width:1px;stroke-linecap:butt;stroke-linejoin:miter;stroke-opacity:1" />
    </g>
    <g
       id="g1065"
       transform="translate(836.76758,382.46222)"
       inkscape:label="tor icon">
      <g
         style="display:inline"
         id="layer3"
         transform="matrix(0.69075695,0,0,0.69075695,-5.1581815,1.5628976)">
        <g
           id="layer5">
          <path
             style="fill:#abcd03"
             id="path2554"
             d="m 264.513,77.977773 -4.917,19.529001 c 6.965,-13.793001 18.027,-24.172001 30.729,-33.323001 -9.287,10.789 -17.754,21.579001 -22.944,32.368001 8.741,-12.292001 20.486,-19.120001 33.733,-23.627001 -17.618,15.706001 -31.60228,32.559277 -42.25528,49.494277 l -8.467,-3.687 c 1.501,-13.521 6.60928,-27.369276 14.12128,-40.754277 z"
             inkscape:connector-curvature="0" />
          <path
             style="fill:#fffcdb"
             id="path2534"
             d="m 241.90113,115.14152 16.116,6.68594 c 0,4.098 -0.33313,16.59703 2.22938,20.28403 26.80289,34.5191 22.29349,103.71329 -5.42951,105.48829 -42.21656,0 -58.317,-28.679 -58.317,-55.03801 0,-24.037 28.816,-40.016 46.025,-54.219 4.37,-3.824 3.61113,-12.27525 -0.62387,-23.20125 z"
             inkscape:connector-curvature="0" />
          <path
             style="fill:#7d4698"
             id="path2536"
             d="m 258.02197,121.58695 5.80803,2.96282 c -0.546,3.823 0.273,12.292 4.096,14.476 16.936,10.516 32.914,21.988 39.197,33.46 22.398,40.42601 -15.706,77.84601 -48.62,74.29501 17.891,-13.248 23.081,-40.42501 16.389,-70.06201 -2.731,-11.609 -6.966,-22.125 -14.478,-34.007 -3.25421,-5.83246 -2.11803,-13.06582 -2.39203,-21.12482 z"
             inkscape:connector-curvature="0" />
        </g>
        <g
           style="display:inline"
           id="layer4">
          <path
             id="path2538"
             d="m 255.226,120.58877 12.018,1.639 c -3.551,11.745 6.966,19.939 10.38,21.852 7.64801,4.234 15.02301,8.604 20.89601,13.93 11.063,10.106 17.345,24.31 17.345,39.333 0,14.886 -6.829,29.226 -18.301,38.786 -10.789,9.014 -25.67501,12.838 -40.15201,12.838 -9.014,0 -17.072,-0.409 -25.812,-3.278 -19.939,-6.692 -34.826,-23.763 -36.055,-44.25 -1.093,-15.979 2.458,-28.134 14.887,-40.835 6.418,-6.692 19.393,-14.34 28.271,-20.486 4.371,-3.005 9.014,-11.473 0.136,-27.451 l 1.776,-1.366 13.15659,8.81203 -11.10759,-4.57803 c 0.956,1.366 3.551,7.512 4.098,9.287 1.229,5.053 0.683,9.971 -0.41,12.155 -5.599,10.107 -15.159,12.838 -22.124,18.574 -12.292,10.106 -25.676,18.164 -24.174,45.888 0.683,13.657 11.336,30.319 27.314,38.104 9.014,4.371 19.394,6.146 29.91,6.692 9.423,0.41 27.45101,-5.19 37.28401,-13.384 10.516,-8.74 16.389,-21.988 16.389,-35.508 0,-13.658 -5.463,-26.632 -15.706,-35.783 -5.873,-5.326 -15.56901,-11.745 -21.57801,-15.16 -6.009,-3.414 -13.521,-12.974 -11.063,-22.124 z"
             inkscape:connector-curvature="0" />
          <path
             id="path2540"
             d="m 251.539,140.80177 c -1.229,6.283 -2.595,17.618 -8.058,21.852 -2.322,1.638 -4.644,3.278 -7.102,4.916 -9.833,6.693 -19.667,12.974 -24.173,29.09 -0.956,3.415 -0.136,7.102 0.684,10.516 2.458,9.833 9.423,20.486 14.886,26.769 0,0.273 1.093,0.956 1.093,1.229 4.507,5.327 5.873,6.829 22.944,10.652 l -0.41,1.913 c -10.243,-2.731 -18.71,-5.189 -24.037,-11.336 0,-0.136 -0.956,-1.093 -0.956,-1.093 -5.736,-6.556 -12.702,-17.481 -15.296,-27.724 -0.956,-4.098 -1.775,-7.238 -0.683,-11.473 4.643,-16.661 14.75,-23.217 24.993,-30.182 2.322,-1.502 5.053,-2.869 7.238,-4.644 4.233,-3.14 6.554,-12.701 8.877,-20.485 z"
             inkscape:connector-curvature="0" />
          <path
             id="path2542"
             d="m 255.90625,166.74951 c 0.137,7.102 -0.55625,10.66475 1.21875,15.71875 1.092,3.004 4.782,7.1015 5.875,11.0625 1.502,5.327 3.138,11.19901 3,14.75001 0,4.09799 -0.25625,11.74249 -2.03125,19.93749 -1.35362,6.77108 -4.47323,12.58153 -9.71875,15.875 -5.37327,-1.10644 -11.68224,-2.99521 -15.40625,-6.1875 -7.238,-6.282 -13.64875,-16.7865 -14.46875,-25.9375 -0.682,-7.51099 6.27275,-18.5885 15.96875,-24.1875 8.194,-4.78 10.1,-10.22775 11.875,-18.96875 -2.458,7.648 -4.7665,14.05925 -12.6875,18.15625 -11.472,6.009 -17.3585,16.09626 -16.8125,25.65625 0.819,12.291 5.7415,20.6195 15.4375,27.3125 4.097,2.868 11.75125,5.89875 16.53125,6.71875 v -0.625 c 3.62493,-0.67888 8.31818,-6.63267 10.65625,-14.6875 2.049,-7.238 2.85675,-16.502 2.71875,-22.37499 -0.137,-3.414 -1.643,-10.80801 -4.375,-17.50001 -1.502,-3.687 -3.8095,-7.37375 -5.3125,-9.96875 -1.637,-2.597 -1.64875,-8.195 -2.46875,-14.75 z"
             inkscape:connector-curvature="0" />
          <path
             id="path2544"
             d="m 255.09375,193.53076 c 0.136,4.78 2.056,10.90451 2.875,17.18751 0.684,4.64399 0.387,9.30824 0.25,13.40624 -0.13495,4.74323 -1.7152,13.24218 -3.875,17.375 -2.03673,-0.93403 -2.83294,-1.99922 -4.15625,-3.71875 -1.638,-2.322 -2.75075,-4.644 -3.84375,-7.375 -0.819,-2.049 -1.7765,-4.394 -2.1875,-7.125 -0.546,-4.097 -0.393,-10.5065 4.25,-17.06249 3.551,-5.19001 4.36475,-5.58476 5.59375,-11.59376 -1.64,5.326 -2.8625,5.869 -6.6875,10.37501 -4.233,4.917 -4.9375,12.15924 -4.9375,18.03124 0,2.459 0.9805,5.18725 1.9375,7.78125 1.092,2.732 2.02925,5.452 3.53125,7.5 2.25796,3.32082 5.14798,5.20922 6.5625,5.5625 0.009,0.002 0.022,-0.002 0.0312,0 0.0303,0.007 0.0649,0.0255 0.0937,0.0312 v -0.15625 c 2.64982,-2.95437 4.24444,-5.88934 4.78125,-8.84375 0.683,-3.551 0.84,-7.10975 1.25,-11.34375 0.409,-3.551 0.11225,-8.334 -0.84375,-13.24999 -1.365,-6.146 -3.669,-12.41226 -4.625,-16.78126 z"
             inkscape:connector-curvature="0" />
          <path
             id="path2550"
             d="m 255.499,135.06577 c 0.137,7.101 0.683,20.35 2.595,25.539 0.546,1.775 5.599,9.56 9.149,18.983 2.459,6.556 3.005,12.565 3.415,14.34 1.639,7.785 -0.41,20.896 -3.142,33.324 -1.365,6.692 -6.009,15.023 -11.335,18.301 l -1.092,1.912 c 3.005,-0.137 10.379,-7.375 12.974,-16.389 4.371,-15.296 6.146,-22.398 4.098,-39.333 -0.273,-1.64 -0.956,-7.238 -3.551,-13.248 -3.824,-9.151 -9.287,-17.891 -9.969,-19.667 -1.23,-2.867 -2.869,-15.295 -3.142,-23.762 z"
             inkscape:connector-curvature="0" />
          <path
             id="path2552"
             d="m 258.06151,125.35303 c -0.40515,7.29812 -0.51351,9.98574 0.85149,15.31174 1.502,5.873 9.151,14.34 12.292,24.037 6.009,18.574 4.507,42.884 0.136,61.867 -1.638,6.691 -9.424,16.389 -17.208,19.529 l 5.736,1.366 c 3.141,-0.137 11.198,-7.648 14.34,-16.252 5.052,-13.521 6.009,-29.636 3.96,-46.571 -0.137,-1.639 -2.869,-16.252 -5.463,-22.398 -3.688,-9.15 -10.244,-17.345 -10.926,-19.119 -1.228,-3.005 -3.92651,-9.24362 -3.71849,-17.77074 z"
             inkscape:connector-curvature="0" />
          <rect
             id="rect2556"
             y="120.21686"
             x="253.71959"
             height="126.01891"
             width="0.550412" />
        </g>
      </g>
    </g>
  </g>
  <metadata
     id="metadata29">
    <rdf:RDF>
      <cc:Work>
        <dc:format>image/svg+xml</dc:format>
        <dc:type
           rdf:resource="http://purl.org/dc/dcmitype/StillImage" />
        <cc:license
           rdf:resource="http://creativecommons.org/publicdomain/zero/1.0/" />
        <dc:publisher>
          <cc:Agent
             rdf:about="http://openclipart.org/">
            <dc:title>Openclipart</dc:title>
          </cc:Agent>
        </dc:publisher>
        <dc:title>WiFi: Free TOR &amp; I2P inside</dc:title>
        <dc:contributor>
          <cc:Agent>
            <dc:title>Tor icon by flugaal https://commons.wikimedia.org/wiki/File:Tor-logo-2011-flat.svg
Original file by cyberscooty https://openclipart.org/detail/195841/logo-free-wifi-inside-for-a-cafe</dc:title>
          </cc:Agent>
        </dc:contributor>
        <dc:source>https://openclipart.org/detail/195841/logo-free-wifi-inside-for-a-cafe</dc:source>
        <dc:language>English</dc:language>
        <dc:creator>
          <cc:Agent>
            <dc:title>LoveIsGrief</dc:title>
          </cc:Agent>
        </dc:creator>
      </cc:Work>
      <cc:License
         rdf:about="http://creativecommons.org/publicdomain/zero/1.0/">
        <cc:permits
           rdf:resource="http://creativecommons.org/ns#Reproduction" />
        <cc:permits
           rdf:resource="http://creativecommons.org/ns#Distribution" />
        <cc:permits
           rdf:resource="http://creativecommons.org/ns#DerivativeWorks" />
      </cc:License>
    </rdf:RDF>
  </metadata>
</svg>
