<?xml version="1.0" encoding="UTF-8" standalone="no"?>
<svg
   xmlns:dc="http://purl.org/dc/elements/1.1/"
   xmlns:cc="http://creativecommons.org/ns#"
   xmlns:rdf="http://www.w3.org/1999/02/22-rdf-syntax-ns#"
   xmlns:svg="http://www.w3.org/2000/svg"
   xmlns="http://www.w3.org/2000/svg"
   xmlns:sodipodi="http://sodipodi.sourceforge.net/DTD/sodipodi-0.dtd"
   xmlns:inkscape="http://www.inkscape.org/namespaces/inkscape"
   inkscape:version="1.0 (4035a4fb49, 2020-05-01)"
   sodipodi:docname="camera.svg"
   xml:space="preserve"
   style="enable-background:new 0 0 297 297;"
   viewBox="0 0 297 297"
   y="0px"
   x="0px"
   id="Layer_1"
   version="1.1"><metadata
   id="metadata1019"><rdf:RDF><cc:Work
       rdf:about=""><dc:format>image/svg+xml</dc:format><dc:type
         rdf:resource="http://purl.org/dc/dcmitype/StillImage" /><dc:title></dc:title></cc:Work></rdf:RDF></metadata><defs
   id="defs1017">
	
	
	
	
	
	
	
	
	
	
	
	
</defs><sodipodi:namedview
   inkscape:current-layer="Layer_1"
   inkscape:window-maximized="0"
   inkscape:window-y="0"
   inkscape:window-x="0"
   inkscape:cy="179.61554"
   inkscape:cx="74.211401"
   inkscape:zoom="0.79441263"
   showgrid="false"
   id="namedview1015"
   inkscape:window-height="674"
   inkscape:window-width="1284"
   inkscape:pageshadow="2"
   inkscape:pageopacity="0"
   guidetolerance="10"
   gridtolerance="10"
   objecttolerance="10"
   borderopacity="1"
   bordercolor="#666666"
   pagecolor="#ffffff" />
<g
   id="g948">
		<path
   style="fill:#d0d5d9"
   d="m 252.873,191.47 -31.758,-15.879 c -2.02,-1.01 -3.295,-3.074 -3.295,-5.332 v -36.312 c 0,-2.258 1.276,-4.322 3.295,-5.332 l 31.758,-15.879 c 3.964,-1.982 8.627,0.9 8.627,5.332 v 68.071 c 0,4.431 -4.664,7.313 -8.627,5.331 z"
   id="path946" />
	</g><g
   id="g952">
		<path
   style="fill:#777c7f"
   d="M 206.238,207.25 H 69.965 c -12.126,0 -21.955,-9.83 -21.955,-21.955 v -66.384 c 0,-12.126 9.83,-21.955 21.955,-21.955 h 136.274 c 12.126,0 21.955,9.83 21.955,21.955 v 66.384 c -10e-4,12.125 -9.83,21.955 -21.956,21.955 z"
   id="path950" />
	</g><g
   id="g960">
		<path
   style="fill:#585d60"
   d="M 206.238,96.956 H 148.167 V 207.25 h 58.071 c 12.125,0 21.955,-9.83 21.955,-21.955 v -66.384 c 0,-12.126 -9.829,-21.955 -21.955,-21.955 z"
   id="path958" />
	</g><g
   id="g964">
		<path
   style="fill:#32373b"
   d="m 69.965,96.956 c -12.125,0 -21.955,9.83 -21.955,21.955 v 66.384 c 0,12.125 9.83,21.955 21.955,21.955 H 91.327 V 96.956 Z"
   id="path962" />
	</g><g
   id="g968">
		<path
   style="fill:#d0d5d9"
   d="m 181.509,122.072 h 3.276 c 2.412,0 4.368,-1.956 4.368,-4.368 v -3.276 c 0,-2.412 -1.956,-4.368 -4.368,-4.368 h -3.276 c -2.412,0 -4.368,1.956 -4.368,4.368 v 3.276 c 0,2.412 1.956,4.368 4.368,4.368 z"
   id="path966" />
	</g><g
   id="g972">
		<path
   style="fill:#d0d5d9"
   d="m 202.531,122.072 h 3.276 c 2.412,0 4.368,-1.956 4.368,-4.368 v -3.276 c 0,-2.412 -1.956,-4.368 -4.368,-4.368 h -3.276 c -2.413,0 -4.368,1.956 -4.368,4.368 v 3.276 c 0,2.412 1.955,4.368 4.368,4.368 z"
   id="path970" />
	</g><g
   id="g976">
		<path
   style="fill:#32373b"
   d="m 111.438,179.13 h 89.364 c 5.177,0 9.373,-4.197 9.373,-9.373 v -17.29 c 0,-5.177 -4.197,-9.373 -9.373,-9.373 h -89.364 c -5.177,0 -9.373,4.197 -9.373,9.373 v 17.29 c 0,5.177 4.196,9.373 9.373,9.373 z"
   id="path974" />
	</g><g
   id="g980">
		<path
   style="fill:#2c3033"
   d="m 200.802,143.094 h -52.635 v 36.037 h 52.635 c 5.177,0 9.373,-4.197 9.373,-9.373 v -17.29 c 0,-5.178 -4.197,-9.374 -9.373,-9.374 z"
   id="path978" />
	</g>
<g
   id="g984">
</g>
<g
   id="g986">
</g>
<g
   id="g988">
</g>
<g
   id="g990">
</g>
<g
   id="g992">
</g>
<g
   id="g994">
</g>
<g
   id="g996">
</g>
<g
   id="g998">
</g>
<g
   id="g1000">
</g>
<g
   id="g1002">
</g>
<g
   id="g1004">
</g>
<g
   id="g1006">
</g>
<g
   id="g1008">
</g>
<g
   id="g1010">
</g>
<g
   id="g1012">
</g>
</svg>
