<?xml version="1.0" encoding="UTF-8" standalone="no"?>
<!-- Created with Inkscape (http://www.inkscape.org/) -->
<svg xmlns:dc="http://purl.org/dc/elements/1.1/" xmlns:cc="http://creativecommons.org/ns#" xmlns:rdf="http://www.w3.org/1999/02/22-rdf-syntax-ns#" xmlns:svg="http://www.w3.org/2000/svg" xmlns="http://www.w3.org/2000/svg" xmlns:sodipodi="http://sodipodi.sourceforge.net/DTD/sodipodi-0.dtd" xmlns:inkscape="http://www.inkscape.org/namespaces/inkscape" id="svg4136" version="1.1" inkscape:version="0.91 r13725" width="2333.8816" height="2368.4211" viewBox="0 0 2333.8816 2368.4211" sodipodi:docname="fossasia_2016_hexagon.svg">
  <metadata id="metadata4142">
    <rdf:RDF>
      <cc:Work rdf:about="">
        <dc:format>image/svg+xml</dc:format>
        <dc:type rdf:resource="http://purl.org/dc/dcmitype/StillImage"/>
        <dc:title/>
      </cc:Work>
    </rdf:RDF>
  </metadata>
  <defs id="defs4140">
    <inkscape:path-effect effect="skeletal" id="path-effect4513" is_visible="true" pattern="m 130.50481,0.00322815 c -10.9571,0.1958 -20.6636,9.28879995 -29.8204,27.80269985 -18.288296,36.9767 -24.359396,78.984402 -17.314396,119.800802 5.3865,31.2071 17.787396,66.5183 29.474596,83.9278 2.8424,4.2339 9.4119,13.9852 14.5996,21.6699 10.971,16.2524 21.2418,35.8731 25.5977,48.9023 2.3906,7.1508 3.1727,11.4721 3.5586,19.6563 0.8545,18.1191 -1.9476,28.2782 -18.9356,68.6738 -6.2484,14.858 -10.6754,26.8258 -11.2461,30.4004 -2.3144,14.4936 3.6591,27.7202 14.2852,31.6328 7.4606,2.7469 16.6165,-0.6366 23.5078,-8.6875 6.9735,-8.1469 23.1048,-42.653 29.9512,-64.0684 6.7234,-21.0307 8.4802,-31.4666 8.5312,-50.6796 0.051,-18.9766 -1.0786,-25.9167 -7.2949,-44.8164 -7.6731,-23.3288 -20.9457,-50.1567 -38.3652,-77.5508 -17.8727,-28.1068 -26.1397,-51.3784 -28.8653,-81.2461 -2.7022,-29.612202 6.0444,-66.436602 21.4688,-90.378902 3.4008,-5.2791 3.7566,-6.4546 3.7226,-12.336 -0.061,-10.8876 -6.3158,-19.1217999 -16.6347,-21.90039985 -2.1193,-0.5706 -4.1917,-0.8389 -6.2207,-0.8027 z m 3.1953,8.88869995 c 2.1771,0.038 3.2669,0.7116 5.5996,2.7596999 3.9,3.4243 5.7121,8.6897 4.6777,13.5997 -0.3619,1.7182 -2.7345,6.6032 -5.2715,10.8554 -5.2525,8.804 -12.821,30.8628 -16.5332,48.1914 -2.0214,9.4353 -2.3208,13.5022 -2.2988,31.086002 0.02,15.4109 0.446,22.3299 1.791,29.0468 4.1177,20.5626 14.0438,43.5902 31.2949,72.5977 31.0334,52.1824 42.8011,85.9776 41.0606,117.9277 -1.2963,23.7965 -9.4671,50.7856 -24.7949,81.9082 -8.1943,16.6381 -11.9713,22.3725 -16.5977,25.1934 -4.668,2.846 -9.6346,2.5473 -12.7988,-0.7695 -3.5006,-3.6693 -4.6895,-7.2009 -4.6895,-13.9414 0,-6.8895 2.7652,-15.331 13.6153,-41.5684 17.1523,-41.4773 19.7503,-56.3452 13.9296,-79.7363 -4.043,-16.2471 -12.367,-32.9896 -29.6171,-59.5703 -19.3146,-29.7617 -25.4609,-42.2946 -32.8262,-66.9434 -7.747296,-25.9276 -10.496096,-43.0746 -10.496096,-65.4727 0,-28.519102 6.3205,-56.374502 18.380896,-81.013602 8.0097,-16.3638 14.5411,-23.1940999 22.9492,-24.0019999 1.0536,-0.1012 1.8993,-0.1609 2.625,-0.1484 z m 112.9609,19.6503999 c -6.9615,0 -11.104,1.4989 -15.9902,5.789 -5.7934,5.0868 -7.6029,10.7527 -7.6289,23.8887 -0.036,18.3549 -3.978,36.0579 -12.5586,56.414102 -7.8999,18.7413 -22.288,39.4077 -38.0137,54.5996 -7.103,6.862 -17.841,15.8102 -21.332,17.7773 -0.2275,0.1282 16.038,27.7859 22.1699,37.6973 1.6741,2.7059 1.229,2.9409 13.6426,-7.2188 27.0696,-22.1547 49.1155,-49.0447 62.8554,-76.6699 16.6706,-33.5179 25.1464,-81.069602 17.5235,-98.308602 -4.1151,-9.3062 -11.0137,-13.9687 -20.668,-13.9687 z m -86.7246,3.2715 c -0.1678,0 -0.2983,0.014 -0.3887,0.037 -1.4915,0.3743 -4.1411,1.9581 -5.8886,3.5195 -2.5581,2.2856 -3.1778,3.5935 -3.1778,6.7168 0,4.3401 2.1881,8.3076 5.9395,10.7656 1.3772,0.9023 12.8069,4.2182 25.3984,7.3692 12.5915,3.151 23.4623,5.7503 24.1582,5.7754 2.5946,0.093 7.8489,-2.7661 9.918,-5.3965 3.9343,-5.0016 1.6392,-13.4949 -4.4785,-16.5743 -5.0656,-2.5499 -46.2801,-12.2679 -51.4805,-12.2128 z m -16.7012,43.6308 c -0.1967,0 -0.3465,0.01 -0.4472,0.027 -4.2809,0.9403 -8.4818,5.037 -9.2246,8.9961 -0.8008,4.2687 1.372,9.3658 5.0078,11.748 1.3869,0.9088 14.394,4.688002 28.9043,8.398402 30.8609,7.8916 35.2164,8.2214 39.8711,3.0118 4.7054,-5.2663 3.2135,-13.505002 -3.1231,-17.248102 -4.1483,-2.4503 -54.8899,-14.8073 -60.9883,-14.9336 z m -0.8984,51.222702 c -0.4395,-0.013 -0.788,0 -1.0313,0.047 -8.3627,1.5688 -12.0577,11.6787 -6.6269,18.1329 2.8044,3.3329 4.6976,4.0665 22.1719,8.5898 6.7845,1.7562 14.7114,3.238 17.6152,3.293 4.7518,0.09 5.615,-0.234 8.6348,-3.2539 2.6053,-2.6052 3.3554,-4.1701 3.3554,-7.002 0,-4.3873 -2.2979,-8.5779 -5.8086,-10.5937 -4.4976,-2.5824 -31.7188,-9.0198 -38.3105,-9.2129 z m -42.470696,90.3613 c -0.2832,0 -6.783,4.1853 -14.4453,9.3008 -43.0351,28.7311 -61.2967,50.7192 -73.502,88.5058 -8.8513004,27.4028 -14.6450004,77.0486 -10.6113004,90.9219 1.8312,6.2979 6.3755,12.1774 10.9531004,14.1719 11.7672,5.1274 27.108,-4.3877 33.2852,-20.6445 1.0594,-2.7883 3.3722,-15.9255 5.3144,-30.1914 6.6575,-48.9024 10.0483,-59.8265 24.0293,-77.4063 9.6691,-12.1579 26.609596,-26.3021 41.007796,-34.2402 3.2566,-1.7955 6.0468,-3.349 6.2012,-3.4532 0.1543,-0.1042 -3.1383,-5.2459 -7.3164,-11.4238 -4.178,-6.1778 -9.1268,-14.4517 -10.998,-18.3867 -1.8712,-3.9351 -3.6349,-7.1543 -3.917996,-7.1543 z m -6.8985,66.123 c -4.8215,0 -9.4514,2.883 -11.121,6.9141 -1.1215,2.7082 -1.1103,3.8201 0.078,7.1817 0.7733,2.1875 2.6439,4.8939 4.1562,6.0136 1.6619,1.2305 11.4203,4.2579 24.669996,7.6543 12.0568,3.0906 23.6981,5.6562 25.8691,5.6992 11.2171,0.2233 16.3131,-12.1272 8.0117,-19.416 -2.7691,-2.4313 -6.7297,-3.7415 -25.6113,-8.4648 -12.2849,-3.073 -24.009096,-5.5821 -26.052796,-5.5821 z m -22.5585,43.7012 c -0.2772,-0.01 -0.5024,0 -0.6719,0.022 -10.2829,1.3789 -13.119,14.851 -4.3008,20.4316 1.158,0.7329 16.3152,4.9927 33.6836,9.4649 17.368396,4.4722 33.576996,8.1631 36.019496,8.2031 5.5299,0.091 10.0605,-2.5233 11.8477,-6.8379 1.8248,-4.4053 -0.273,-10.4592 -4.6406,-13.3926 -4.6942,-3.1528 -63.345496,-17.6489 -71.937496,-17.8906 z m -6.8653,50.3809 c -3.8091,0.081 -5.5745,1.2999 -7.5664,3.5293 -4.9438,5.533 -2.7573,14.9785 4.127,17.8301 1.7371,0.7195 13.6696,3.8567 26.5156,6.9707 25.028496,6.0671 30.205796,6.7178 34.736296,4.375 3.1898,-1.6495 5.8948,-6.0341 5.8848,-9.5547 0,-2.9233 -3.209,-8.1716 -6.1152,-10.0137 -1.247,-0.7905 -13.814,-4.1847 -27.925796,-7.543 -16.4813,-3.9219 -24.7588,-5.6982 -29.6563,-5.5937 z" copytype="single_stretched" prop_scale="1" scale_y_rel="false" spacing="0" normal_offset="0" tang_offset="0" prop_units="false" vertical_pattern="false" fuse_tolerance="0"/>
    <inkscape:path-effect effect="skeletal" id="path-effect4175" is_visible="true" pattern="m -1837.3517,-166.14298 1,0" copytype="single_stretched" prop_scale="1" scale_y_rel="false" spacing="0" normal_offset="0" tang_offset="0" prop_units="false" vertical_pattern="false" fuse_tolerance="0"/>
    <inkscape:path-effect effect="skeletal" id="path-effect5143" is_visible="true" pattern="M 116.24577,2.2272378e-4 C 107.73807,0.01352272 99.32187,0.62485272 93.68717,1.8303027 49.18637,11.350663 14.66257,44.230653 3.2496703,87.959203 c -3.36410003,12.889097 -4.275,35.026327 -1.9824,48.169917 8.4804,48.61659 45.8610997,86.45997 94.5253997,95.69141 4.7532,0.90167 13.4845,1.51367 21.5879,1.51367 l 13.6074,0 0.6641,7.1543 c 0.3654,3.93504 0.8833,7.93103 1.1523,8.88086 0.269,0.94984 0.7388,1.72656 1.043,1.72656 0.304,0 3.4935,-2.15234 7.0879,-4.7832 3.5944,-2.63086 14.8622,-10.87743 25.039,-18.32617 10.1768,-7.44875 18.502,-13.8916 18.502,-14.31836 0,-0.42676 -4.1064,-2.59013 -9.127,-4.80664 -5.0205,-2.21653 -18.1771,-8.0377 -29.2363,-12.9375 l -20.1074,-8.91016 0.6348,6.13672 c 0.3497,3.37514 0.9009,8.46885 1.2246,11.31836 l 0.5898,5.17968 -11.0117,0 c -16.4442,0 -28.4271,-2.79358 -42.9942,-10.02539 -23.2934,-11.56405 -40.1781,-32.41543 -47.9277,-59.1875 -3.168,-10.9443 -3.6862,-30.04787 -1.1484,-42.308587 8.9904,-43.43488 46.66,-74.38158 90.5195,-74.36328 23.4669,0.01 49.8895,11.4377 68.1387,29.4707 15.0923,14.9136 21.1929,27.73101 21.9414,46.09571 0.9051,22.200567 -6.2292,38.882557 -19.5215,45.644527 -7.6887,3.91137 -22.7094,6.05872 -22.6894,3.24414 0.005,-0.67845 1.3179,-20.08899 2.9179,-43.13477 1.6001,-23.045787 2.8172,-41.977407 2.7051,-42.070307 -0.1122,-0.0929 -4.9472,-0.48562 -10.7441,-0.87109 l -10.5391,-0.69922 -0.6738,6.83593 -0.6739,6.83594 -4.541,-4.85547 c -10.9752,-11.73336 -28.3741,-16.38004 -45.1113,-12.04883 -16.405,4.24527 -30.0892,19.26793 -34.9844,38.40821 -9.389,36.710717 6.7419,69.268597 37.2149,75.113277 12.2055,2.34101 26.7449,-0.80488 36.8671,-7.97656 l 4.5157,-3.20117 -0.4551,7.88476 -0.457,7.88281 17.6504,-0.48437 c 20.5473,-0.5639 26.1484,-1.7423 39.7246,-8.36328 15.411,-7.51579 25.83,-19.65627 31.7617,-37.00782 14.9549,-43.746557 -8.3925,-92.990687 -55.3184,-116.681637 -10.8234,-5.4642703 -23.3827,-9.8718303 -34.2676,-12.0253903 -6.0007,-1.18719998 -14.5997,-1.77309998 -23.1074,-1.75975997622 z M 114.68327,80.754123 c 1.5244,-0.006 3.0816,0.14759 4.6621,0.47071 12.342,2.52311 19.5864,12.58464 20.4493,28.400387 1.0315,18.90594 -6.2118,34.01946 -18.3575,38.30469 -12.1942,4.30238 -24.8015,-2.07298 -29.8261,-15.08204 -2.7751,-7.18485 -3.0603,-22.50771 -0.5743,-30.88672 3.9295,-13.244277 12.9757,-21.165257 23.6465,-21.207027 z" copytype="single_stretched" prop_scale="1" scale_y_rel="false" spacing="0" normal_offset="0" tang_offset="0" prop_units="false" vertical_pattern="false" fuse_tolerance="0"/>
    <inkscape:path-effect effect="skeletal" id="path-effect5053" is_visible="true" pattern="M 0,0 1,0" copytype="single_stretched" prop_scale="1" scale_y_rel="false" spacing="0" normal_offset="0" tang_offset="0" prop_units="false" vertical_pattern="false" fuse_tolerance="0"/>
    <inkscape:path-effect effect="skeletal" id="path-effect5041" is_visible="true" pattern="M 0,0 1,0" copytype="single_stretched" prop_scale="1" scale_y_rel="false" spacing="0" normal_offset="0" tang_offset="0" prop_units="false" vertical_pattern="false" fuse_tolerance="0"/>
    <inkscape:path-effect effect="skeletal" id="path-effect5029" is_visible="true" pattern="M 0,0 1,0" copytype="single_stretched" prop_scale="1" scale_y_rel="false" spacing="0" normal_offset="0" tang_offset="0" prop_units="false" vertical_pattern="false" fuse_tolerance="0"/>
    <inkscape:path-effect effect="skeletal" id="path-effect5015" is_visible="true" pattern="M 0,0 1,0" copytype="single_stretched" prop_scale="1" scale_y_rel="false" spacing="0" normal_offset="0" tang_offset="0" prop_units="false" vertical_pattern="false" fuse_tolerance="0"/>
    <inkscape:path-effect effect="skeletal" id="path-effect5005" is_visible="true" pattern="M 0,0 1,0" copytype="single_stretched" prop_scale="1" scale_y_rel="false" spacing="0" normal_offset="0" tang_offset="0" prop_units="false" vertical_pattern="false" fuse_tolerance="0"/>
    <inkscape:path-effect effect="skeletal" id="path-effect4993" is_visible="true" pattern="M 0,0 1,0" copytype="single_stretched" prop_scale="1" scale_y_rel="false" spacing="0" normal_offset="0" tang_offset="0" prop_units="false" vertical_pattern="false" fuse_tolerance="0"/>
    <inkscape:path-effect effect="skeletal" id="path-effect4981" is_visible="true" pattern="M 0,0 1,0" copytype="single_stretched" prop_scale="1" scale_y_rel="false" spacing="0" normal_offset="0" tang_offset="0" prop_units="false" vertical_pattern="false" fuse_tolerance="0"/>
    <inkscape:path-effect effect="skeletal" id="path-effect4969" is_visible="true" pattern="M 0,0 1,0" copytype="single_stretched" prop_scale="1" scale_y_rel="false" spacing="0" normal_offset="0" tang_offset="0" prop_units="false" vertical_pattern="false" fuse_tolerance="0"/>
    <inkscape:path-effect effect="skeletal" id="path-effect4957" is_visible="true" pattern="M 0,0 1,0" copytype="single_stretched" prop_scale="1" scale_y_rel="false" spacing="0" normal_offset="0" tang_offset="0" prop_units="false" vertical_pattern="false" fuse_tolerance="0"/>
    <inkscape:path-effect effect="skeletal" id="path-effect4945" is_visible="true" pattern="M 0,0 1,0" copytype="single_stretched" prop_scale="1" scale_y_rel="false" spacing="0" normal_offset="0" tang_offset="0" prop_units="false" vertical_pattern="false" fuse_tolerance="0"/>
    <inkscape:path-effect effect="skeletal" id="path-effect4931" is_visible="true" pattern="M 0,0 1,0" copytype="single_stretched" prop_scale="1" scale_y_rel="false" spacing="0" normal_offset="0" tang_offset="0" prop_units="false" vertical_pattern="false" fuse_tolerance="0"/>
  </defs>
  <sodipodi:namedview pagecolor="#ffffff" bordercolor="#666666" borderopacity="1" objecttolerance="10" gridtolerance="10" guidetolerance="10" inkscape:pageopacity="0" inkscape:pageshadow="2" inkscape:window-width="1600" inkscape:window-height="837" id="namedview4138" showgrid="false" inkscape:zoom="0.20003264" inkscape:cx="1043.3014" inkscape:cy="1301.7205" inkscape:window-x="-8" inkscape:window-y="-8" inkscape:window-maximized="1" inkscape:current-layer="layer5"/>
  <g inkscape:groupmode="layer" id="layer5" inkscape:label="fossasia_2016_hexagon" style="display:inline">
    <g id="g3996" transform="matrix(0.91201436,0,0,0.91201436,5039.5305,94.632956)">
      <rect inkscape:export-ydpi="90" inkscape:export-xdpi="90" ry="1370.5924" rx="1370.5924" y="-55.306515" x="-5496.1938" height="2500" width="2500" id="rect4933" style="color:#000000;clip-rule:nonzero;display:inline;overflow:visible;visibility:visible;opacity:1;isolation:auto;mix-blend-mode:normal;color-interpolation:sRGB;color-interpolation-filters:linearRGB;solid-color:#000000;solid-opacity:1;fill:#ffffff;fill-opacity:1;fill-rule:nonzero;stroke:none;stroke-width:20;stroke-linecap:round;stroke-linejoin:round;stroke-miterlimit:4;stroke-dasharray:none;stroke-dashoffset:0;stroke-opacity:1;marker:none;color-rendering:auto;image-rendering:auto;shape-rendering:auto;text-rendering:auto;enable-background:accumulate"/>
      <g inkscape:export-ydpi="90" inkscape:export-xdpi="90" id="g4825">
        <g style="display:inline" id="g4461-1" transform="translate(-5373.845,409.93309)">
          <g transform="translate(-1152.396,-954.43844)" id="g4445-6">
            <path style="display:inline;fill:#000000" d="m 1375.915,1532.9089 c -0.9649,-0.012 -1.5357,0.021 -1.6132,0.1075 -0.4049,0.452 -3.5054,8.4189 -6.8907,17.7031 l -6.1543,16.8789 -10.2871,1.7637 c -5.658,0.9698 -10.4293,1.5899 -10.6015,1.3769 -0.1723,-0.2129 -5.4811,-6.9253 -11.7989,-14.916 l -11.4882,-14.5293 -4.211,1.8418 c -14.9457,6.5303 -39.8543,18.0554 -40.5723,18.7734 -0.4853,0.4854 0.4734,8.3093 2.209,18.0293 1.6864,9.4444 3.0645,17.6613 3.0645,18.2598 0,0.5985 -3.5129,3.9949 -7.8086,7.5488 l -7.8106,6.4629 -17.6015,-6.8632 c -9.6805,-3.7752 -17.6832,-6.8672 -17.7852,-6.8672 -0.6238,-0.01 -28.9277,39.6388 -28.9277,40.5214 0,0.8584 10.2475,13.5301 22.4082,27.709 1.2087,1.4093 1.0774,2.3752 -1.0078,7.4004 -1.3192,3.1791 -2.9245,7.4171 -3.5664,9.416 -1.3454,4.1894 0.2328,3.6872 -22.6992,7.2188 -8.9182,1.3735 -16.2819,2.6007 -16.3633,2.7285 -0.7532,1.1829 -4.8238,49.3312 -4.2031,49.7148 0.4529,0.2799 8.469,3.3189 17.8144,6.752 16.2537,5.9708 17.004,6.3641 17.2734,9.0508 0.155,1.5448 0.9379,6.0973 1.7383,10.1172 0.8005,4.02 1.3385,7.3943 1.1973,7.5 -7.6223,5.7 -29.3672,23.4335 -29.3672,23.9492 0,0.5862 19.5811,44.7337 20.084,45.2812 0.08,0.087 8.584,-1.3049 18.8965,-3.0937 10.3125,-1.7887 18.8074,-3.1922 18.8789,-3.1192 1.8416,1.8851 12.2051,15.6285 12.2051,16.1856 0,0.4327 -2.8861,8.2234 -6.4141,17.3125 -3.528,9.089 -6.4141,16.9339 -6.4141,17.4336 0,0.7008 33.3393,25.3511 39.0508,28.873 0.718,0.4427 6.7963,-3.9894 15.6797,-11.4316 l 14.5078,-12.1523 9.584,3.9003 9.584,3.9024 2.8691,18.6308 c 1.5966,10.3648 3.33,18.6565 3.9063,18.6895 0.5697,0.032 10.3617,1.0921 21.7597,2.3555 11.3981,1.2632 22.2348,2.2371 24.0821,2.1621 l 3.3574,-0.1348 6.5098,-16.9551 c 3.5803,-9.3246 6.7325,-17.1663 7.0039,-17.4257 0.3848,-0.3681 17.5497,-3.6133 19.1113,-3.6133 0.1977,0 5.7677,6.6306 12.3789,14.7343 l 12.0215,14.7325 11.0566,-4.9336 c 6.0815,-2.7142 16.2749,-7.2292 22.6524,-10.0332 7.7374,-3.4019 11.5957,-5.6151 11.5957,-6.6524 0,-0.8549 -1.3127,-9.5199 -2.916,-19.2539 -1.6034,-9.734 -2.6029,-17.9451 -2.2208,-18.248 0.3822,-0.3028 3.8386,-3.0683 7.6797,-6.1446 l 6.9825,-5.5937 17.6875,6.8164 c 13.6485,5.2597 17.9567,6.5489 18.8652,5.6465 0.6475,-0.6433 7.3987,-9.7866 15.0039,-20.3203 l 13.8281,-19.1524 -6.5957,-7.9863 c -3.6276,-4.3924 -9.0994,-10.9966 -12.1601,-14.6758 l -5.5645,-6.6894 3.4258,-9.2051 3.4277,-9.207 18.8496,-3.1387 c 10.3671,-1.7267 18.9143,-3.2349 18.9942,-3.3496 0.214,-0.3089 5.1956,-49.5341 5.0234,-49.6387 -0.081,-0.049 -8.1079,-3.1614 -17.8379,-6.916 l -17.6914,-6.8281 -1.582,-9.6016 -1.584,-9.6016 14.5859,-11.9101 c 8.0228,-6.551 14.5879,-12.2876 14.5879,-12.7481 0,-0.707 -19.4956,-44.5464 -20.0429,-45.0703 -0.1031,-0.099 -8.1815,1.1084 -17.9512,2.6836 -9.7698,1.5752 -18.2545,2.8711 -18.8555,2.8711 -0.6009,0 -3.8499,-3.354 -7.2207,-7.4609 l -6.1289,-7.4668 6.4805,-17 c 3.5647,-9.3495 6.4824,-17.5029 6.4824,-18.1192 0,-1.7804 -39.3964,-30.0424 -40.752,-29.2343 -0.6537,0.3897 -6.9616,5.4212 -14.0175,11.1796 -7.056,5.7583 -13.3981,10.8156 -14.0938,11.2403 -0.7389,0.4509 -5.1015,-0.7461 -10.4902,-2.8789 l -9.2266,-3.6504 -1.5976,-10.4903 c -0.8796,-5.769 -2.1065,-14.1112 -2.7266,-18.539 l -1.1289,-8.0508 -4.0527,-0.5703 c -11.5298,-1.6266 -37.6068,-3.9123 -44.3614,-3.9942 z m 1.7774,81.3575 c 36.1789,0 69.1341,14.6133 92.7539,41.1308 l 4.5527,5.1114 -6.1777,12.4062 c -3.3984,6.8225 -6.4465,12.4043 -6.7735,12.4043 -0.3269,0 -2.258,-2.4154 -4.291,-5.3672 -5.2493,-7.6217 -18.5421,-20.0416 -27.2246,-25.4375 -8.9949,-5.5901 -19.6039,-9.9258 -31.2422,-12.7676 -12.9217,-3.155 -31.8541,-2.9492 -45.0175,0.4903 -35.2802,9.2182 -62.4223,35.764 -71.793,70.2187 -2.7371,10.0638 -3.72,30.8459 -1.9727,41.6778 5.9962,37.1697 34.9184,69.3651 71.1328,79.1796 35.2767,9.5604 73.4978,-1.3534 98.5235,-28.1308 16.3898,-17.537 25.0073,-38.4164 26.4219,-64.0176 l 0.6503,-11.7519 -12.0039,0.6777 c -6.6012,0.3731 -12.0019,0.4648 -12.0019,0.2031 0,-0.4378 26.6277,-56.0066 28.7969,-60.0957 0.8045,-1.5166 2.5859,0.57 11.373,13.3223 17.9896,26.1076 28.0925,41.4309 27.6231,41.9004 -0.2492,0.2491 -3.7254,0.6816 -7.7247,0.9609 -12.4138,0.8673 -11.2901,-0.4525 -11.4355,13.4277 -0.422,40.2955 -20.8971,78.4521 -53.9902,100.6133 -14.0571,9.4136 -25.6857,14.5756 -42.0098,18.6446 -11.1074,2.7687 -37.0887,3.4917 -49.209,1.371 -38.0016,-6.6493 -71.2181,-31.1526 -88.9062,-65.5878 -10.2441,-19.943 -14.4706,-38.9412 -13.5899,-61.0723 0.7956,-19.9923 4.5206,-34.6399 13.2071,-51.9141 5.8115,-11.5571 11.721,-19.7579 21.7324,-30.1582 23.3751,-24.2833 54.5102,-37.4394 88.5957,-37.4394 z m 0.4258,51.7988 c 6.8352,0 13.6844,0.7687 19.1679,2.3105 24.0845,6.7719 42.3618,24.095 50.6778,48.0293 2.5266,7.272 2.7441,9.0622 2.7441,22.6973 0,13.6351 -0.2175,15.4253 -2.7441,22.6973 -8.3748,24.1036 -27.5705,42.0319 -51.6953,48.2832 -27.7356,7.187 -58.0312,-3.2464 -75.7325,-26.0801 -31.8666,-41.1063 -11.8271,-101.2953 38.4942,-115.6152 5.4298,-1.5453 12.2526,-2.3202 19.0879,-2.3223 z" id="path5049-5" inkscape:connector-curvature="0"/>
            <rect style="color:#000000;clip-rule:nonzero;display:inline;overflow:visible;visibility:visible;opacity:1;isolation:auto;mix-blend-mode:normal;color-interpolation:sRGB;color-interpolation-filters:linearRGB;solid-color:#000000;solid-opacity:1;fill:none;fill-opacity:1;fill-rule:nonzero;stroke:#000000;stroke-width:65.78843689;stroke-linecap:round;stroke-linejoin:round;stroke-miterlimit:4;stroke-dasharray:none;stroke-dashoffset:0;stroke-opacity:1;marker:none;color-rendering:auto;image-rendering:auto;shape-rendering:auto;text-rendering:auto;enable-background:accumulate" id="rect4203-8-9" width="574.90613" height="574.90613" x="1091.1802" y="1451.7457" rx="378.22177" ry="378.22177"/>
          </g>
          <g transform="translate(339.35571,-141.39828)" id="g4441-7">
            <rect style="color:#000000;clip-rule:nonzero;display:inline;overflow:visible;visibility:visible;opacity:1;isolation:auto;mix-blend-mode:normal;color-interpolation:sRGB;color-interpolation-filters:linearRGB;solid-color:#000000;solid-opacity:1;fill:none;fill-opacity:1;fill-rule:nonzero;stroke:#000000;stroke-width:65.78843689;stroke-linecap:round;stroke-linejoin:round;stroke-miterlimit:4;stroke-dasharray:none;stroke-dashoffset:0;stroke-opacity:1;marker:none;color-rendering:auto;image-rendering:auto;shape-rendering:auto;text-rendering:auto;enable-background:accumulate" id="rect4203-6-6" width="574.90613" height="574.90613" x="1402.2563" y="638.70557" rx="378.22177" ry="378.22177"/>
            <path style="display:inline;fill:#000000" d="m 1688.8905,708.12625 c -14.7749,0.023 -29.3909,1.0847 -39.1764,3.1782 -77.2823,16.5334 -137.238,73.6345 -157.0583,149.5758 -5.8422,22.3838 -7.4241,60.8284 -3.4427,83.6542 14.7275,84.43005 79.6447,150.15065 164.1575,166.18255 8.2547,1.5659 23.4179,2.6287 37.4907,2.6287 l 23.6313,0 1.1533,12.4246 c 0.6345,6.8337 1.534,13.7733 2.0011,15.4228 0.4672,1.6496 1.283,2.9985 1.8113,2.9985 0.528,0 6.067,-3.738 12.3092,-8.3067 6.2423,-4.569 25.8105,-18.8905 43.484,-31.8262 17.6736,-12.9358 32.1315,-24.1249 32.1315,-24.8661 0,-0.741 -7.1314,-4.4981 -15.8504,-8.3474 -8.7188,-3.8493 -31.5672,-13.9586 -50.7732,-22.4679 l -34.9195,-15.4739 1.1024,10.6575 c 0.6073,5.8614 1.5645,14.7073 2.1267,19.6559 l 1.0243,8.9954 -19.1235,0 c -28.5578,0 -49.3679,-4.8516 -74.6659,-17.4107 -40.4524,-20.0826 -69.7753,-56.29425 -83.2336,-102.78795 -5.5017,-19.0064 -6.4016,-52.1827 -1.9944,-73.4753 15.6132,-75.4312 81.0321,-129.1748 157.2007,-129.143 40.7538,0.017 86.6406,19.8633 118.3331,51.1803 26.21,25.8997 36.8046,48.1592 38.1045,80.0523 1.5719,38.5545 -10.8179,67.5253 -33.902,79.2685 -13.3526,6.7927 -39.4383,10.5218 -39.4035,5.6339 0,-1.1782 2.2887,-34.8876 5.0673,-74.9099 2.7788,-40.0225 4.8925,-72.9002 4.6978,-73.0616 -0.1948,-0.1615 -8.5915,-0.8433 -18.6587,-1.5126 l -18.3027,-1.2144 -1.1702,11.8717 -1.1703,11.8716 -7.8861,-8.4323 c -19.0601,-20.3767 -49.2759,-28.4464 -78.3426,-20.9246 -28.4897,7.3726 -52.2544,33.4616 -60.7556,66.7016 -16.3054,63.7537 11.7083,120.2953 64.6292,130.44555 21.1967,4.0655 46.4466,-1.3978 64.0253,-13.85255 l 7.8422,-5.5592 -0.7904,13.69295 -0.7936,13.6897 30.6525,-0.8411 c 35.6835,-0.9792 45.4106,-3.0257 68.9878,-14.52415 26.7635,-13.0523 44.8576,-34.1361 55.1589,-64.2696 25.9714,-75.9725 -14.5748,-161.4923 -96.0687,-202.6352 -18.7964,-9.4894 -40.6076,-17.1439 -59.5108,-20.884 -10.4211,-2.0617 -25.3546,-3.0792 -40.1295,-3.0559 z m -2.7135,140.2412 c 2.6474,-0.017 5.3517,0.2563 8.0964,0.8175 21.4338,4.3817 34.0148,21.855 35.5133,49.3215 1.7914,32.8329 -10.7877,59.0798 -31.8805,66.5219 -21.1771,7.4716 -43.0716,-3.6001 -51.7975,-26.1924 -4.8194,-12.4774 -5.3147,-39.088 -0.9974,-53.6393 6.8242,-23.0008 22.5343,-36.7568 41.0657,-36.8292 z" id="path4965-0-4" inkscape:connector-curvature="0"/>
          </g>
        </g>
        <g style="display:inline" id="g4483-3" transform="matrix(0.5,-0.8660254,0.8660254,0.5,-6160.702,1391.4511)">
          <g transform="matrix(-1,0,0,1,615.0825,-540.13062)" id="g4453-3">
            <rect style="color:#000000;clip-rule:nonzero;display:inline;overflow:visible;visibility:visible;opacity:1;isolation:auto;mix-blend-mode:normal;color-interpolation:sRGB;color-interpolation-filters:linearRGB;solid-color:#000000;solid-opacity:1;fill:none;fill-opacity:1;fill-rule:nonzero;stroke:#000000;stroke-width:65.78843689;stroke-linecap:round;stroke-linejoin:round;stroke-miterlimit:4;stroke-dasharray:none;stroke-dashoffset:0;stroke-opacity:1;marker:none;color-rendering:auto;image-rendering:auto;shape-rendering:auto;text-rendering:auto;enable-background:accumulate" id="rect4203-60-6" width="574.90613" height="574.90613" x="101.3922" y="1812.3114" rx="378.22177" ry="378.22177"/>
            <path style="display:inline;fill:#000000" d="m 361.72268,1993.5318 c -48.3879,0.4711 -93.1391,19.7404 -115.0547,50.4375 -5.2356,7.3334 -11.7346,20.9055 -13.3398,27.8594 -1.167,5.056 -1.1993,5.0879 -8.6465,8.6465 -9.1924,4.3926 -21.589,16.3823 -26.3789,25.5117 -6.51,12.4079 -9.61503,27.8413 -6.9063,34.3242 l 1.5332,3.6699 6.4649,0 c 6.1228,0 6.4648,-0.1242 6.4648,-2.3144 0,-1.2719 0.8887,-4.8985 1.9766,-8.0606 10.875,-31.6087 48.2576,-41.114 71.3047,-18.1308 9.6281,9.6014 14.1844,22.0907 13.3457,36.5781 l -0.4414,7.6445 4.0273,0.5235 c 2.2159,0.2876 45.1069,2.6926 95.3125,5.3457 50.2056,2.653 92.6717,4.8774 94.3691,4.9414 3.058,0.1157 3.0818,0.078 2.6309,-4.0781 -0.5963,-5.496 2.008,-17.6231 5.1758,-24.0977 1.385,-2.831 4.5051,-7.3554 6.9336,-10.0566 17.6641,-19.6467 46.4998,-19.7808 63.6855,-0.295 6.7881,7.6966 10.3219,16.3999 12.2852,30.2559 l 0.6992,4.9336 2.6758,-5.9199 c 5.9951,-13.2718 7.4336,-19.0986 7.4336,-30.0996 0,-9.3879 -0.2645,-10.8999 -2.8067,-16.0801 -4.4835,-9.136 -12.0942,-16.5586 -22.4746,-21.9199 -11.6296,-6.0065 -21.7571,-9.3694 -43.1308,-14.3203 -9.5941,-2.2223 -18.7194,-4.7914 -20.2774,-5.711 -2.0149,-1.1889 -3.4585,-3.4103 -5.0019,-7.6914 -7.984,-22.146 -27.6984,-42.5579 -53.711,-55.6113 -15.97,-8.0138 -40.7157,-14.2232 -63.0371,-15.8184 -5.0622,-0.3618 -10.1057,-0.5155 -15.1113,-0.4668 z m -16.7188,36.8028 13.5684,0.666 c 30.0198,1.4756 33.2156,1.8956 40.0215,5.2461 5.74,2.8258 9.9015,6.5391 16.9687,15.1425 1.8727,2.2797 2.8547,2.4649 19.0625,3.5918 11.6509,0.81 18.0484,1.6843 20.1055,2.7481 l 3.0176,1.5605 -0.6797,19.8946 c -0.5751,16.831 -0.9518,20.2741 -2.4473,22.3613 -1.7614,2.4581 -1.8383,2.4693 -21.4004,2.9609 l -19.6347,0.4942 -4.3321,4.7011 c -2.7285,2.9615 -7.0194,6.0323 -11.5898,8.2911 -8.2873,4.0958 -13.2521,4.5944 -32.9238,3.3066 -6.2418,-0.4086 -14.1234,-0.802 -17.5157,-0.873 l -6.1679,-0.1309 0,-5.8359 0,-5.8379 -7.1563,-0.5469 c -3.9351,-0.3015 -12.0393,-0.8181 -18.0097,-1.1465 -13.4072,-0.7376 -15.7891,-1.6982 -15.7891,-6.3691 0,-5.7044 2.2269,-6.1805 23.332,-4.9805 9.8792,0.5618 18.0492,0.914 18.1543,0.7812 0.3801,-0.4799 2.2293,-41.6976 1.8867,-42.0527 -0.1934,-0.2007 -8.2483,-0.8065 -17.8984,-1.3457 -9.6501,-0.5393 -18.5574,-1.3655 -19.7949,-1.8359 -1.2374,-0.4706 -2.7834,-2.0275 -3.4356,-3.459 -1.0691,-2.3463 -0.917,-2.8337 1.5469,-4.9531 3.0942,-2.6615 3.4471,-2.6819 25.3203,-1.416 10.4609,0.6053 14.5052,0.5244 15.0352,-0.3008 0.3988,-0.6207 0.7302,-3.2727 0.7402,-5.8946 l 0.0156,-4.7675 z m -94.5898,76.3379 c -18.7208,-0.5068 -37.1197,13.4105 -40.6191,35.9648 -3.1958,20.5976 8.6907,40.8049 27.5527,46.8398 15.4697,4.9494 32.3574,-0.7529 42.7539,-14.4355 5.1151,-6.7317 7.7721,-14.2398 8.3887,-23.7109 0.8864,-13.6151 -3.7415,-25.2473 -13.7188,-34.4844 -7.2733,-6.7339 -15.848,-9.9435 -24.3574,-10.1738 z m 282.0684,15.1132 c -8.5881,-0.01 -9.9475,0.2621 -15.8145,3.1504 -20.9808,10.3289 -29.9955,35.884 -20.2031,57.2735 4.9782,10.8736 13.5001,18.6772 24.1054,22.0703 19.3772,6.1996 40.9674,-4.8172 48.5489,-24.7735 2.6383,-6.9443 3.5044,-18.7993 1.8828,-25.7656 -2.8755,-12.354 -12.2506,-24.0678 -23.4473,-29.2949 -4.9033,-2.289 -6.9569,-2.6502 -15.0722,-2.6602 z" id="path4938-1-5" inkscape:connector-curvature="0"/>
          </g>
          <g transform="matrix(-1,0,0,1,3973.2914,-1275.4017)" id="g4433-8">
            <rect style="color:#000000;clip-rule:nonzero;display:inline;overflow:visible;visibility:visible;opacity:1;isolation:auto;mix-blend-mode:normal;color-interpolation:sRGB;color-interpolation-filters:linearRGB;solid-color:#000000;solid-opacity:1;fill:none;fill-opacity:1;fill-rule:nonzero;stroke:#000000;stroke-width:65.78843689;stroke-linecap:round;stroke-linejoin:round;stroke-miterlimit:4;stroke-dasharray:none;stroke-dashoffset:0;stroke-opacity:1;marker:none;color-rendering:auto;image-rendering:auto;shape-rendering:auto;text-rendering:auto;enable-background:accumulate" id="rect4203-60-9-2" width="574.90613" height="574.90613" x="1656.7732" y="2547.5825" rx="378.22177" ry="378.22177"/>
            <path style="display:inline;fill:#000000" d="m 2054.6912,2696.9907 -3.5027,0.5959 c -1.926,0.3278 -21.0001,2.182 -42.3863,4.1204 -26.3144,2.3852 -40.0943,4.083 -42.6304,5.253 -7.2802,3.3586 -8.4829,13.0914 -2.5022,20.2553 2.842,3.4042 3.838,3.7382 20.1719,6.7437 24.7924,4.562 22.2436,3.282 20.2707,10.1673 -0.9206,3.2128 -1.9904,6.169 -2.3792,6.5679 -0.9225,0.9465 -137.8267,12.5052 -138.6277,11.7042 -0.3366,-0.3366 0,-5.1028 0.7519,-10.5939 1.2625,-9.2378 1.0669,-16.579 -0.6728,-25.3323 -0.7939,-3.9943 -0.4962,-4.1152 13.2149,-5.4178 l 7.5813,-0.7213 -0.6046,-4.07 c -0.3324,-2.2379 -0.926,-6.9392 -1.3193,-10.4487 l -0.7146,-6.3809 -4.0392,0.5519 c -2.2215,0.3037 -11.6957,0.723 -21.0535,0.9301 -15.4543,0.342 -17.2258,0.5874 -19.3186,2.6803 -5.1304,5.1303 -3.2404,19.4405 2.9397,22.2563 2.8226,1.286 8.3973,12.1184 8.3973,16.3195 0,2.4595 -15.4398,83.0441 -16.0227,83.627 -0.1658,0.1658 -3.5038,-0.8961 -7.4165,-2.3593 -36.5351,-13.6622 -78.4959,2.545 -95.9954,37.0784 -8.0987,15.9822 -10.4946,36.3936 -6.2622,53.3407 3.8216,15.3018 9.1142,24.5469 20.6798,36.1198 14.0921,14.1008 27.8906,20.8971 46.1352,22.7245 14.6958,1.472 30.2892,-1.3899 43.6463,-8.0102 12.3809,-6.1365 27.2287,-20.8808 33.314,-33.081 10.6917,-21.4354 11.4494,-46.3715 2.0383,-67.1271 -4.0775,-8.9929 -11.77,-20.043 -17.3838,-24.9719 l -4.0722,-3.5753 1.3634,-7.2208 c 1.1164,-5.9173 1.6885,-7.0972 3.1684,-6.5327 0.9933,0.3791 21.1783,11.4482 44.8556,24.598 l 43.048,23.9077 -0.6947,7.4759 c -1.075,11.5658 1.4866,18.8637 9.3976,26.7748 7.9851,7.985 14.7473,10.5356 25.8271,9.7429 8.0576,-0.5766 9.4985,0.2689 8.8656,5.2023 -0.1523,1.1878 0.068,5.3746 0.4881,9.3032 l 0.763,7.1416 4.7912,-0.6574 c 3.4841,-0.4776 5.1592,-0.212 6.1434,0.9741 2.0261,2.4412 9.2227,2.0753 11.6362,-0.5915 1.1059,-1.2221 3.4032,-2.2208 5.1055,-2.2208 1.7024,0 3.3508,-0.4167 3.6655,-0.9257 0.3145,-0.509 0.278,-4.455 -0.083,-8.7688 l -0.6575,-7.8431 -6.4227,0.5827 -6.4227,0.5826 -2.8695,-5.6641 c -3.36,-6.6306 -3.471,-7.6772 -1.0861,-10.3124 0.9816,-1.0846 2.9226,-5.1238 4.314,-8.9754 l 2.5308,-7.0032 4.9716,-0.332 4.9714,-0.3321 2.5396,7.8938 c 10.9944,34.1927 47.4489,57.2747 82.6749,52.3468 19.0721,-2.668 31.6615,-8.9029 45.115,-22.3398 14.1283,-14.111 21.4691,-29.9659 22.8301,-49.3082 2.3975,-34.0705 -19.1877,-66.7444 -51.5222,-77.9893 -18.1715,-6.3194 -37.8609,-5.8245 -55.102,1.3853 -3.7105,1.5517 -6.8403,2.2905 -7.2209,1.7041 -0.3694,-0.5694 -6.9012,-10.6899 -14.5164,-22.4894 -8.5956,-13.3185 -15.0153,-22.1199 -16.9263,-23.2105 -3.2381,-1.8479 -3.2611,-2.4679 -0.3651,-9.5605 1.1424,-2.7978 2.3733,-3.6074 7.366,-4.8527 9.1132,-2.2729 18.6224,-7.7204 21.7637,-12.4671 3.0715,-4.6413 4.4724,-12.7896 3.8633,-22.474 l -0.4068,-6.4908 z m -59.1917,72.6351 c 0.271,0.2711 -21.5795,78.5108 -22.1596,79.346 -0.048,0.07 -2.6547,0.4554 -5.7916,0.8553 l -5.7037,0.7257 -1.7964,-4.4856 c -2.233,-5.5808 -2.231,-5.9595 0.028,-5.0925 1.6002,0.6141 1.7385,-0.019 1.1214,-5.1584 -0.3871,-3.2221 -0.7091,-7.1742 -0.7147,-8.7841 -0.011,-2.9145 -0.039,-2.9265 -7.0779,-2.3616 -4.6162,0.3706 -7.3383,0.133 -7.8432,-0.6838 -1.2542,-2.0295 -7.1275,-1.4302 -9.5295,0.9719 -1.2222,1.222 -3.6736,2.223 -5.4487,2.223 l -3.2279,0 0.541,6.9438 c 0.7576,9.7437 0.7411,9.7208 6.4117,9.7208 4.7482,0 5.1353,0.2393 7.3351,4.5516 1.2771,2.5033 2.1369,4.7366 1.9108,4.9627 -0.226,0.226 -20.6957,-10.8894 -45.4866,-24.6992 l -45.0732,-25.1081 2.9134,-11.238 2.9135,-11.2403 68.1518,-5.9104 c 37.4843,-3.2514 68.3208,-5.7437 68.5256,-5.5388 z m 19.5891,0.3496 c 0.2434,-0.2433 6.0753,8.3124 12.9597,19.0131 l 12.5178,19.455 -6.1281,6.6184 c -11.5151,12.4377 -18.376,27.0105 -20.7435,44.0573 -0.6579,4.7373 -1.2786,8.6725 -1.3786,8.7469 -0.1002,0.074 -2.533,0.4779 -5.4068,0.8949 -5.1508,0.7473 -5.263,0.6968 -7.9223,-3.5159 -1.4838,-2.3503 -4.4725,-5.8323 -6.6426,-7.7376 l -3.9469,-3.4653 13.1247,-41.8124 c 7.2182,-22.997 13.3232,-42.011 13.5666,-42.2544 z m 75.8828,42.9822 c 4.0634,-0.043 7.9338,0.2215 10.8885,0.8355 19.8592,4.1273 37.353,20.7399 42.6039,40.4602 1.793,6.7335 1.961,20.3219 0.3387,27.3663 -4.3378,18.8341 -20.7406,35.4645 -40.0467,40.6031 -7.2326,1.925 -21.8752,1.9294 -28.8374,0.011 -14.4321,-3.9812 -28.1824,-15.2724 -34.8641,-28.6284 -2.1568,-4.3111 -3.9227,-8.5133 -3.9227,-9.3361 0,-1.997 1.0877,-2.174 29.996,-4.8857 16.5498,-1.5525 25.8432,-2.8919 27.4982,-3.9667 2.0113,-1.3061 2.4979,-2.6512 2.4979,-6.88 0,-4.8973 -1.0227,-6.7882 -14.998,-27.7357 -8.249,-12.3644 -14.9981,-22.6896 -14.9981,-22.9445 0,-0.2549 2.3747,-1.3003 5.2771,-2.322 4.4872,-1.5794 11.7944,-2.5031 18.5667,-2.5747 z m -38.1008,15.7346 c 0.3283,-0.053 0.5924,0.012 0.774,0.2133 1.7301,1.9113 21.3748,32.9729 21.0359,33.2613 -0.1824,0.1553 -6.8303,0.8635 -14.7737,1.5743 -7.9435,0.7108 -16.8164,1.5878 -19.7189,1.9503 -5.0226,0.6274 -5.2771,0.5303 -5.2771,-2.0273 0,-4.7839 3.3156,-15.5892 6.7789,-22.0869 3.3722,-6.3269 8.8829,-12.5127 11.1809,-12.885 z m -256.134,11.8824 c 10.9116,0.079 22.8985,2.74 28.7977,7.0537 2.094,1.5312 2.0859,1.7126 -0.4111,10.2749 -3.0548,10.4756 -6.4251,15.9126 -12.7069,20.4951 -4.2496,3.1001 -5.252,3.3669 -10.4487,2.7706 -5.0842,-0.5835 -6.1413,-0.3298 -9.1646,2.2142 -5.533,4.6556 -4.0513,11.6807 3.2608,15.4618 4.0932,2.1167 7.0212,2.0912 14.4923,-0.1274 5.0247,-1.4922 7.5412,-3.3063 15.2025,-10.9676 7.1846,-7.1847 9.9807,-10.9423 12.863,-17.2804 l 3.683,-8.0982 2.4451,3.4367 c 3.9773,5.5855 7.9561,17.6173 8.6522,26.168 1.2803,15.7254 -4.8991,31.741 -16.7943,43.5252 -7.3691,7.3002 -15.314,11.7851 -25.515,14.4066 -31.3272,8.0506 -63.6014,-13.6487 -68.519,-46.0693 -2.5792,-17.0039 3.3757,-34.5371 16.0248,-47.1863 7.488,-7.488 14.3017,-11.5057 24.598,-14.4989 3.843,-1.1171 8.5804,-1.6147 13.5402,-1.5787 z" id="path5022-1-0" inkscape:connector-curvature="0"/>
          </g>
        </g>
        <g style="display:inline" id="g4437-3" transform="matrix(0.63094141,-0.77583047,0.77583047,0.63094141,-7677.5256,-1069.1629)">
          <rect ry="378.22177" rx="378.22177" y="2960.8245" x="442.4278" height="574.90613" width="574.90613" id="rect4203-60-0-7" style="color:#000000;clip-rule:nonzero;display:inline;overflow:visible;visibility:visible;opacity:1;isolation:auto;mix-blend-mode:normal;color-interpolation:sRGB;color-interpolation-filters:linearRGB;solid-color:#000000;solid-opacity:1;fill:none;fill-opacity:1;fill-rule:nonzero;stroke:#000000;stroke-width:65.78843689;stroke-linecap:round;stroke-linejoin:round;stroke-miterlimit:4;stroke-dasharray:none;stroke-dashoffset:0;stroke-opacity:1;marker:none;color-rendering:auto;image-rendering:auto;shape-rendering:auto;text-rendering:auto;enable-background:accumulate"/>
          <path inkscape:connector-curvature="0" id="path4953-35-9" d="m 724.84053,3053.9547 c -43.3875,0.5232 -84.387,24.7122 -103.0098,62.5039 -8.672,17.5984 -11.1064,31.3914 -10.166,57.627 0.8137,22.7018 2.2952,29.5084 15.5547,71.4961 3.7443,11.8568 7.5314,25.4021 8.416,30.0996 2.0415,10.8412 1.4225,23.9442 -1.5235,32.2246 -1.1586,3.2566 -1.8624,6.91 -1.5625,8.1191 0.8692,3.5045 11.9229,14.6169 18.959,19.0606 11.6768,7.3746 27.5382,13.2892 43.2383,16.1211 17.3213,3.1243 37.1659,1.0743 45.961,-4.7461 3.3968,-2.2479 3.6009,-2.6972 4.1386,-9.1113 0.9858,-11.7584 6.5835,-23.3258 17.7403,-36.6582 3.118,-3.7262 15.9514,-16.7225 28.5195,-28.8809 34.0025,-32.8939 45.28436,-47.5374 52.27736,-67.8633 4.8821,-14.19 6.3471,-37.39 3.3535,-53.084 -9.5342,-49.9829 -50.40516,-87.8607 -103.21486,-95.6543 -6.2374,-0.9205 -12.4834,-1.3286 -18.6816,-1.2539 z m 0.498,15.2715 c 13.8836,-0.025 17.0392,0.2887 26.1504,2.5918 18.232,4.6087 29.9043,10.1683 42.668,20.3281 17.7237,14.1083 30.3586,32.7987 36.46086,53.9356 1.9625,6.7975 2.2713,10.1084 2.2813,24.1601 0.007,18.7943 -1.2688,25.2737 -7.47266,37.9922 -6.6456,13.6243 -15.4158,24.0359 -45.3105,53.7832 -15.5453,15.4688 -30.5079,31.1687 -33.2481,34.8887 -6.7154,9.116 -11.9385,19.9756 -14.3945,29.9238 l -2.0332,8.2344 -4.9512,1.4707 c -7.2918,2.1655 -20.0604,1.7475 -32.1582,-1.0508 -15.0315,-3.4768 -17.1095,-4.2682 -16.291,-6.2129 3.2685,-7.7657 7.7127,-22.8772 9.541,-32.4453 1.9833,-10.3792 2.2116,-14.509 2.1406,-38.7558 -0.059,-20.1376 -0.5017,-29.793 -1.7148,-37.4278 -2.0516,-12.9108 -2.1116,-22.9315 -0.1602,-26.705 1.9129,-3.6991 5.1703,-5.9336 8.6543,-5.9336 2.4712,0 3.104,0.7186 5.6602,6.416 1.8456,4.1135 3.4572,6.414 4.4941,6.414 0.8892,0 3.6586,-1.7972 6.1543,-3.9941 6.3269,-5.5691 8.9392,-5.1641 11.4258,1.7734 1.7022,4.7494 2.115,5.1817 4.9434,5.1817 2.5385,0 3.6969,-0.831 6.5371,-4.6875 4.3292,-5.8785 9.9224,-8.8829 13.5019,-7.252 1.3657,0.6223 2.7146,2.0177 2.9981,3.1016 0.4046,1.5473 0.8074,1.7278 1.875,0.8418 1.6239,-1.3477 1.7812,-6.149 0.293,-8.9297 -2.2554,-4.2143 -13.2706,-6.3444 -17.2481,-3.3359 -2.6634,2.0144 -4.1592,1.8655 -9.7305,-0.961 -5.8212,-2.9533 -8.5672,-3.0449 -14.2226,-0.4785 l -4.2754,1.9395 -3.543,-2.7012 c -2.9846,-2.2765 -4.5101,-2.7031 -9.6894,-2.7031 -5.3189,0 -6.7267,0.4171 -10.4395,3.0937 -8.708,6.2778 -10.0717,13.1151 -7.1719,35.9707 2.4726,19.4883 2.536,60.0286 0.1172,74.916 -2.0696,12.738 -6.6984,33.7399 -7.6934,34.9043 -1.0614,1.2424 -10.9655,-4.7057 -16.8613,-10.1269 l -5.0605,-4.6543 1.6328,-8.1074 c 3.0256,-15.0156 1.6195,-30.3258 -4.6953,-51.1016 -1.7968,-5.9115 -5.5129,-18.0862 -8.2579,-27.0547 -7.9407,-25.9444 -10.3711,-39.742 -10.4257,-59.1875 -0.051,-17.9978 1.5851,-27.2992 7.125,-40.4844 10.8077,-25.7231 36.52,-46.8123 67.0273,-54.9785 8.3895,-2.2457 11.537,-2.5672 25.3672,-2.5918 z m 20.1426,80.291 c -0.6266,0 1.7522,3.0654 5.2852,6.8106 11.3124,11.9917 16.1525,25.2699 15.248,41.8301 -0.4557,8.3435 -0.9891,10.6321 -3.916,16.7773 -4.3309,9.0937 -10.0409,15.6144 -25.5879,29.2188 -6.882,6.0221 -13.3749,12.1716 -14.4277,13.666 -7.581,10.7598 -9.0906,21.5199 -4.1563,29.6093 3.3395,5.4749 5.1653,3.8814 7.5235,-6.5605 2.1432,-9.4909 6.7474,-15.6009 21.8398,-28.9883 14.2852,-12.6715 18.6918,-17.5429 22.707,-25.0996 4.2925,-8.0786 6.1641,-16.315 6.1641,-27.1172 0,-15.9436 -4.7479,-28.7924 -14.5527,-39.3828 -4.9473,-5.3435 -13.068,-10.7637 -16.127,-10.7637 z m -115.6172,184.6192 c -1.1631,0.075 -2.0675,0.6824 -2.6817,1.8301 -2.9242,5.4639 0.3665,12.6284 8.3692,18.2226 19.7287,13.7913 39.9862,21.9065 60.5821,24.2695 8.6373,0.991 25.3397,0.4392 34.5625,-1.1425 7.4394,-1.276 10.9257,-4.0433 10.9257,-8.6739 0,-3.8265 -3.319,-7.3255 -6.2539,-6.5918 -13.6091,3.4024 -39.2331,3.2949 -52.6387,-0.2226 -15.9549,-4.1864 -32.8044,-13.0361 -45.0332,-23.6504 -3.2361,-2.8089 -5.8936,-4.1652 -7.832,-4.041 z m -1.8457,24.9101 c -0.4386,-0.011 -0.8478,0.1141 -1.3496,0.3067 -4.3505,1.6694 -3.6365,11.2377 1.2226,16.3769 3.0907,3.2689 13.2462,10.151 21.9532,14.877 8.4178,4.5691 21.3727,9.0243 30.5918,10.5195 4.0707,0.6603 8.0686,1.3307 8.8828,1.4902 5.7931,1.1351 23.8815,0.047 33.8223,-2.0351 7.1636,-1.5003 10.7316,-8.4249 6.8261,-13.2481 -1.6831,-2.0786 -2.0908,-2.1401 -7.0976,-1.0664 -32.687,7.0101 -61.9148,-0.2412 -86.8399,-21.5468 -5.1182,-4.375 -6.6959,-5.64 -8.0117,-5.6739 z m 6.3633,31.9844 c -1.7677,-0.03 -1.18,3.0168 1.1054,9.7481 3.0894,9.099 9.5601,20.4852 14.7989,26.041 2.1192,2.2474 3.4611,4.8338 3.8418,7.4023 0.3723,2.5126 1.514,4.7527 3.1406,6.166 1.5714,1.3654 3.8467,2.2207 5.9082,2.2207 2.7246,0 3.9453,-0.7392 6.5234,-3.9472 2.0496,-2.5504 3.9804,-3.9473 5.4532,-3.9473 9.6443,0 34.8887,-16.1375 34.8887,-22.3027 0,-2.8058 -1.6227,-3.3436 -6.9747,-2.3106 -2.4053,0.4643 -9.0763,0.863 -14.8242,0.8867 -17.4869,0.072 -32.1476,-4.8764 -46.7148,-15.7656 -3.625,-2.7097 -5.937,-4.1706 -7.1465,-4.1914 z" style="display:inline;fill:#000000"/>
        </g>
        <g style="display:inline" id="g4507-8" transform="translate(-5373.845,409.93309)">
          <path inkscape:connector-curvature="0" id="path4977-6" d="m 1747.7399,1720.339 c 7.4635,-8.0245 7.6536,-21.3234 0.6795,-40.765 -13.9289,-38.8294 -39.9591,-72.3546 -74.2343,-95.61 -26.206,-17.7805 -60.2349,-33.3592 -80.8801,-37.0275 -5.0209,-0.8921 -16.6007,-2.93 -25.7337,-4.5285 -19.3151,-3.3809 -40.5693,-9.6036 -52.9728,-15.5102 -6.8074,-3.2417 -10.4613,-5.6777 -16.6213,-11.0799 -13.638,-11.9599 -19.0074,-21.0279 -36.3001,-61.2939 -6.3606,-14.8104 -11.9044,-26.3035 -14.0818,-29.1953 -8.8285,-11.7251 -22.4968,-16.6041 -32.6885,-11.6692 -7.1554,3.4648 -11.0739,12.4049 -10.0603,22.9538 1.0256,10.6748 14.6729,46.2365 25.3393,66.0284 10.4749,19.4364 16.7691,27.9438 30.5661,41.3149 13.6268,13.2069 19.4073,17.2102 37.3286,25.8516 22.1209,10.6665 50.6472,19.73 82.4592,26.2009 32.6396,6.6394 55.1315,16.8386 78.5265,35.6051 23.1948,18.6061 43.6362,50.4603 50.1687,78.1816 1.4404,6.1122 2.0398,7.1842 6.2977,11.2416 7.8809,7.5123 18.1501,8.7238 27.3122,3.2231 1.8815,-1.1298 3.513,-2.4355 4.8951,-3.9215 z m -8.617,-3.8684 c -1.5383,1.541 -2.7797,1.858 -5.8731,2.1161 -5.1721,0.4313 -10.2205,-1.9185 -13.0376,-6.0708 -0.9859,-1.453 -2.8561,-6.5515 -4.1568,-11.3292 -2.6931,-9.8917 -13.3217,-30.6499 -23.2211,-45.349 -5.3901,-8.0036 -8.1103,-11.0417 -20.785,-23.2295 -11.109,-10.681 -16.386,-15.1764 -22.1554,-18.8697 -17.6618,-11.3063 -41.1296,-20.1417 -73.9862,-27.8537 -59.1067,-13.8731 -91.6047,-28.8556 -113.3994,-52.2828 -16.2327,-17.4486 -29.9928,-42.0623 -41.7618,-74.6974 -6.2915,-17.4467 -7.7988,-24.1458 -6.6188,-29.4344 1.1907,-5.3359 4.8527,-8.7043 9.4367,-8.6804 5.0712,0.026 8.4389,1.6214 13.2917,6.2994 4.9602,4.7815 9.1185,12.6309 20.4779,38.6518 17.9577,41.1351 26.8588,53.3242 47.7389,65.3675 14.5031,8.3651 32.3339,13.9919 63.4428,20.0204 34.8318,6.7496 48.1206,11.0227 70.9782,22.8269 24.0434,12.4166 38.2962,22.3381 54.4218,37.8829 20.5324,19.7929 36.2004,43.6757 45.5691,69.4587 6.2222,17.1234 6.6068,26.5661 1.3531,33.1802 -0.6584,0.8289 -1.2023,1.4791 -1.715,1.993 z m -92.5449,67.6886 c 4.8315,-5.012 6.6273,-9.0346 6.9298,-15.5299 0.3585,-7.7014 -2.4648,-12.9363 -11.9041,-22.0717 -13.1897,-12.7647 -23.1992,-27.8891 -31.8995,-48.1944 -8.0101,-18.6944 -12.9032,-43.3961 -12.9267,-65.2615 -0.011,-9.8761 0.9994,-23.8172 2.0061,-27.6958 0.066,-0.2527 -31.1353,-7.7375 -42.5267,-10.2015 -3.11,-0.6728 -2.9703,-1.1562 -4.2711,14.832 -2.8366,34.8647 1.2226,69.399 11.5756,98.4636 12.5614,35.2643 40.914,74.3684 58.6158,80.8445 9.5559,3.4961 17.7006,1.7653 24.4008,-5.1853 z m 57.8336,-64.7081 c 0.1165,-0.1209 0.1969,-0.2245 0.2431,-0.3055 0.7657,-1.3336 1.4644,-4.3404 1.553,-6.6821 0.1299,-3.428 -0.3817,-4.7819 -2.6303,-6.9495 -3.1247,-3.0122 -7.4997,-4.1904 -11.8729,-3.1955 -1.6055,0.3651 -11.9252,6.2929 -22.9325,13.1713 -11.0074,6.8784 -20.4233,12.9009 -20.9244,13.3845 -1.8677,1.8034 -3.4558,7.5705 -2.9981,10.8858 0.8704,6.3036 8.578,10.5459 15.0409,8.2786 5.3514,-1.8773 40.9518,-24.8052 44.5212,-28.5876 z m -19.8211,-42.3048 c 0.1367,-0.1413 0.2333,-0.2564 0.2909,-0.3408 2.2941,-3.7346 2.2602,-9.6023 -0.075,-12.8848 -2.5174,-3.5391 -7.6951,-5.5123 -11.9335,-4.5479 -1.6169,0.3674 -13.3648,7.1093 -26.1066,14.981 -27.0998,16.7414 -30.3601,19.6483 -29.8399,26.6151 0.5258,7.0425 7.4927,11.6863 14.5853,9.722 4.6432,-1.2859 48.7554,-29.2415 53.0788,-33.5444 z m -36.2544,-36.1966 c 0.3145,-0.3075 0.547,-0.5674 0.682,-0.7751 4.6744,-7.1096 -0.04,-16.7863 -8.4556,-17.3557 -4.346,-0.2941 -6.188,0.5598 -21.5722,10.0011 -5.9729,3.6658 -12.5412,8.3443 -14.5961,10.3968 -3.3626,3.3586 -3.7285,4.2049 -3.6501,8.4749 0.068,3.6837 0.6735,5.3099 2.7124,7.2753 3.1586,3.0449 7.7705,4.2988 11.6582,3.1703 4.9809,-1.4454 28.5075,-16.576 33.2212,-21.1878 z M 1612.756,1547.66 c 0.1964,-0.2039 1.6943,-7.7882 3.3292,-16.855 9.1823,-50.9232 6.0259,-79.331 -12.7079,-114.343 -13.5857,-25.3907 -45.3074,-64.0172 -58.0949,-70.7416 -5.8051,-3.0524 -13.192,-3.8613 -17.8048,-1.9499 -11.8582,4.9133 -15.6547,22.5617 -8.2377,38.2916 1.2722,2.6978 9.1252,13.4805 18.0481,24.7796 30.5869,38.7325 36.0985,48.7553 39.052,71.0217 2.0424,15.3992 0.4685,37.412 -3.8091,53.2872 -0.9675,3.5907 -1.7855,6.6777 -1.8176,6.8611 -0.033,0.1836 5.9548,1.3815 13.3023,2.661 7.3473,1.2796 16.7387,3.459 20.8704,4.8428 4.1317,1.3839 7.6734,2.3482 7.87,2.1445 z m -42.8177,-50.8576 c 3.3462,-3.4712 4.4838,-8.8054 2.7404,-12.8051 -1.1715,-2.687 -1.9797,-3.4506 -5.2247,-4.9281 -2.1116,-0.9615 -5.3583,-1.493 -7.214,-1.1813 -2.0393,0.3425 -10.9914,5.267 -22.6323,12.449 -10.5928,6.5353 -20.5191,13.1359 -22.0569,14.6691 -7.9456,7.9208 -2.5906,20.1612 8.4183,19.2432 3.6722,-0.3062 7.3643,-2.2483 23.8691,-12.5642 10.7384,-6.7117 20.6818,-13.4113 22.1002,-14.8826 z m -15.8067,-46.5707 c 0.1996,-0.1926 0.3487,-0.3617 0.4505,-0.499 6.1438,-8.3602 -1.5871,-19.752 -11.7249,-17.2763 -1.3315,0.3248 -14.9177,8.281 -30.1915,17.6817 -15.2739,9.4006 -29.1803,18.5085 -30.9043,20.2392 -3.9034,3.9181 -5.1656,8.9943 -3.2996,13.2754 1.9052,4.3712 7.7196,7.0624 12.8627,5.9538 5.5277,-1.1915 56.6697,-33.357 62.8067,-39.3751 z m -31.5072,-39.9081 c 2.5853,-2.7986 2.933,-4.9156 2.7103,-7.8969 -0.5523,-7.3993 -8.8701,-12.3806 -15.701,-9.4033 -1.7236,0.7513 -12.2637,7.1649 -23.4211,14.2522 -21.7383,13.8086 -25.7999,17.0844 -27.2576,21.9721 -1.0262,3.4413 0.2532,8.4317 2.7948,10.868 2.1046,2.0288 8.1103,3.3609 11.4535,2.547 1.4345,-0.3492 12.6,-7.0412 24.8117,-14.8702 14.262,-9.1439 21.2857,-13.8705 24.6094,-17.4689 z" style="display:inline;fill:#000000"/>
          <rect transform="matrix(0.5,0.8660254,-0.8660254,0.5,0,0)" ry="378.22177" rx="378.22177" y="-871.6474" x="1857.4088" height="574.90613" width="574.90613" id="rect4203-60-0-0-1" style="color:#000000;clip-rule:nonzero;display:inline;overflow:visible;visibility:visible;opacity:1;isolation:auto;mix-blend-mode:normal;color-interpolation:sRGB;color-interpolation-filters:linearRGB;solid-color:#000000;solid-opacity:1;fill:none;fill-opacity:1;fill-rule:nonzero;stroke:#000000;stroke-width:65.78843689;stroke-linecap:round;stroke-linejoin:round;stroke-miterlimit:4;stroke-dasharray:none;stroke-dashoffset:0;stroke-opacity:1;marker:none;color-rendering:auto;image-rendering:auto;shape-rendering:auto;text-rendering:auto;enable-background:accumulate"/>
        </g>
        <path style="display:inline;fill:none;fill-rule:evenodd;stroke:#000000;stroke-width:21.9294796;stroke-linecap:round;stroke-linejoin:round;stroke-miterlimit:4;stroke-dasharray:none;stroke-opacity:1" d="m -4849.9608,1267.2821 201.4925,0 0,330.5184 779.1852,0 0,84.839" id="path4520-2" inkscape:connector-curvature="0" sodipodi:nodetypes="ccccc"/>
        <path style="display:inline;fill:none;fill-rule:evenodd;stroke:#000000;stroke-width:21.9294796;stroke-linecap:round;stroke-linejoin:round;stroke-miterlimit:4;stroke-dasharray:none;stroke-opacity:1" d="m -4687.3528,706.9914 0,272.19168 -81.304,0 0,463.07932 70.6991,0 0,236.8421" id="path4524-1" inkscape:connector-curvature="0"/>
        <path style="display:inline;fill:none;fill-rule:evenodd;stroke:#000000;stroke-width:21.9294796;stroke-linecap:round;stroke-linejoin:round;stroke-miterlimit:4;stroke-dasharray:none;stroke-opacity:1" d="m -4518.9846,1747.2725 0,-198.7175 733.1899,0 0,-347.4719 146.7007,0" id="path4526-6" inkscape:connector-curvature="0" sodipodi:nodetypes="ccccc"/>
        <path style="display:inline;fill:none;fill-rule:evenodd;stroke:#000000;stroke-width:21.9294796;stroke-linecap:round;stroke-linejoin:round;stroke-miterlimit:4;stroke-dasharray:none;stroke-opacity:1" d="m -3725.8445,1686.1745 0,-282.7966 -148.4682,0 0,-696.3865" id="path4528-2" inkscape:connector-curvature="0"/>
        <path style="display:inline;fill:none;fill-rule:evenodd;stroke:#000000;stroke-width:21.9294796;stroke-linecap:round;stroke-linejoin:round;stroke-miterlimit:4;stroke-dasharray:none;stroke-opacity:1" d="m -4860.5657,1138.2561 268.6567,0 0,-254.51686 130.7935,0 0,-197.95759 562.0581,0" id="path4532-7" inkscape:connector-curvature="0"/>
        <path style="display:inline;fill:none;fill-rule:evenodd;stroke:#000000;stroke-width:21.9294796;stroke-linecap:round;stroke-linejoin:round;stroke-miterlimit:4;stroke-dasharray:none;stroke-opacity:1" d="m -3586.6578,1051.2665 -202.816,0 0,-227.62153 -805.9701,0 0,-137.86332" id="path4530-1" inkscape:connector-curvature="0" sodipodi:nodetypes="ccccc"/>
        <g style="display:inline" id="g4449-5" transform="matrix(0.98428709,-0.17657555,0.17657555,0.98428709,-5315.3258,506.76707)">
          <rect ry="378.22177" rx="378.22177" y="578.71313" x="644.89471" height="574.90613" width="574.90613" id="rect4203-4" style="color:#000000;clip-rule:nonzero;display:inline;overflow:visible;visibility:visible;opacity:1;isolation:auto;mix-blend-mode:normal;color-interpolation:sRGB;color-interpolation-filters:linearRGB;solid-color:#000000;solid-opacity:1;fill:none;fill-opacity:1;fill-rule:nonzero;stroke:#000000;stroke-width:65.78843689;stroke-linecap:round;stroke-linejoin:round;stroke-miterlimit:4;stroke-dasharray:none;stroke-dashoffset:0;stroke-opacity:1;marker:none;color-rendering:auto;image-rendering:auto;shape-rendering:auto;text-rendering:auto;enable-background:accumulate"/>
          <path inkscape:connector-curvature="0" id="path5037-6-5" d="m 879.97454,647.92202 c -0.3361,0.3923 -2.7549,6.7234 -5.375,14.0703 l -4.7637,13.3594 -5.5019,-1.8731 c -8.2432,-2.8061 -31.1059,-1.9016 -45.3594,1.795 -48.2671,12.5178 -79.2819,42.865 -86.5898,84.7265 -2.1258,12.1772 -1.3433,36.5722 1.6191,50.4766 6.8146,31.9844 22.5533,66.7331 48.7187,107.5586 l 5.0547,7.8867 0.2696,-17.6055 c 0.2058,-13.4295 0.5571,-17.4878 1.4804,-17.1133 13.1815,5.3473 31.3974,12.5313 31.7735,12.5313 0.2713,0 -1.6851,-2.9984 -4.3477,-6.6621 -20.267,-27.8867 -35.7336,-58.6983 -42.6523,-84.9746 -3.9015,-14.8178 -4.9886,-36.508 -2.4473,-48.7911 6.3816,-30.8444 28.732,-54.0462 59.6934,-61.9648 9.8558,-2.5207 21.9359,-3.3503 29.2578,-2.0098 5.9517,1.0896 18.3493,6.673 18.9043,8.5137 0.1637,0.5427 -2.5073,2.6262 -5.9356,4.6309 -10.1856,5.9561 -21.525,14.8356 -31.8672,24.955 l -9.7207,9.5118 5.4278,-0.5371 c 2.9852,-0.2955 25.1888,-2.1233 49.3418,-4.0606 24.1529,-1.9375 44.9215,-3.7299 46.1523,-3.9844 2.1505,-0.4447 1.9125,-1.1072 -6.1211,-16.9707 -4.5977,-9.0785 -11.8229,-22.1764 -16.0547,-29.1074 -9.9831,-16.3509 -30.1704,-45.2796 -30.957,-44.3613 z m 158.58976,47.5742 c -31.1133,0.4963 -63.95826,17.0201 -94.84176,48.293 -5.7809,5.8538 -7.3543,7.9597 -5.9218,7.9277 1.0728,-0.023 8.0565,-1.2944 15.5195,-2.8242 12.5954,-2.5819 13.5703,-2.6555 13.5703,-1.0332 0,1.3865 -3.684,19.9252 -7.4414,37.4531 -0.2909,1.3569 1.5149,-1.0738 4.0117,-5.4023 15.1774,-26.3108 34.354,-44.918 53.89256,-52.2911 8.7516,-3.3026 23.1667,-4.4578 31.5742,-2.5293 16.6839,3.827 32.3594,16.8014 40.5703,33.5782 5.8664,11.9865 7.6222,18.6827 8.3399,31.8047 1.1577,21.165 -4.3292,40.2706 -17.2324,60.0058 -6.4301,9.8344 -16.7627,21.6758 -18.9141,21.6758 -2.6703,0 -12.8608,-7.027 -18.0176,-12.4238 -6.2812,-6.5735 -8.4823,-9.5165 -12.3965,-16.5821 l -3.3379,-6.0273 0.5625,8.8828 c 2.1628,34.1584 2.8017,52.761 2.9063,84.5234 l 0.1191,36.168 2.1973,-1.6289 c 1.2077,-0.8959 23.2376,-18.0604 48.9551,-38.1426 l 46.7578,-36.5117 -16.5195,-0.4941 -16.5196,-0.4942 7.0801,-8.4199 c 18.5004,-21.9985 28.4505,-46.3415 29.8672,-73.0781 2.5689,-48.479 -24.4259,-93.5668 -64.3828,-107.5371 -9.8496,-3.4438 -20.0274,-5.058 -30.3985,-4.8926 z m -61.67766,236.3633 -6.0703,11.3476 c -15.4341,28.8545 -25.3104,42.8185 -53.75,76.00388 -8.1483,9.508 -16.196,19.0286 -17.8848,21.1563 l -3.0703,3.8691 -2.8281,-4.3789 c -1.5549,-2.4087 -7.6642,-10.9805 -13.5762,-19.0469 -14.8272,-20.2307 -25.2726,-37.48148 -25.3066,-41.79288 -0.02,-2.4131 16.7151,-5.5969 33.9355,-6.4571 4.5061,-0.2251 1.6269,-1.4861 -42.4355,-18.582 -25.9974,-10.0869 -47.4437,-18.1992 -47.6602,-18.0273 -0.5567,0.4418 28.7085,84.23258 29.416,84.22258 0.32,0 2.9621,-6.0193 5.8711,-13.3652 l 5.2891,-13.35548 8.1523,15.08988 c 4.4837,8.3 12.4573,22.4194 17.7188,31.375 5.2616,8.9556 12.7213,22.6348 16.5781,30.3984 l 7.0137,14.1152 6.4922,-6.2695 c 47.2739,-45.6475 85.8352,-78.59388 112.82996,-96.40038 3.6457,-2.4048 6.4816,-4.5183 6.3028,-4.6972 -0.1789,-0.1788 -3.6128,0.3447 -7.6328,1.1621 -10.62236,2.1599 -36.34696,6.1744 -36.78126,5.7402 -0.2041,-0.2041 0.2033,-3.1317 0.9043,-6.5039 1.4066,-6.768 4.9054,-30.4109 5.8731,-39.6836 l 0.6191,-5.9199 z" style="display:inline;fill:#000000"/>
        </g>
        <g id="g4625">
          <g id="g4564-8" transform="matrix(1,0,0,-1,4.9070068e-5,2389.4273)">
            <g id="g4854-4-3" transform="matrix(0.66842791,0,0,0.66842791,-6690.6525,-1569.5614)">
              <path id="rect4534-9-1-0" d="m 3540.9902,2537.5137 c -13.7505,21.6753 -21.705,47.4221 -21.705,75.0976 0,27.6754 7.9546,53.4225 21.705,75.0977 l 118.295,-54.5469 118.2949,54.5469 c 13.7504,-21.6752 21.7051,-47.4223 21.7051,-75.0977 0,-27.6755 -7.9546,-53.4223 -21.7051,-75.0976 l -118.2949,54.5468 -118.295,-54.5468 z" style="color:#000000;clip-rule:nonzero;display:inline;overflow:visible;visibility:visible;opacity:1;isolation:auto;mix-blend-mode:normal;color-interpolation:sRGB;color-interpolation-filters:linearRGB;solid-color:#000000;solid-opacity:1;fill:#000000;fill-opacity:1;fill-rule:nonzero;stroke:none;stroke-width:20;stroke-linecap:round;stroke-linejoin:round;stroke-miterlimit:4;stroke-dasharray:none;stroke-dashoffset:0;stroke-opacity:1;marker:none;color-rendering:auto;image-rendering:auto;shape-rendering:auto;text-rendering:auto;enable-background:accumulate" inkscape:connector-curvature="0"/>
              <path id="rect4534-9-4-9-8" d="m 3659.2852,2492.6118 c 66.48,0 120,53.52 120,120 0,66.48 -53.52,120 -120,120 -66.48,0 -120,-53.52 -120,-120 0,-66.48 53.52,-120 120,-120 z" style="color:#000000;clip-rule:nonzero;display:inline;overflow:visible;visibility:visible;opacity:1;isolation:auto;mix-blend-mode:normal;color-interpolation:sRGB;color-interpolation-filters:linearRGB;solid-color:#000000;solid-opacity:1;fill:#ffffff;fill-opacity:1;fill-rule:nonzero;stroke:none;stroke-width:20;stroke-linecap:round;stroke-linejoin:round;stroke-miterlimit:4;stroke-dasharray:none;stroke-dashoffset:0;stroke-opacity:1;marker:none;color-rendering:auto;image-rendering:auto;shape-rendering:auto;text-rendering:auto;enable-background:accumulate" inkscape:connector-curvature="0"/>
              <path id="rect4534-7-4-8-9" d="m 3577.8047,2554.4883 c -11.6662,16.3597 -18.5195,36.4109 -18.5195,58.123 0,21.7121 6.8533,41.7633 18.5195,58.1231 l 81.4805,-37.5723 81.4804,37.5723 c 11.6663,-16.3598 18.5196,-36.411 18.5196,-58.1231 0,-21.7121 -6.8533,-41.7633 -18.5196,-58.123 l -81.4804,37.5722 -81.4805,-37.5722 z" style="color:#000000;clip-rule:nonzero;display:inline;overflow:visible;visibility:visible;opacity:1;isolation:auto;mix-blend-mode:normal;color-interpolation:sRGB;color-interpolation-filters:linearRGB;solid-color:#000000;solid-opacity:1;fill:#000000;fill-opacity:1;fill-rule:nonzero;stroke:none;stroke-width:20;stroke-linecap:round;stroke-linejoin:round;stroke-miterlimit:4;stroke-dasharray:none;stroke-dashoffset:0;stroke-opacity:1;marker:none;color-rendering:auto;image-rendering:auto;shape-rendering:auto;text-rendering:auto;enable-background:accumulate" inkscape:connector-curvature="0"/>
              <path id="rect4534-7-2-7-3-6-9" d="m 3659.2852,2532.6118 c 44.32,0 80,35.68 80,80 0,44.32 -35.68,80 -80,80 -44.32,0 -80,-35.68 -80,-80 0,-44.32 35.68,-80 80,-80 z" style="color:#000000;clip-rule:nonzero;display:inline;overflow:visible;visibility:visible;opacity:1;isolation:auto;mix-blend-mode:normal;color-interpolation:sRGB;color-interpolation-filters:linearRGB;solid-color:#000000;solid-opacity:1;fill:#ffffff;fill-opacity:1;fill-rule:nonzero;stroke:none;stroke-width:20;stroke-linecap:round;stroke-linejoin:round;stroke-miterlimit:4;stroke-dasharray:none;stroke-dashoffset:0;stroke-opacity:1;marker:none;color-rendering:auto;image-rendering:auto;shape-rendering:auto;text-rendering:auto;enable-background:accumulate" inkscape:connector-curvature="0"/>
              <path id="rect4534-7-2-7-6-3" d="m 3615.2754,2571.7676 c -9.9269,10.6962 -15.9902,25.0325 -15.9902,40.8437 0,15.8109 6.0638,30.1476 15.9902,40.8438 l 44.0098,-20.293 44.0097,20.293 c 9.9264,-10.6962 15.9903,-25.0329 15.9903,-40.8438 0,-15.8112 -6.0634,-30.1475 -15.9903,-40.8437 l -44.0097,20.2929 -44.0098,-20.2929 z" style="color:#000000;clip-rule:nonzero;display:inline;overflow:visible;visibility:visible;opacity:1;isolation:auto;mix-blend-mode:normal;color-interpolation:sRGB;color-interpolation-filters:linearRGB;solid-color:#000000;solid-opacity:1;fill:#000000;fill-opacity:1;fill-rule:nonzero;stroke:none;stroke-width:20;stroke-linecap:round;stroke-linejoin:round;stroke-miterlimit:4;stroke-dasharray:none;stroke-dashoffset:0;stroke-opacity:1;marker:none;color-rendering:auto;image-rendering:auto;shape-rendering:auto;text-rendering:auto;enable-background:accumulate" inkscape:connector-curvature="0"/>
              <path id="rect4534-7-2-6-15-7-6-2" d="m 3659.2852,2572.6118 c 22.16,0 40,17.84 40,40 0,22.16 -17.84,40 -40,40 -22.16,0 -40,-17.84 -40,-40 0,-22.16 17.84,-40 40,-40 z" style="color:#000000;clip-rule:nonzero;display:inline;overflow:visible;visibility:visible;opacity:1;isolation:auto;mix-blend-mode:normal;color-interpolation:sRGB;color-interpolation-filters:linearRGB;solid-color:#000000;solid-opacity:1;fill:#ffffff;fill-opacity:1;fill-rule:nonzero;stroke:none;stroke-width:20;stroke-linecap:round;stroke-linejoin:round;stroke-miterlimit:4;stroke-dasharray:none;stroke-dashoffset:0;stroke-opacity:1;marker:none;color-rendering:auto;image-rendering:auto;shape-rendering:auto;text-rendering:auto;enable-background:accumulate" inkscape:connector-curvature="0"/>
              <path id="rect4534-7-2-6-15-4-5" d="m 3659.2852,2602.6118 c 5.54,0 10,4.46 10,10 0,5.54 -4.46,10 -10,10 -5.54,0 -10,-4.46 -10,-10 0,-5.54 4.46,-10 10,-10 z" style="color:#000000;clip-rule:nonzero;display:inline;overflow:visible;visibility:visible;opacity:1;isolation:auto;mix-blend-mode:normal;color-interpolation:sRGB;color-interpolation-filters:linearRGB;solid-color:#000000;solid-opacity:1;fill:#000000;fill-opacity:1;fill-rule:nonzero;stroke:#000000;stroke-width:32.80754852;stroke-linecap:round;stroke-linejoin:round;stroke-miterlimit:4;stroke-dasharray:none;stroke-dashoffset:0;stroke-opacity:1;marker:none;color-rendering:auto;image-rendering:auto;shape-rendering:auto;text-rendering:auto;enable-background:accumulate" inkscape:connector-curvature="0"/>
              <path id="rect4534-7-2-6-15-5-0-2" d="m 3659.2852,2602.6118 c 5.54,0 10,4.46 10,10 0,5.54 -4.46,10 -10,10 -5.54,0 -10,-4.46 -10,-10 0,-5.54 4.46,-10 10,-10 z" style="color:#000000;clip-rule:nonzero;display:inline;overflow:visible;visibility:visible;opacity:1;isolation:auto;mix-blend-mode:normal;color-interpolation:sRGB;color-interpolation-filters:linearRGB;solid-color:#000000;solid-opacity:1;fill:#000000;fill-opacity:1;fill-rule:nonzero;stroke:#000000;stroke-width:32.80754852;stroke-linecap:round;stroke-linejoin:round;stroke-miterlimit:4;stroke-dasharray:none;stroke-dashoffset:0;stroke-opacity:1;marker:none;color-rendering:auto;image-rendering:auto;shape-rendering:auto;text-rendering:auto;enable-background:accumulate" inkscape:connector-curvature="0"/>
              <path id="rect4534-7-2-6-15-1-7-1" d="m 3659.2852,2602.6118 c 5.54,0 10,4.46 10,10 0,5.54 -4.46,10 -10,10 -5.54,0 -10,-4.46 -10,-10 0,-5.54 4.46,-10 10,-10 z" style="color:#000000;clip-rule:nonzero;display:inline;overflow:visible;visibility:visible;opacity:1;isolation:auto;mix-blend-mode:normal;color-interpolation:sRGB;color-interpolation-filters:linearRGB;solid-color:#000000;solid-opacity:1;fill:#000000;fill-opacity:1;fill-rule:nonzero;stroke:#000000;stroke-width:32.80754852;stroke-linecap:round;stroke-linejoin:round;stroke-miterlimit:4;stroke-dasharray:none;stroke-dashoffset:0;stroke-opacity:1;marker:none;color-rendering:auto;image-rendering:auto;shape-rendering:auto;text-rendering:auto;enable-background:accumulate" inkscape:connector-curvature="0"/>
            </g>
            <path style="fill:none;fill-rule:evenodd;stroke:#000000;stroke-width:21.9294796;stroke-linecap:round;stroke-linejoin:round;stroke-miterlimit:4;stroke-dasharray:none;stroke-opacity:1" d="m -4244.6841,215.55471 0,166.76471" id="path4865-0-5" inkscape:connector-curvature="0"/>
          </g>
          <g id="g4564">
            <g id="g4854-4" transform="matrix(0.66842791,0,0,0.66842791,-6690.6525,-1569.5614)">
              <path id="rect4534-9-1" d="m 3540.9902,2537.5137 c -13.7505,21.6753 -21.705,47.4221 -21.705,75.0976 0,27.6754 7.9546,53.4225 21.705,75.0977 l 118.295,-54.5469 118.2949,54.5469 c 13.7504,-21.6752 21.7051,-47.4223 21.7051,-75.0977 0,-27.6755 -7.9546,-53.4223 -21.7051,-75.0976 l -118.2949,54.5468 -118.295,-54.5468 z" style="color:#000000;clip-rule:nonzero;display:inline;overflow:visible;visibility:visible;opacity:1;isolation:auto;mix-blend-mode:normal;color-interpolation:sRGB;color-interpolation-filters:linearRGB;solid-color:#000000;solid-opacity:1;fill:#000000;fill-opacity:1;fill-rule:nonzero;stroke:none;stroke-width:20;stroke-linecap:round;stroke-linejoin:round;stroke-miterlimit:4;stroke-dasharray:none;stroke-dashoffset:0;stroke-opacity:1;marker:none;color-rendering:auto;image-rendering:auto;shape-rendering:auto;text-rendering:auto;enable-background:accumulate" inkscape:connector-curvature="0"/>
              <path id="rect4534-9-4-9" d="m 3659.2852,2492.6118 c 66.48,0 120,53.52 120,120 0,66.48 -53.52,120 -120,120 -66.48,0 -120,-53.52 -120,-120 0,-66.48 53.52,-120 120,-120 z" style="color:#000000;clip-rule:nonzero;display:inline;overflow:visible;visibility:visible;opacity:1;isolation:auto;mix-blend-mode:normal;color-interpolation:sRGB;color-interpolation-filters:linearRGB;solid-color:#000000;solid-opacity:1;fill:#ffffff;fill-opacity:1;fill-rule:nonzero;stroke:none;stroke-width:20;stroke-linecap:round;stroke-linejoin:round;stroke-miterlimit:4;stroke-dasharray:none;stroke-dashoffset:0;stroke-opacity:1;marker:none;color-rendering:auto;image-rendering:auto;shape-rendering:auto;text-rendering:auto;enable-background:accumulate" inkscape:connector-curvature="0"/>
              <path id="rect4534-7-4-8" d="m 3577.8047,2554.4883 c -11.6662,16.3597 -18.5195,36.4109 -18.5195,58.123 0,21.7121 6.8533,41.7633 18.5195,58.1231 l 81.4805,-37.5723 81.4804,37.5723 c 11.6663,-16.3598 18.5196,-36.411 18.5196,-58.1231 0,-21.7121 -6.8533,-41.7633 -18.5196,-58.123 l -81.4804,37.5722 -81.4805,-37.5722 z" style="color:#000000;clip-rule:nonzero;display:inline;overflow:visible;visibility:visible;opacity:1;isolation:auto;mix-blend-mode:normal;color-interpolation:sRGB;color-interpolation-filters:linearRGB;solid-color:#000000;solid-opacity:1;fill:#000000;fill-opacity:1;fill-rule:nonzero;stroke:none;stroke-width:20;stroke-linecap:round;stroke-linejoin:round;stroke-miterlimit:4;stroke-dasharray:none;stroke-dashoffset:0;stroke-opacity:1;marker:none;color-rendering:auto;image-rendering:auto;shape-rendering:auto;text-rendering:auto;enable-background:accumulate" inkscape:connector-curvature="0"/>
              <path id="rect4534-7-2-7-3-6" d="m 3659.2852,2532.6118 c 44.32,0 80,35.68 80,80 0,44.32 -35.68,80 -80,80 -44.32,0 -80,-35.68 -80,-80 0,-44.32 35.68,-80 80,-80 z" style="color:#000000;clip-rule:nonzero;display:inline;overflow:visible;visibility:visible;opacity:1;isolation:auto;mix-blend-mode:normal;color-interpolation:sRGB;color-interpolation-filters:linearRGB;solid-color:#000000;solid-opacity:1;fill:#ffffff;fill-opacity:1;fill-rule:nonzero;stroke:none;stroke-width:20;stroke-linecap:round;stroke-linejoin:round;stroke-miterlimit:4;stroke-dasharray:none;stroke-dashoffset:0;stroke-opacity:1;marker:none;color-rendering:auto;image-rendering:auto;shape-rendering:auto;text-rendering:auto;enable-background:accumulate" inkscape:connector-curvature="0"/>
              <path id="rect4534-7-2-7-6" d="m 3615.2754,2571.7676 c -9.9269,10.6962 -15.9902,25.0325 -15.9902,40.8437 0,15.8109 6.0638,30.1476 15.9902,40.8438 l 44.0098,-20.293 44.0097,20.293 c 9.9264,-10.6962 15.9903,-25.0329 15.9903,-40.8438 0,-15.8112 -6.0634,-30.1475 -15.9903,-40.8437 l -44.0097,20.2929 -44.0098,-20.2929 z" style="color:#000000;clip-rule:nonzero;display:inline;overflow:visible;visibility:visible;opacity:1;isolation:auto;mix-blend-mode:normal;color-interpolation:sRGB;color-interpolation-filters:linearRGB;solid-color:#000000;solid-opacity:1;fill:#000000;fill-opacity:1;fill-rule:nonzero;stroke:none;stroke-width:20;stroke-linecap:round;stroke-linejoin:round;stroke-miterlimit:4;stroke-dasharray:none;stroke-dashoffset:0;stroke-opacity:1;marker:none;color-rendering:auto;image-rendering:auto;shape-rendering:auto;text-rendering:auto;enable-background:accumulate" inkscape:connector-curvature="0"/>
              <path id="rect4534-7-2-6-15-7-6" d="m 3659.2852,2572.6118 c 22.16,0 40,17.84 40,40 0,22.16 -17.84,40 -40,40 -22.16,0 -40,-17.84 -40,-40 0,-22.16 17.84,-40 40,-40 z" style="color:#000000;clip-rule:nonzero;display:inline;overflow:visible;visibility:visible;opacity:1;isolation:auto;mix-blend-mode:normal;color-interpolation:sRGB;color-interpolation-filters:linearRGB;solid-color:#000000;solid-opacity:1;fill:#ffffff;fill-opacity:1;fill-rule:nonzero;stroke:none;stroke-width:20;stroke-linecap:round;stroke-linejoin:round;stroke-miterlimit:4;stroke-dasharray:none;stroke-dashoffset:0;stroke-opacity:1;marker:none;color-rendering:auto;image-rendering:auto;shape-rendering:auto;text-rendering:auto;enable-background:accumulate" inkscape:connector-curvature="0"/>
              <path id="rect4534-7-2-6-15-4" d="m 3659.2852,2602.6118 c 5.54,0 10,4.46 10,10 0,5.54 -4.46,10 -10,10 -5.54,0 -10,-4.46 -10,-10 0,-5.54 4.46,-10 10,-10 z" style="color:#000000;clip-rule:nonzero;display:inline;overflow:visible;visibility:visible;opacity:1;isolation:auto;mix-blend-mode:normal;color-interpolation:sRGB;color-interpolation-filters:linearRGB;solid-color:#000000;solid-opacity:1;fill:#000000;fill-opacity:1;fill-rule:nonzero;stroke:#000000;stroke-width:32.80754852;stroke-linecap:round;stroke-linejoin:round;stroke-miterlimit:4;stroke-dasharray:none;stroke-dashoffset:0;stroke-opacity:1;marker:none;color-rendering:auto;image-rendering:auto;shape-rendering:auto;text-rendering:auto;enable-background:accumulate" inkscape:connector-curvature="0"/>
              <path id="rect4534-7-2-6-15-5-0" d="m 3659.2852,2602.6118 c 5.54,0 10,4.46 10,10 0,5.54 -4.46,10 -10,10 -5.54,0 -10,-4.46 -10,-10 0,-5.54 4.46,-10 10,-10 z" style="color:#000000;clip-rule:nonzero;display:inline;overflow:visible;visibility:visible;opacity:1;isolation:auto;mix-blend-mode:normal;color-interpolation:sRGB;color-interpolation-filters:linearRGB;solid-color:#000000;solid-opacity:1;fill:#000000;fill-opacity:1;fill-rule:nonzero;stroke:#000000;stroke-width:32.80754852;stroke-linecap:round;stroke-linejoin:round;stroke-miterlimit:4;stroke-dasharray:none;stroke-dashoffset:0;stroke-opacity:1;marker:none;color-rendering:auto;image-rendering:auto;shape-rendering:auto;text-rendering:auto;enable-background:accumulate" inkscape:connector-curvature="0"/>
              <path id="rect4534-7-2-6-15-1-7" d="m 3659.2852,2602.6118 c 5.54,0 10,4.46 10,10 0,5.54 -4.46,10 -10,10 -5.54,0 -10,-4.46 -10,-10 0,-5.54 4.46,-10 10,-10 z" style="color:#000000;clip-rule:nonzero;display:inline;overflow:visible;visibility:visible;opacity:1;isolation:auto;mix-blend-mode:normal;color-interpolation:sRGB;color-interpolation-filters:linearRGB;solid-color:#000000;solid-opacity:1;fill:#000000;fill-opacity:1;fill-rule:nonzero;stroke:#000000;stroke-width:32.80754852;stroke-linecap:round;stroke-linejoin:round;stroke-miterlimit:4;stroke-dasharray:none;stroke-dashoffset:0;stroke-opacity:1;marker:none;color-rendering:auto;image-rendering:auto;shape-rendering:auto;text-rendering:auto;enable-background:accumulate" inkscape:connector-curvature="0"/>
            </g>
            <path style="fill:none;fill-rule:evenodd;stroke:#000000;stroke-width:21.9294796;stroke-linecap:round;stroke-linejoin:round;stroke-miterlimit:4;stroke-dasharray:none;stroke-opacity:1" d="m -4244.6841,215.55471 0,166.76471" id="path4865-0" inkscape:connector-curvature="0"/>
          </g>
        </g>
        <g transform="matrix(0.5,-0.8660254,0.8660254,0.5,-3156.9944,-3078.6474)" id="g4625-6">
          <g id="g4564-8-3" transform="matrix(1,0,0,-1,4.9070068e-5,2389.4273)">
            <g id="g4854-4-3-2" transform="matrix(0.66842791,0,0,0.66842791,-6690.6525,-1569.5614)">
              <path id="rect4534-9-1-0-4" d="m 3540.9902,2537.5137 c -13.7505,21.6753 -21.705,47.4221 -21.705,75.0976 0,27.6754 7.9546,53.4225 21.705,75.0977 l 118.295,-54.5469 118.2949,54.5469 c 13.7504,-21.6752 21.7051,-47.4223 21.7051,-75.0977 0,-27.6755 -7.9546,-53.4223 -21.7051,-75.0976 l -118.2949,54.5468 -118.295,-54.5468 z" style="color:#000000;clip-rule:nonzero;display:inline;overflow:visible;visibility:visible;opacity:1;isolation:auto;mix-blend-mode:normal;color-interpolation:sRGB;color-interpolation-filters:linearRGB;solid-color:#000000;solid-opacity:1;fill:#000000;fill-opacity:1;fill-rule:nonzero;stroke:none;stroke-width:20;stroke-linecap:round;stroke-linejoin:round;stroke-miterlimit:4;stroke-dasharray:none;stroke-dashoffset:0;stroke-opacity:1;marker:none;color-rendering:auto;image-rendering:auto;shape-rendering:auto;text-rendering:auto;enable-background:accumulate" inkscape:connector-curvature="0"/>
              <path id="rect4534-9-4-9-8-7" d="m 3659.2852,2492.6118 c 66.48,0 120,53.52 120,120 0,66.48 -53.52,120 -120,120 -66.48,0 -120,-53.52 -120,-120 0,-66.48 53.52,-120 120,-120 z" style="color:#000000;clip-rule:nonzero;display:inline;overflow:visible;visibility:visible;opacity:1;isolation:auto;mix-blend-mode:normal;color-interpolation:sRGB;color-interpolation-filters:linearRGB;solid-color:#000000;solid-opacity:1;fill:#ffffff;fill-opacity:1;fill-rule:nonzero;stroke:none;stroke-width:20;stroke-linecap:round;stroke-linejoin:round;stroke-miterlimit:4;stroke-dasharray:none;stroke-dashoffset:0;stroke-opacity:1;marker:none;color-rendering:auto;image-rendering:auto;shape-rendering:auto;text-rendering:auto;enable-background:accumulate" inkscape:connector-curvature="0"/>
              <path id="rect4534-7-4-8-9-9" d="m 3577.8047,2554.4883 c -11.6662,16.3597 -18.5195,36.4109 -18.5195,58.123 0,21.7121 6.8533,41.7633 18.5195,58.1231 l 81.4805,-37.5723 81.4804,37.5723 c 11.6663,-16.3598 18.5196,-36.411 18.5196,-58.1231 0,-21.7121 -6.8533,-41.7633 -18.5196,-58.123 l -81.4804,37.5722 -81.4805,-37.5722 z" style="color:#000000;clip-rule:nonzero;display:inline;overflow:visible;visibility:visible;opacity:1;isolation:auto;mix-blend-mode:normal;color-interpolation:sRGB;color-interpolation-filters:linearRGB;solid-color:#000000;solid-opacity:1;fill:#000000;fill-opacity:1;fill-rule:nonzero;stroke:none;stroke-width:20;stroke-linecap:round;stroke-linejoin:round;stroke-miterlimit:4;stroke-dasharray:none;stroke-dashoffset:0;stroke-opacity:1;marker:none;color-rendering:auto;image-rendering:auto;shape-rendering:auto;text-rendering:auto;enable-background:accumulate" inkscape:connector-curvature="0"/>
              <path id="rect4534-7-2-7-3-6-9-4" d="m 3659.2852,2532.6118 c 44.32,0 80,35.68 80,80 0,44.32 -35.68,80 -80,80 -44.32,0 -80,-35.68 -80,-80 0,-44.32 35.68,-80 80,-80 z" style="color:#000000;clip-rule:nonzero;display:inline;overflow:visible;visibility:visible;opacity:1;isolation:auto;mix-blend-mode:normal;color-interpolation:sRGB;color-interpolation-filters:linearRGB;solid-color:#000000;solid-opacity:1;fill:#ffffff;fill-opacity:1;fill-rule:nonzero;stroke:none;stroke-width:20;stroke-linecap:round;stroke-linejoin:round;stroke-miterlimit:4;stroke-dasharray:none;stroke-dashoffset:0;stroke-opacity:1;marker:none;color-rendering:auto;image-rendering:auto;shape-rendering:auto;text-rendering:auto;enable-background:accumulate" inkscape:connector-curvature="0"/>
              <path id="rect4534-7-2-7-6-3-4" d="m 3615.2754,2571.7676 c -9.9269,10.6962 -15.9902,25.0325 -15.9902,40.8437 0,15.8109 6.0638,30.1476 15.9902,40.8438 l 44.0098,-20.293 44.0097,20.293 c 9.9264,-10.6962 15.9903,-25.0329 15.9903,-40.8438 0,-15.8112 -6.0634,-30.1475 -15.9903,-40.8437 l -44.0097,20.2929 -44.0098,-20.2929 z" style="color:#000000;clip-rule:nonzero;display:inline;overflow:visible;visibility:visible;opacity:1;isolation:auto;mix-blend-mode:normal;color-interpolation:sRGB;color-interpolation-filters:linearRGB;solid-color:#000000;solid-opacity:1;fill:#000000;fill-opacity:1;fill-rule:nonzero;stroke:none;stroke-width:20;stroke-linecap:round;stroke-linejoin:round;stroke-miterlimit:4;stroke-dasharray:none;stroke-dashoffset:0;stroke-opacity:1;marker:none;color-rendering:auto;image-rendering:auto;shape-rendering:auto;text-rendering:auto;enable-background:accumulate" inkscape:connector-curvature="0"/>
              <path id="rect4534-7-2-6-15-7-6-2-1" d="m 3659.2852,2572.6118 c 22.16,0 40,17.84 40,40 0,22.16 -17.84,40 -40,40 -22.16,0 -40,-17.84 -40,-40 0,-22.16 17.84,-40 40,-40 z" style="color:#000000;clip-rule:nonzero;display:inline;overflow:visible;visibility:visible;opacity:1;isolation:auto;mix-blend-mode:normal;color-interpolation:sRGB;color-interpolation-filters:linearRGB;solid-color:#000000;solid-opacity:1;fill:#ffffff;fill-opacity:1;fill-rule:nonzero;stroke:none;stroke-width:20;stroke-linecap:round;stroke-linejoin:round;stroke-miterlimit:4;stroke-dasharray:none;stroke-dashoffset:0;stroke-opacity:1;marker:none;color-rendering:auto;image-rendering:auto;shape-rendering:auto;text-rendering:auto;enable-background:accumulate" inkscape:connector-curvature="0"/>
              <path id="rect4534-7-2-6-15-4-5-1" d="m 3659.2852,2602.6118 c 5.54,0 10,4.46 10,10 0,5.54 -4.46,10 -10,10 -5.54,0 -10,-4.46 -10,-10 0,-5.54 4.46,-10 10,-10 z" style="color:#000000;clip-rule:nonzero;display:inline;overflow:visible;visibility:visible;opacity:1;isolation:auto;mix-blend-mode:normal;color-interpolation:sRGB;color-interpolation-filters:linearRGB;solid-color:#000000;solid-opacity:1;fill:#000000;fill-opacity:1;fill-rule:nonzero;stroke:#000000;stroke-width:32.80754852;stroke-linecap:round;stroke-linejoin:round;stroke-miterlimit:4;stroke-dasharray:none;stroke-dashoffset:0;stroke-opacity:1;marker:none;color-rendering:auto;image-rendering:auto;shape-rendering:auto;text-rendering:auto;enable-background:accumulate" inkscape:connector-curvature="0"/>
              <path id="rect4534-7-2-6-15-5-0-2-0" d="m 3659.2852,2602.6118 c 5.54,0 10,4.46 10,10 0,5.54 -4.46,10 -10,10 -5.54,0 -10,-4.46 -10,-10 0,-5.54 4.46,-10 10,-10 z" style="color:#000000;clip-rule:nonzero;display:inline;overflow:visible;visibility:visible;opacity:1;isolation:auto;mix-blend-mode:normal;color-interpolation:sRGB;color-interpolation-filters:linearRGB;solid-color:#000000;solid-opacity:1;fill:#000000;fill-opacity:1;fill-rule:nonzero;stroke:#000000;stroke-width:32.80754852;stroke-linecap:round;stroke-linejoin:round;stroke-miterlimit:4;stroke-dasharray:none;stroke-dashoffset:0;stroke-opacity:1;marker:none;color-rendering:auto;image-rendering:auto;shape-rendering:auto;text-rendering:auto;enable-background:accumulate" inkscape:connector-curvature="0"/>
              <path id="rect4534-7-2-6-15-1-7-1-7" d="m 3659.2852,2602.6118 c 5.54,0 10,4.46 10,10 0,5.54 -4.46,10 -10,10 -5.54,0 -10,-4.46 -10,-10 0,-5.54 4.46,-10 10,-10 z" style="color:#000000;clip-rule:nonzero;display:inline;overflow:visible;visibility:visible;opacity:1;isolation:auto;mix-blend-mode:normal;color-interpolation:sRGB;color-interpolation-filters:linearRGB;solid-color:#000000;solid-opacity:1;fill:#000000;fill-opacity:1;fill-rule:nonzero;stroke:#000000;stroke-width:32.80754852;stroke-linecap:round;stroke-linejoin:round;stroke-miterlimit:4;stroke-dasharray:none;stroke-dashoffset:0;stroke-opacity:1;marker:none;color-rendering:auto;image-rendering:auto;shape-rendering:auto;text-rendering:auto;enable-background:accumulate" inkscape:connector-curvature="0"/>
            </g>
            <path style="fill:none;fill-rule:evenodd;stroke:#000000;stroke-width:21.9294796;stroke-linecap:round;stroke-linejoin:round;stroke-miterlimit:4;stroke-dasharray:none;stroke-opacity:1" d="m -4244.6841,215.55471 0,166.76471" id="path4865-0-5-0" inkscape:connector-curvature="0"/>
          </g>
          <g id="g4564-1">
            <g id="g4854-4-9" transform="matrix(0.66842791,0,0,0.66842791,-6690.6525,-1569.5614)">
              <path id="rect4534-9-1-3" d="m 3540.9902,2537.5137 c -13.7505,21.6753 -21.705,47.4221 -21.705,75.0976 0,27.6754 7.9546,53.4225 21.705,75.0977 l 118.295,-54.5469 118.2949,54.5469 c 13.7504,-21.6752 21.7051,-47.4223 21.7051,-75.0977 0,-27.6755 -7.9546,-53.4223 -21.7051,-75.0976 l -118.2949,54.5468 -118.295,-54.5468 z" style="color:#000000;clip-rule:nonzero;display:inline;overflow:visible;visibility:visible;opacity:1;isolation:auto;mix-blend-mode:normal;color-interpolation:sRGB;color-interpolation-filters:linearRGB;solid-color:#000000;solid-opacity:1;fill:#000000;fill-opacity:1;fill-rule:nonzero;stroke:none;stroke-width:20;stroke-linecap:round;stroke-linejoin:round;stroke-miterlimit:4;stroke-dasharray:none;stroke-dashoffset:0;stroke-opacity:1;marker:none;color-rendering:auto;image-rendering:auto;shape-rendering:auto;text-rendering:auto;enable-background:accumulate" inkscape:connector-curvature="0"/>
              <path id="rect4534-9-4-9-7" d="m 3659.2852,2492.6118 c 66.48,0 120,53.52 120,120 0,66.48 -53.52,120 -120,120 -66.48,0 -120,-53.52 -120,-120 0,-66.48 53.52,-120 120,-120 z" style="color:#000000;clip-rule:nonzero;display:inline;overflow:visible;visibility:visible;opacity:1;isolation:auto;mix-blend-mode:normal;color-interpolation:sRGB;color-interpolation-filters:linearRGB;solid-color:#000000;solid-opacity:1;fill:#ffffff;fill-opacity:1;fill-rule:nonzero;stroke:none;stroke-width:20;stroke-linecap:round;stroke-linejoin:round;stroke-miterlimit:4;stroke-dasharray:none;stroke-dashoffset:0;stroke-opacity:1;marker:none;color-rendering:auto;image-rendering:auto;shape-rendering:auto;text-rendering:auto;enable-background:accumulate" inkscape:connector-curvature="0"/>
              <path id="rect4534-7-4-8-2" d="m 3577.8047,2554.4883 c -11.6662,16.3597 -18.5195,36.4109 -18.5195,58.123 0,21.7121 6.8533,41.7633 18.5195,58.1231 l 81.4805,-37.5723 81.4804,37.5723 c 11.6663,-16.3598 18.5196,-36.411 18.5196,-58.1231 0,-21.7121 -6.8533,-41.7633 -18.5196,-58.123 l -81.4804,37.5722 -81.4805,-37.5722 z" style="color:#000000;clip-rule:nonzero;display:inline;overflow:visible;visibility:visible;opacity:1;isolation:auto;mix-blend-mode:normal;color-interpolation:sRGB;color-interpolation-filters:linearRGB;solid-color:#000000;solid-opacity:1;fill:#000000;fill-opacity:1;fill-rule:nonzero;stroke:none;stroke-width:20;stroke-linecap:round;stroke-linejoin:round;stroke-miterlimit:4;stroke-dasharray:none;stroke-dashoffset:0;stroke-opacity:1;marker:none;color-rendering:auto;image-rendering:auto;shape-rendering:auto;text-rendering:auto;enable-background:accumulate" inkscape:connector-curvature="0"/>
              <path id="rect4534-7-2-7-3-6-5" d="m 3659.2852,2532.6118 c 44.32,0 80,35.68 80,80 0,44.32 -35.68,80 -80,80 -44.32,0 -80,-35.68 -80,-80 0,-44.32 35.68,-80 80,-80 z" style="color:#000000;clip-rule:nonzero;display:inline;overflow:visible;visibility:visible;opacity:1;isolation:auto;mix-blend-mode:normal;color-interpolation:sRGB;color-interpolation-filters:linearRGB;solid-color:#000000;solid-opacity:1;fill:#ffffff;fill-opacity:1;fill-rule:nonzero;stroke:none;stroke-width:20;stroke-linecap:round;stroke-linejoin:round;stroke-miterlimit:4;stroke-dasharray:none;stroke-dashoffset:0;stroke-opacity:1;marker:none;color-rendering:auto;image-rendering:auto;shape-rendering:auto;text-rendering:auto;enable-background:accumulate" inkscape:connector-curvature="0"/>
              <path id="rect4534-7-2-7-6-8" d="m 3615.2754,2571.7676 c -9.9269,10.6962 -15.9902,25.0325 -15.9902,40.8437 0,15.8109 6.0638,30.1476 15.9902,40.8438 l 44.0098,-20.293 44.0097,20.293 c 9.9264,-10.6962 15.9903,-25.0329 15.9903,-40.8438 0,-15.8112 -6.0634,-30.1475 -15.9903,-40.8437 l -44.0097,20.2929 -44.0098,-20.2929 z" style="color:#000000;clip-rule:nonzero;display:inline;overflow:visible;visibility:visible;opacity:1;isolation:auto;mix-blend-mode:normal;color-interpolation:sRGB;color-interpolation-filters:linearRGB;solid-color:#000000;solid-opacity:1;fill:#000000;fill-opacity:1;fill-rule:nonzero;stroke:none;stroke-width:20;stroke-linecap:round;stroke-linejoin:round;stroke-miterlimit:4;stroke-dasharray:none;stroke-dashoffset:0;stroke-opacity:1;marker:none;color-rendering:auto;image-rendering:auto;shape-rendering:auto;text-rendering:auto;enable-background:accumulate" inkscape:connector-curvature="0"/>
              <path id="rect4534-7-2-6-15-7-6-5" d="m 3659.2852,2572.6118 c 22.16,0 40,17.84 40,40 0,22.16 -17.84,40 -40,40 -22.16,0 -40,-17.84 -40,-40 0,-22.16 17.84,-40 40,-40 z" style="color:#000000;clip-rule:nonzero;display:inline;overflow:visible;visibility:visible;opacity:1;isolation:auto;mix-blend-mode:normal;color-interpolation:sRGB;color-interpolation-filters:linearRGB;solid-color:#000000;solid-opacity:1;fill:#ffffff;fill-opacity:1;fill-rule:nonzero;stroke:none;stroke-width:20;stroke-linecap:round;stroke-linejoin:round;stroke-miterlimit:4;stroke-dasharray:none;stroke-dashoffset:0;stroke-opacity:1;marker:none;color-rendering:auto;image-rendering:auto;shape-rendering:auto;text-rendering:auto;enable-background:accumulate" inkscape:connector-curvature="0"/>
              <path id="rect4534-7-2-6-15-4-9" d="m 3659.2852,2602.6118 c 5.54,0 10,4.46 10,10 0,5.54 -4.46,10 -10,10 -5.54,0 -10,-4.46 -10,-10 0,-5.54 4.46,-10 10,-10 z" style="color:#000000;clip-rule:nonzero;display:inline;overflow:visible;visibility:visible;opacity:1;isolation:auto;mix-blend-mode:normal;color-interpolation:sRGB;color-interpolation-filters:linearRGB;solid-color:#000000;solid-opacity:1;fill:#000000;fill-opacity:1;fill-rule:nonzero;stroke:#000000;stroke-width:32.80754852;stroke-linecap:round;stroke-linejoin:round;stroke-miterlimit:4;stroke-dasharray:none;stroke-dashoffset:0;stroke-opacity:1;marker:none;color-rendering:auto;image-rendering:auto;shape-rendering:auto;text-rendering:auto;enable-background:accumulate" inkscape:connector-curvature="0"/>
              <path id="rect4534-7-2-6-15-5-0-1" d="m 3659.2852,2602.6118 c 5.54,0 10,4.46 10,10 0,5.54 -4.46,10 -10,10 -5.54,0 -10,-4.46 -10,-10 0,-5.54 4.46,-10 10,-10 z" style="color:#000000;clip-rule:nonzero;display:inline;overflow:visible;visibility:visible;opacity:1;isolation:auto;mix-blend-mode:normal;color-interpolation:sRGB;color-interpolation-filters:linearRGB;solid-color:#000000;solid-opacity:1;fill:#000000;fill-opacity:1;fill-rule:nonzero;stroke:#000000;stroke-width:32.80754852;stroke-linecap:round;stroke-linejoin:round;stroke-miterlimit:4;stroke-dasharray:none;stroke-dashoffset:0;stroke-opacity:1;marker:none;color-rendering:auto;image-rendering:auto;shape-rendering:auto;text-rendering:auto;enable-background:accumulate" inkscape:connector-curvature="0"/>
              <path id="rect4534-7-2-6-15-1-7-5" d="m 3659.2852,2602.6118 c 5.54,0 10,4.46 10,10 0,5.54 -4.46,10 -10,10 -5.54,0 -10,-4.46 -10,-10 0,-5.54 4.46,-10 10,-10 z" style="color:#000000;clip-rule:nonzero;display:inline;overflow:visible;visibility:visible;opacity:1;isolation:auto;mix-blend-mode:normal;color-interpolation:sRGB;color-interpolation-filters:linearRGB;solid-color:#000000;solid-opacity:1;fill:#000000;fill-opacity:1;fill-rule:nonzero;stroke:#000000;stroke-width:32.80754852;stroke-linecap:round;stroke-linejoin:round;stroke-miterlimit:4;stroke-dasharray:none;stroke-dashoffset:0;stroke-opacity:1;marker:none;color-rendering:auto;image-rendering:auto;shape-rendering:auto;text-rendering:auto;enable-background:accumulate" inkscape:connector-curvature="0"/>
            </g>
            <path style="fill:none;fill-rule:evenodd;stroke:#000000;stroke-width:21.9294796;stroke-linecap:round;stroke-linejoin:round;stroke-miterlimit:4;stroke-dasharray:none;stroke-opacity:1" d="m -4244.6841,215.55471 0,166.76471" id="path4865-0-6" inkscape:connector-curvature="0"/>
          </g>
        </g>
        <g transform="matrix(-0.5,-0.8660254,0.8660254,-0.5,-7401.6785,-1883.9338)" id="g4625-6-7">
          <g id="g4564-8-3-0" transform="matrix(1,0,0,-1,4.9070068e-5,2389.4273)">
            <g id="g4854-4-3-2-5" transform="matrix(0.66842791,0,0,0.66842791,-6690.6525,-1569.5614)">
              <path id="rect4534-9-1-0-4-7" d="m 3540.9902,2537.5137 c -13.7505,21.6753 -21.705,47.4221 -21.705,75.0976 0,27.6754 7.9546,53.4225 21.705,75.0977 l 118.295,-54.5469 118.2949,54.5469 c 13.7504,-21.6752 21.7051,-47.4223 21.7051,-75.0977 0,-27.6755 -7.9546,-53.4223 -21.7051,-75.0976 l -118.2949,54.5468 -118.295,-54.5468 z" style="color:#000000;clip-rule:nonzero;display:inline;overflow:visible;visibility:visible;opacity:1;isolation:auto;mix-blend-mode:normal;color-interpolation:sRGB;color-interpolation-filters:linearRGB;solid-color:#000000;solid-opacity:1;fill:#000000;fill-opacity:1;fill-rule:nonzero;stroke:none;stroke-width:20;stroke-linecap:round;stroke-linejoin:round;stroke-miterlimit:4;stroke-dasharray:none;stroke-dashoffset:0;stroke-opacity:1;marker:none;color-rendering:auto;image-rendering:auto;shape-rendering:auto;text-rendering:auto;enable-background:accumulate" inkscape:connector-curvature="0"/>
              <path id="rect4534-9-4-9-8-7-3" d="m 3659.2852,2492.6118 c 66.48,0 120,53.52 120,120 0,66.48 -53.52,120 -120,120 -66.48,0 -120,-53.52 -120,-120 0,-66.48 53.52,-120 120,-120 z" style="color:#000000;clip-rule:nonzero;display:inline;overflow:visible;visibility:visible;opacity:1;isolation:auto;mix-blend-mode:normal;color-interpolation:sRGB;color-interpolation-filters:linearRGB;solid-color:#000000;solid-opacity:1;fill:#ffffff;fill-opacity:1;fill-rule:nonzero;stroke:none;stroke-width:20;stroke-linecap:round;stroke-linejoin:round;stroke-miterlimit:4;stroke-dasharray:none;stroke-dashoffset:0;stroke-opacity:1;marker:none;color-rendering:auto;image-rendering:auto;shape-rendering:auto;text-rendering:auto;enable-background:accumulate" inkscape:connector-curvature="0"/>
              <path id="rect4534-7-4-8-9-9-6" d="m 3577.8047,2554.4883 c -11.6662,16.3597 -18.5195,36.4109 -18.5195,58.123 0,21.7121 6.8533,41.7633 18.5195,58.1231 l 81.4805,-37.5723 81.4804,37.5723 c 11.6663,-16.3598 18.5196,-36.411 18.5196,-58.1231 0,-21.7121 -6.8533,-41.7633 -18.5196,-58.123 l -81.4804,37.5722 -81.4805,-37.5722 z" style="color:#000000;clip-rule:nonzero;display:inline;overflow:visible;visibility:visible;opacity:1;isolation:auto;mix-blend-mode:normal;color-interpolation:sRGB;color-interpolation-filters:linearRGB;solid-color:#000000;solid-opacity:1;fill:#000000;fill-opacity:1;fill-rule:nonzero;stroke:none;stroke-width:20;stroke-linecap:round;stroke-linejoin:round;stroke-miterlimit:4;stroke-dasharray:none;stroke-dashoffset:0;stroke-opacity:1;marker:none;color-rendering:auto;image-rendering:auto;shape-rendering:auto;text-rendering:auto;enable-background:accumulate" inkscape:connector-curvature="0"/>
              <path id="rect4534-7-2-7-3-6-9-4-5" d="m 3659.2852,2532.6118 c 44.32,0 80,35.68 80,80 0,44.32 -35.68,80 -80,80 -44.32,0 -80,-35.68 -80,-80 0,-44.32 35.68,-80 80,-80 z" style="color:#000000;clip-rule:nonzero;display:inline;overflow:visible;visibility:visible;opacity:1;isolation:auto;mix-blend-mode:normal;color-interpolation:sRGB;color-interpolation-filters:linearRGB;solid-color:#000000;solid-opacity:1;fill:#ffffff;fill-opacity:1;fill-rule:nonzero;stroke:none;stroke-width:20;stroke-linecap:round;stroke-linejoin:round;stroke-miterlimit:4;stroke-dasharray:none;stroke-dashoffset:0;stroke-opacity:1;marker:none;color-rendering:auto;image-rendering:auto;shape-rendering:auto;text-rendering:auto;enable-background:accumulate" inkscape:connector-curvature="0"/>
              <path id="rect4534-7-2-7-6-3-4-2" d="m 3615.2754,2571.7676 c -9.9269,10.6962 -15.9902,25.0325 -15.9902,40.8437 0,15.8109 6.0638,30.1476 15.9902,40.8438 l 44.0098,-20.293 44.0097,20.293 c 9.9264,-10.6962 15.9903,-25.0329 15.9903,-40.8438 0,-15.8112 -6.0634,-30.1475 -15.9903,-40.8437 l -44.0097,20.2929 -44.0098,-20.2929 z" style="color:#000000;clip-rule:nonzero;display:inline;overflow:visible;visibility:visible;opacity:1;isolation:auto;mix-blend-mode:normal;color-interpolation:sRGB;color-interpolation-filters:linearRGB;solid-color:#000000;solid-opacity:1;fill:#000000;fill-opacity:1;fill-rule:nonzero;stroke:none;stroke-width:20;stroke-linecap:round;stroke-linejoin:round;stroke-miterlimit:4;stroke-dasharray:none;stroke-dashoffset:0;stroke-opacity:1;marker:none;color-rendering:auto;image-rendering:auto;shape-rendering:auto;text-rendering:auto;enable-background:accumulate" inkscape:connector-curvature="0"/>
              <path id="rect4534-7-2-6-15-7-6-2-1-8" d="m 3659.2852,2572.6118 c 22.16,0 40,17.84 40,40 0,22.16 -17.84,40 -40,40 -22.16,0 -40,-17.84 -40,-40 0,-22.16 17.84,-40 40,-40 z" style="color:#000000;clip-rule:nonzero;display:inline;overflow:visible;visibility:visible;opacity:1;isolation:auto;mix-blend-mode:normal;color-interpolation:sRGB;color-interpolation-filters:linearRGB;solid-color:#000000;solid-opacity:1;fill:#ffffff;fill-opacity:1;fill-rule:nonzero;stroke:none;stroke-width:20;stroke-linecap:round;stroke-linejoin:round;stroke-miterlimit:4;stroke-dasharray:none;stroke-dashoffset:0;stroke-opacity:1;marker:none;color-rendering:auto;image-rendering:auto;shape-rendering:auto;text-rendering:auto;enable-background:accumulate" inkscape:connector-curvature="0"/>
              <path id="rect4534-7-2-6-15-4-5-1-2" d="m 3659.2852,2602.6118 c 5.54,0 10,4.46 10,10 0,5.54 -4.46,10 -10,10 -5.54,0 -10,-4.46 -10,-10 0,-5.54 4.46,-10 10,-10 z" style="color:#000000;clip-rule:nonzero;display:inline;overflow:visible;visibility:visible;opacity:1;isolation:auto;mix-blend-mode:normal;color-interpolation:sRGB;color-interpolation-filters:linearRGB;solid-color:#000000;solid-opacity:1;fill:#000000;fill-opacity:1;fill-rule:nonzero;stroke:#000000;stroke-width:32.80754852;stroke-linecap:round;stroke-linejoin:round;stroke-miterlimit:4;stroke-dasharray:none;stroke-dashoffset:0;stroke-opacity:1;marker:none;color-rendering:auto;image-rendering:auto;shape-rendering:auto;text-rendering:auto;enable-background:accumulate" inkscape:connector-curvature="0"/>
              <path id="rect4534-7-2-6-15-5-0-2-0-8" d="m 3659.2852,2602.6118 c 5.54,0 10,4.46 10,10 0,5.54 -4.46,10 -10,10 -5.54,0 -10,-4.46 -10,-10 0,-5.54 4.46,-10 10,-10 z" style="color:#000000;clip-rule:nonzero;display:inline;overflow:visible;visibility:visible;opacity:1;isolation:auto;mix-blend-mode:normal;color-interpolation:sRGB;color-interpolation-filters:linearRGB;solid-color:#000000;solid-opacity:1;fill:#000000;fill-opacity:1;fill-rule:nonzero;stroke:#000000;stroke-width:32.80754852;stroke-linecap:round;stroke-linejoin:round;stroke-miterlimit:4;stroke-dasharray:none;stroke-dashoffset:0;stroke-opacity:1;marker:none;color-rendering:auto;image-rendering:auto;shape-rendering:auto;text-rendering:auto;enable-background:accumulate" inkscape:connector-curvature="0"/>
              <path id="rect4534-7-2-6-15-1-7-1-7-0" d="m 3659.2852,2602.6118 c 5.54,0 10,4.46 10,10 0,5.54 -4.46,10 -10,10 -5.54,0 -10,-4.46 -10,-10 0,-5.54 4.46,-10 10,-10 z" style="color:#000000;clip-rule:nonzero;display:inline;overflow:visible;visibility:visible;opacity:1;isolation:auto;mix-blend-mode:normal;color-interpolation:sRGB;color-interpolation-filters:linearRGB;solid-color:#000000;solid-opacity:1;fill:#000000;fill-opacity:1;fill-rule:nonzero;stroke:#000000;stroke-width:32.80754852;stroke-linecap:round;stroke-linejoin:round;stroke-miterlimit:4;stroke-dasharray:none;stroke-dashoffset:0;stroke-opacity:1;marker:none;color-rendering:auto;image-rendering:auto;shape-rendering:auto;text-rendering:auto;enable-background:accumulate" inkscape:connector-curvature="0"/>
            </g>
            <path style="fill:none;fill-rule:evenodd;stroke:#000000;stroke-width:21.9294796;stroke-linecap:round;stroke-linejoin:round;stroke-miterlimit:4;stroke-dasharray:none;stroke-opacity:1" d="m -4244.6841,215.55471 0,166.76471" id="path4865-0-5-0-0" inkscape:connector-curvature="0"/>
          </g>
          <g id="g4564-1-4">
            <g id="g4854-4-9-2" transform="matrix(0.66842791,0,0,0.66842791,-6690.6525,-1569.5614)">
              <path id="rect4534-9-1-3-8" d="m 3540.9902,2537.5137 c -13.7505,21.6753 -21.705,47.4221 -21.705,75.0976 0,27.6754 7.9546,53.4225 21.705,75.0977 l 118.295,-54.5469 118.2949,54.5469 c 13.7504,-21.6752 21.7051,-47.4223 21.7051,-75.0977 0,-27.6755 -7.9546,-53.4223 -21.7051,-75.0976 l -118.2949,54.5468 -118.295,-54.5468 z" style="color:#000000;clip-rule:nonzero;display:inline;overflow:visible;visibility:visible;opacity:1;isolation:auto;mix-blend-mode:normal;color-interpolation:sRGB;color-interpolation-filters:linearRGB;solid-color:#000000;solid-opacity:1;fill:#000000;fill-opacity:1;fill-rule:nonzero;stroke:none;stroke-width:20;stroke-linecap:round;stroke-linejoin:round;stroke-miterlimit:4;stroke-dasharray:none;stroke-dashoffset:0;stroke-opacity:1;marker:none;color-rendering:auto;image-rendering:auto;shape-rendering:auto;text-rendering:auto;enable-background:accumulate" inkscape:connector-curvature="0"/>
              <path id="rect4534-9-4-9-7-7" d="m 3659.2852,2492.6118 c 66.48,0 120,53.52 120,120 0,66.48 -53.52,120 -120,120 -66.48,0 -120,-53.52 -120,-120 0,-66.48 53.52,-120 120,-120 z" style="color:#000000;clip-rule:nonzero;display:inline;overflow:visible;visibility:visible;opacity:1;isolation:auto;mix-blend-mode:normal;color-interpolation:sRGB;color-interpolation-filters:linearRGB;solid-color:#000000;solid-opacity:1;fill:#ffffff;fill-opacity:1;fill-rule:nonzero;stroke:none;stroke-width:20;stroke-linecap:round;stroke-linejoin:round;stroke-miterlimit:4;stroke-dasharray:none;stroke-dashoffset:0;stroke-opacity:1;marker:none;color-rendering:auto;image-rendering:auto;shape-rendering:auto;text-rendering:auto;enable-background:accumulate" inkscape:connector-curvature="0"/>
              <path id="rect4534-7-4-8-2-8" d="m 3577.8047,2554.4883 c -11.6662,16.3597 -18.5195,36.4109 -18.5195,58.123 0,21.7121 6.8533,41.7633 18.5195,58.1231 l 81.4805,-37.5723 81.4804,37.5723 c 11.6663,-16.3598 18.5196,-36.411 18.5196,-58.1231 0,-21.7121 -6.8533,-41.7633 -18.5196,-58.123 l -81.4804,37.5722 -81.4805,-37.5722 z" style="color:#000000;clip-rule:nonzero;display:inline;overflow:visible;visibility:visible;opacity:1;isolation:auto;mix-blend-mode:normal;color-interpolation:sRGB;color-interpolation-filters:linearRGB;solid-color:#000000;solid-opacity:1;fill:#000000;fill-opacity:1;fill-rule:nonzero;stroke:none;stroke-width:20;stroke-linecap:round;stroke-linejoin:round;stroke-miterlimit:4;stroke-dasharray:none;stroke-dashoffset:0;stroke-opacity:1;marker:none;color-rendering:auto;image-rendering:auto;shape-rendering:auto;text-rendering:auto;enable-background:accumulate" inkscape:connector-curvature="0"/>
              <path id="rect4534-7-2-7-3-6-5-0" d="m 3659.2852,2532.6118 c 44.32,0 80,35.68 80,80 0,44.32 -35.68,80 -80,80 -44.32,0 -80,-35.68 -80,-80 0,-44.32 35.68,-80 80,-80 z" style="color:#000000;clip-rule:nonzero;display:inline;overflow:visible;visibility:visible;opacity:1;isolation:auto;mix-blend-mode:normal;color-interpolation:sRGB;color-interpolation-filters:linearRGB;solid-color:#000000;solid-opacity:1;fill:#ffffff;fill-opacity:1;fill-rule:nonzero;stroke:none;stroke-width:20;stroke-linecap:round;stroke-linejoin:round;stroke-miterlimit:4;stroke-dasharray:none;stroke-dashoffset:0;stroke-opacity:1;marker:none;color-rendering:auto;image-rendering:auto;shape-rendering:auto;text-rendering:auto;enable-background:accumulate" inkscape:connector-curvature="0"/>
              <path id="rect4534-7-2-7-6-8-4" d="m 3615.2754,2571.7676 c -9.9269,10.6962 -15.9902,25.0325 -15.9902,40.8437 0,15.8109 6.0638,30.1476 15.9902,40.8438 l 44.0098,-20.293 44.0097,20.293 c 9.9264,-10.6962 15.9903,-25.0329 15.9903,-40.8438 0,-15.8112 -6.0634,-30.1475 -15.9903,-40.8437 l -44.0097,20.2929 -44.0098,-20.2929 z" style="color:#000000;clip-rule:nonzero;display:inline;overflow:visible;visibility:visible;opacity:1;isolation:auto;mix-blend-mode:normal;color-interpolation:sRGB;color-interpolation-filters:linearRGB;solid-color:#000000;solid-opacity:1;fill:#000000;fill-opacity:1;fill-rule:nonzero;stroke:none;stroke-width:20;stroke-linecap:round;stroke-linejoin:round;stroke-miterlimit:4;stroke-dasharray:none;stroke-dashoffset:0;stroke-opacity:1;marker:none;color-rendering:auto;image-rendering:auto;shape-rendering:auto;text-rendering:auto;enable-background:accumulate" inkscape:connector-curvature="0"/>
              <path id="rect4534-7-2-6-15-7-6-5-6" d="m 3659.2852,2572.6118 c 22.16,0 40,17.84 40,40 0,22.16 -17.84,40 -40,40 -22.16,0 -40,-17.84 -40,-40 0,-22.16 17.84,-40 40,-40 z" style="color:#000000;clip-rule:nonzero;display:inline;overflow:visible;visibility:visible;opacity:1;isolation:auto;mix-blend-mode:normal;color-interpolation:sRGB;color-interpolation-filters:linearRGB;solid-color:#000000;solid-opacity:1;fill:#ffffff;fill-opacity:1;fill-rule:nonzero;stroke:none;stroke-width:20;stroke-linecap:round;stroke-linejoin:round;stroke-miterlimit:4;stroke-dasharray:none;stroke-dashoffset:0;stroke-opacity:1;marker:none;color-rendering:auto;image-rendering:auto;shape-rendering:auto;text-rendering:auto;enable-background:accumulate" inkscape:connector-curvature="0"/>
              <path id="rect4534-7-2-6-15-4-9-6" d="m 3659.2852,2602.6118 c 5.54,0 10,4.46 10,10 0,5.54 -4.46,10 -10,10 -5.54,0 -10,-4.46 -10,-10 0,-5.54 4.46,-10 10,-10 z" style="color:#000000;clip-rule:nonzero;display:inline;overflow:visible;visibility:visible;opacity:1;isolation:auto;mix-blend-mode:normal;color-interpolation:sRGB;color-interpolation-filters:linearRGB;solid-color:#000000;solid-opacity:1;fill:#000000;fill-opacity:1;fill-rule:nonzero;stroke:#000000;stroke-width:32.80754852;stroke-linecap:round;stroke-linejoin:round;stroke-miterlimit:4;stroke-dasharray:none;stroke-dashoffset:0;stroke-opacity:1;marker:none;color-rendering:auto;image-rendering:auto;shape-rendering:auto;text-rendering:auto;enable-background:accumulate" inkscape:connector-curvature="0"/>
              <path id="rect4534-7-2-6-15-5-0-1-2" d="m 3659.2852,2602.6118 c 5.54,0 10,4.46 10,10 0,5.54 -4.46,10 -10,10 -5.54,0 -10,-4.46 -10,-10 0,-5.54 4.46,-10 10,-10 z" style="color:#000000;clip-rule:nonzero;display:inline;overflow:visible;visibility:visible;opacity:1;isolation:auto;mix-blend-mode:normal;color-interpolation:sRGB;color-interpolation-filters:linearRGB;solid-color:#000000;solid-opacity:1;fill:#000000;fill-opacity:1;fill-rule:nonzero;stroke:#000000;stroke-width:32.80754852;stroke-linecap:round;stroke-linejoin:round;stroke-miterlimit:4;stroke-dasharray:none;stroke-dashoffset:0;stroke-opacity:1;marker:none;color-rendering:auto;image-rendering:auto;shape-rendering:auto;text-rendering:auto;enable-background:accumulate" inkscape:connector-curvature="0"/>
              <path id="rect4534-7-2-6-15-1-7-5-3" d="m 3659.2852,2602.6118 c 5.54,0 10,4.46 10,10 0,5.54 -4.46,10 -10,10 -5.54,0 -10,-4.46 -10,-10 0,-5.54 4.46,-10 10,-10 z" style="color:#000000;clip-rule:nonzero;display:inline;overflow:visible;visibility:visible;opacity:1;isolation:auto;mix-blend-mode:normal;color-interpolation:sRGB;color-interpolation-filters:linearRGB;solid-color:#000000;solid-opacity:1;fill:#000000;fill-opacity:1;fill-rule:nonzero;stroke:#000000;stroke-width:32.80754852;stroke-linecap:round;stroke-linejoin:round;stroke-miterlimit:4;stroke-dasharray:none;stroke-dashoffset:0;stroke-opacity:1;marker:none;color-rendering:auto;image-rendering:auto;shape-rendering:auto;text-rendering:auto;enable-background:accumulate" inkscape:connector-curvature="0"/>
            </g>
            <path style="fill:none;fill-rule:evenodd;stroke:#000000;stroke-width:21.9294796;stroke-linecap:round;stroke-linejoin:round;stroke-miterlimit:4;stroke-dasharray:none;stroke-opacity:1" d="m -4244.6841,215.55471 0,166.76471" id="path4865-0-6-2" inkscape:connector-curvature="0"/>
          </g>
        </g>
      </g>
    </g>
  </g>
</svg>