<?xml version="1.0" encoding="UTF-8"?>
<svg xmlns:rdf="http://www.w3.org/1999/02/22-rdf-syntax-ns#" xmlns="http://www.w3.org/2000/svg" xmlns:cc="http://creativecommons.org/ns#" xmlns:dc="http://purl.org/dc/elements/1.1/" xmlns:svg="http://www.w3.org/2000/svg" xmlns:inkscape="http://www.inkscape.org/namespaces/inkscape" xmlns:sodipodi="http://sodipodi.sourceforge.net/DTD/sodipodi-0.dtd" xmlns:ns1="http://sozi.baierouge.fr" xmlns:xlink="http://www.w3.org/1999/xlink" id="svg4032" viewBox="0 0 427.12 392.29" version="1.1">
  <g id="layer1" transform="translate(741.2 -632.05)">
    <path id="path4051" d="m-458.1 1023.4c-1.3097-1.9988-1.4763-5.5844-0.30466-6.5567 0.28576-0.2372 0.51957-0.7538 0.51957-1.1481s0.41804-1.1043 0.92898-1.5778c1.204-1.1158 2.0621-3.5793 1.803-5.176-0.16684-1.0282-0.003-1.4912 0.89685-2.5267 1.1966-1.3778 2.3155-4.696 4.0369-11.972 1.0313-4.3588 1.0327-4.3832 0.41222-7.0745-1.0338-4.4837-1.4902-8.1341-1.0696-8.5547 0.21079-0.21079 0.28927-1.2153 0.17872-2.2875-0.12421-1.2047 0.0194-2.6406 0.3884-3.8825 0.4561-1.5353 0.49251-2.1749 0.16477-2.8943-0.34944-0.76694-0.29361-1.0954 0.32951-1.9388 0.50338-0.68129 0.8163-1.8399 0.95107-3.5214 0.16027-1.9996 0.45272-2.8986 1.447-4.4481 0.96697-1.5069 1.2633-2.3902 1.3226-3.9427 0.042-1.1004 0.26864-2.2324 0.5036-2.5155 0.23497-0.28312 0.32096-0.84954 0.19109-1.2587-0.30632-0.96515 0.61901-2.7328 1.8542-3.5422 0.53516-0.35065 0.90147-0.83631 0.81404-1.0792-0.22958-0.63786 0.42287-1.7449 1.0284-1.7449 0.65295 0 2.3189-2.118 4.9446-6.2864 0.56546-0.89768 1.9078-2.7852 2.9829-4.1945s1.9548-2.6662 1.9548-2.7931c0-0.19896 4.4209-7.0646 6.3222-9.8184 0.35621-0.51593 0.77271-1.332 0.92554-1.8136 0.29238-0.92121 2.2127-3.8487 3.2005-4.879 0.31962-0.33338 0.82228-0.94199 1.117-1.3525 0.29475-0.41047 1.8764-1.7705 3.5147-3.0223 3.8946-2.9758 7.7282-6.6712 8.5309-8.2236 0.35224-0.68116 1.2159-1.9924 1.9192-2.9138 2.9288-3.8369 2.1194-4.7976-7.2131-8.5621-1.701-0.68613-3.2928-1.2474-3.5373-1.2474-0.2445 0.00008-1.494-0.53802-2.7766-1.1958-2.6672-1.3678-3.5662-2.7695-4.0092-6.2512-0.1433-1.1263-0.38758-2.2992-0.54283-2.6064-0.15526-0.30718-0.37352-2.7367-0.48503-5.399s-0.37305-5.2832-0.58122-5.8242c-0.49148-1.2775-0.51802-19.944-0.0352-24.775 0.20102-2.0112 0.53105-4.5783 0.73339-5.7047 0.61865-3.4437 1.1742-7.5361 1.289-9.4948 0.06-1.0239 0.30655-2.6157 0.54791-3.5373 0.24136-0.92155 0.38564-2.4533 0.32062-3.4039-0.0801-1.1718 0.0703-1.9512 0.46724-2.4202 0.32199-0.38053 0.77109-1.3621 0.99801-2.1812 0.22691-0.81916 0.68837-2.4947 1.0255-3.7234 0.3371-1.2287 0.75407-2.5692 0.92662-2.9788 0.17255-0.40957 0.41307-1.3201 0.5345-2.0234 0.12142-0.70333 0.46012-1.5433 0.75267-1.8665 0.29256-0.32327 0.7315-1.4234 0.97544-2.4447 0.24393-1.0213 0.75658-2.4662 1.1392-3.2108 0.38263-0.74465 0.69569-1.7392 0.69569-2.2101 0-0.47089 0.34039-1.2185 0.75641-1.6613 0.41603-0.44284 1.029-1.7941 1.3622-3.0028 0.33321-1.2087 0.84701-2.4802 1.1418-2.8257 0.29477-0.34547 0.41962-0.81636 0.27744-1.0464-0.31097-0.50315 0.37283-2.2897 1.5954-4.1684 0.49208-0.75614 0.79225-1.5406 0.66704-1.7432-0.12522-0.20259 0.0853-0.58926 0.46781-0.85926 0.7817-0.55177 1.9234-2.5854 1.9234-3.4261 0-0.30355 0.32111-0.65383 0.71357-0.77839 0.39246-0.12457 0.90207-0.68041 1.1325-1.2352 0.60476-1.4563 2.2644-4.4172 3.8005-6.7801 0.73221-1.1263 1.9466-3.1769 2.6985-4.5567 0.75199-1.3799 2.0304-3.275 2.8409-4.2115 0.81052-0.93647 1.4737-1.8356 1.4737-1.998 0-0.3268-0.0748-0.24054 5.9548-6.8696 4.7668-5.2408 4.911-5.3106 8.0703-3.903 1.2606 0.56163 2.5801 0.80816 4.4059 0.82317 2.8647 0.0235 4.9962-0.7199 12.27-4.2795 2.0381-0.99746 4.2164-1.8136 4.8405-1.8136 0.62412-0.00004 2.449-0.25156 4.0553-0.55893s3.0429-0.48326 3.1924-0.39086 1.5496 0.32663 3.1112 0.52051c2.2951 0.28494 3.2774 0.6275 5.1247 1.7872 1.2569 0.78909 2.6243 1.6269 3.0385 1.8618 1.2128 0.68768 4.5322 3.9156 5.1395 4.9978 1.3199 2.3522 5.6764 8.0228 6.8454 8.9103 0.40459 0.30718 1.7484 1.1102 2.9862 1.7844 1.8023 0.98169 2.6233 1.2113 4.1218 1.1527 1.0292-0.0402 2.218 0.0381 2.6418 0.17416 1.3008 0.41755 2.4663 2.4002 2.7408 4.6623 0.13974 1.1515 0.44156 2.4362 0.67074 2.855 0.81159 1.4831 1.1899 18.338 0.70991 31.632-0.15103 4.1826-1.3574 16.956-2.0748 21.968-0.56798 3.9682-1.8979 9.9998-2.4481 11.103-0.29453 0.59042-0.65 1.685-0.78997 2.4323-0.13993 0.74734-0.47947 1.898-0.75452 2.557-0.27505 0.65899-0.50009 1.6963-0.50009 2.3052 0 0.60886-0.14384 1.1959-0.31966 1.3046-0.17582 0.10866-0.4111 1.1658-0.52281 2.3491-0.13296 1.4085-0.66548 3.0802-1.5421 4.8407-0.73638 1.479-1.339 2.987-1.3391 3.3511-0.0003 1.1014-1.4671 4.6034-2.6044 6.2179-0.5883 0.83519-1.2647 2.2725-1.503 3.1941-0.23838 0.92155-0.60711 1.8874-0.81942 2.1464-0.21231 0.25896-2.2597 4.216-4.5497 8.7935-2.29 4.5774-4.7602 9.1409-5.4892 10.141-0.72905 1.0001-1.7631 2.6886-2.2979 3.7522-0.53483 1.0636-1.1838 2.069-1.4422 2.2341-0.25836 0.1651-1.0089 1.3055-1.6679 2.5342-3.3191 6.1887-2.8748 5.6415-4.794 5.9045-0.96356 0.13207-1.9777 0.42749-2.2536 0.6565-0.36356 0.30173-0.93783 0.30715-2.0855 0.0197-0.87103-0.21819-3.4008-0.58065-5.6218-0.80548-4.5878-0.46442-4.9429-0.34314-5.2752 1.8022-0.11576 0.74739-0.37964 2.3207-0.58636 3.4962-0.20677 1.1755-0.37265 4.5266-0.3687 7.4469 0.007 4.9091-0.0629 5.4543-0.92229 7.2278-0.51127 1.055-1.3407 2.1876-1.8432 2.5168-0.50251 0.32925-1.1771 1.1081-1.4991 1.7308-0.58443 1.1302-0.44961 2.5843 0.2396 2.5843 0.20032 0 0.77548 0.41127 1.2781 0.91394 0.80691 0.8069 0.91221 1.232 0.89914 3.6304-0.016 2.9602-0.72067 7.2318-1.5056 9.1284-0.42849 1.0353-0.40917 1.4424 0.14134 2.9788 0.99833 2.7862 0.83778 8.2716-0.30837 10.534-0.26049 0.51419-1.3418 1.6669-2.4028 2.5616l-1.9292 1.6267 0.25982 2.2789c0.14287 1.2534 0.40016 2.5462 0.57174 2.8729 0.19343 0.3683 0.12034 0.86765-0.19232 1.314-0.27739 0.396-0.70209 1.4691-0.94378 2.3847-0.50087 1.8973-3.2199 7.6927-3.6944 7.8743-0.17284 0.0662-0.82221 1.1317-1.4431 2.368-1.0122 2.0157-2.2624 3.4103-5.4094 6.0345-0.55095 0.4594-1.0017 0.98742-1.0017 1.1733 0 0.29579-2.1269 1.7956-3.1649 2.2318-0.86615 0.36396-6.0478 3.9476-7.0745 4.8927-0.61437 0.56555-2.1224 1.6614-3.3511 2.4352-2.8464 1.7925-4.6824 3.2731-6.6366 5.3514-0.85521 0.9096-2.0637 2.1779-2.6855 2.8185-1.7194 1.7715-3.489 4.6184-3.9183 6.3037-0.8291 3.255-2.298 5.421-3.6763 5.421-1.4759 0-1.2736-2.7585 0.49494-6.7473 0.16204-0.3654 0.0286-0.8425-0.33816-1.2093-0.82667-0.8267-1.6296-0.3415-3.3134 2.0024-1.3876 1.9314-2.3838 2.5366-4.7209 2.868-1.1234 0.1593-1.5575 0-2.7214-1.0264-1.7377-1.5257-2.8299-3.6318-2.8317-5.4604-0.001-1.4362-1.1644-3.8313-1.8603-3.8313-0.21081 0-0.71531-0.5446-1.1211-1.2102-0.89803-1.4728-1.0111-4.9401-0.19892-6.0996 0.29792-0.42536 0.78406-1.4261 1.0803-2.2238 1.6082-4.3307 2.8256-7.3075 3.1508-7.7047 0.49339-0.60242 4.3881-10.221 5.4581-13.48 0.89573-2.728 1.7919-11.073 1.868-17.394 0.0215-1.785 0.13258-3.3389 0.24686-3.4532 0.98696-0.98696 1.6729 6.0847 0.93049 9.5928-0.26321 1.2438-0.25578 1.8975 0.0248 2.178 0.50251 0.50252 1.8566-1.7598 3.2588-5.4446 1.5174-3.9875 2.9114-6.516 3.5923-6.516 0.49992 0 0.38998 1.2471-0.2436 2.7635-0.938 2.245-0.07 2.717 2.0805 1.1314 0.70535-0.52005 2.958-2.5763 5.0059-4.5694s4.4774-4.109 5.399-4.702c0.92155-0.59299 2.2666-1.572 2.989-2.1756 3.7207-3.1088 10.026-3.8942 19.165-2.3872 3.5487 0.58513 5.813 0.80059 6.21 0.59089 1.3991-0.73901 2.7876-8.9041 1.8213-10.71-0.23272-0.43483-1.116-1.144-1.9627-1.576-2.2872-1.1668-10.503-1.749-16.022-1.1353-4.3262 0.48104-5.1434 0.8212-7.5466 3.1408-0.61437 0.593-2.3737 2.1468-3.9096 3.4529s-3.2642 2.9713-3.8406 3.7004l-1.048 1.3256 0.78984 1.278c0.95536 1.5458 0.79866 1.9292-1.8373 4.4948-1.7671 1.72-5.2167 3.8614-6.2497 3.8796-0.25127 0.004-0.72173-0.39621-1.0455-0.8903-0.55539-0.84763-0.52537-1.0106 0.53165-2.8857 0.61615-1.093 1.2357-2.7413 1.3769-3.6628 0.14112-0.92155 0.71967-3.016 1.2857-4.6543 0.56599-1.6383 1.3994-4.2354 1.8521-5.7713 0.45265-1.5359 1.0646-3.5466 1.36-4.4681 1.6563-5.1679 1.9167-6.7022 1.1376-6.7022-0.56596 0-3.249 2.7218-3.249 3.2959 0 0.64119-3.5089 3.7698-3.8478 3.4309-0.75189-0.75189 0.15009-2.8408 2.1007-4.865 6.7435-6.998 10.46-14.936 10.618-22.683 0.0496-2.4175 0.49134-3.0311 1.3251-1.8407 0.66935 0.95563 0.79849 3.353 0.23712 4.402-0.20047 0.37458-0.46029 1.6621-0.57738 2.8612-0.11708 1.1991-0.45098 3.0179-0.74199 4.0418-0.91623 3.2238-2.348 9.9632-2.6085 12.278-0.13771 1.2238-0.5562 2.8156-0.92997 3.5373-0.37378 0.72169-0.88482 2.485-1.1356 3.9186-0.25082 1.4335-1.1011 4.2375-1.8895 6.2311s-1.4335 3.711-1.4335 3.8165c0 1.0174 3.4267-1.489 4.2377-3.0997 0.27429-0.54474 0.60649-2.0679 0.73823-3.3847 0.13173-1.3169 0.73502-3.914 1.3406-5.7713 0.60562-1.8574 1.5405-5.3877 2.0775-7.8452 0.53701-2.4575 1.2072-5.4817 1.4893-6.7205 0.28212-1.2388 0.68538-4.0721 0.89612-6.2963 0.38802-4.0952 0.6622-4.8572 2.3498-6.5312 1.1943-1.1847 4.5647-3.0128 5.1943-2.8174 0.26384 0.0819 0.94121 0.25 1.5052 0.37362 0.75378 0.1652 1.234 0.66813 1.8119 1.8976 0.43244 0.92003 0.9344 1.7643 1.1154 1.8762 0.80779 0.49924 0.24757 2.914-1.4395 6.2046-2.3808 4.6437-3.4151 7.0481-5.4671 12.709-2.1689 5.9836-2.3359 6.7569-1.5266 7.0674 0.9821 0.37686 2.7678-0.75762 2.999-1.9054 0.77645-3.8532 5.2295-14.025 7.5025-17.137 2.799-3.8322 5.7041-5.9684 10.564-7.7681 2.5832-0.95652 3.1647-1.0271 8.3615-1.0151 4.1379 0.01 6.1092 0.17433 7.6075 0.63596 2.6608 0.81975 4.9444 0.78813 6.6704-0.0924 1.0968-0.55955 1.794-1.4133 3.2001-3.9185 0.98876-1.7617 1.9329-3.2867 2.0982-3.3888 0.16521-0.10211 0.68024-0.97776 1.1445-1.9459 0.46424-0.96811 1.0429-2.0115 1.2859-2.3187 0.24299-0.30718 1.0157-1.6476 1.7171-2.9788 0.70138-1.3311 2.4784-4.5512 3.9488-7.1557 1.4705-2.6045 2.6736-4.8789 2.6736-5.0542 0-0.17529 0.67022-1.6139 1.4894-3.1969 0.81916-1.583 1.4894-3.0762 1.4894-3.3182 0-0.24202 0.40935-1.2802 0.90971-2.3071 0.50035-1.0269 1.4416-3.1237 2.0917-4.6596 0.65008-1.5359 1.4753-3.4628 1.8339-4.282 0.35857-0.81916 0.75314-2.1596 0.87687-2.9788 0.12373-0.81915 0.741-3.0811 1.3718-5.0266 0.63075-1.9455 1.3-4.2075 1.4872-5.0266 0.18725-0.81915 0.5889-2.5785 0.89255-3.9096 0.59418-2.6048 1.0173-4.297 2.0946-8.3777 0.37845-1.4335 0.87031-5.2035 1.093-8.3777 0.22274-3.1742 0.59627-6.3578 0.83007-7.0745 0.23379-0.71676 0.45578-2.2248 0.49335-3.3511 0.0376-1.1263 0.26988-4.8067 0.51622-8.1787 0.6755-9.2465-0.26087-29.055-1.5357-32.488-0.56056-1.5091-1.0295-1.7514-4.5932-2.3735-1.7945-0.31322-4.0331-0.96196-4.9747-1.4416-1.9775-1.0075-6.9022-6.3546-8.6237-9.3633-3.286-5.7434-7.9336-8.4549-15.315-8.9347-3.2672-0.21242-7.1017 0.60829-11.285 2.4153-8.8938 3.842-12.649 4.6243-17.132 3.5687-3.7291-0.87819-4.2842-0.60579-7.4727 3.6673-1.4036 1.8811-3.3117 4.2788-4.24 5.3282-0.9284 1.0494-2.0961 2.5574-2.595 3.3511-1.2051 1.9172-6.1454 10.24-8.092 13.632-2.0982 3.6564-6.4532 12.346-6.4532 12.877 0 0.23513-0.57357 1.645-1.2746 3.1332-1.6574 3.5183-3.7323 9.0374-6.2665 16.669-2.6451 7.9651-3.547 11.361-4.5487 17.128-0.26679 1.5359-0.74714 3.8817-1.0674 5.2128-0.76343 3.1726-1.3927 12.615-1.5508 23.271-0.2203 14.848 1.1907 26.06 3.6154 28.727 0.48019 0.52824 1.5747 0.96062 3.2111 1.2685 4.5204 0.85046 8.037 2.2615 9.919 3.98 2.8422 2.5953 3.1834 2.6737 4.9047 1.1275 0.96398-0.86596 1.4433-0.35673 1.0622 1.1285-0.14152 0.55153-0.33487 1.4217-0.42967 1.9336-0.0948 0.51197-0.3299 1.09-0.52244 1.2846-0.19254 0.19455-0.35007 0.65023-0.35007 1.0126 0 0.36239-0.3117 1.2085-0.69267 1.8803-1.6988 2.9957-3.0953 5.2488-3.5109 5.6646-0.24792 0.24807-0.85393 1.0396-1.3467 1.759-0.49276 0.71936-1.7494 1.7832-2.7926 2.3642-4.5736 2.5471-10.715 8.8668-12.298 12.656-0.33631 0.8049-0.8392 1.7209-1.1175 2.0356-0.27832 0.31468-1.1226 1.745-1.8763 3.1786-0.75362 1.4335-1.6653 2.9415-2.026 3.3511-0.78831 0.89516-2.6106 3.6831-3.3783 5.1683-0.3049 0.5899-1.1557 1.7628-1.8906 2.6064-1.6431 1.8861-6.2692 7.8698-7.1488 9.2469-0.35514 0.55597-0.64571 1.21-0.64571 1.4534 0 0.24343-0.40153 1.2965-0.89229 2.3402s-1.0818 3.1319-1.3133 4.6405c-0.23156 1.5086-0.58403 3.0474-0.78326 3.4197-0.19923 0.37227-0.36224 1.0857-0.36224 1.5854 0 0.49969-0.26406 1.6417-0.58681 2.5378-0.32274 0.8961-0.72478 2.8022-0.89342 4.2357-0.16863 1.4335-0.51006 3.7756-0.75872 5.2046-0.67511 3.8797-0.3396 13.773 0.52247 15.407 0.78812 1.4934 0.67098 4.8858-0.25898 7.5004-0.32778 0.92155-0.7931 2.4295-1.034 3.3511-0.24093 0.92154-0.65388 2.3457-0.91765 3.1649-0.26377 0.8191-0.75932 2.746-1.1012 4.2819-0.74561 3.3494-1.3767 5.3256-2.2594 7.0749-1.1266 2.2326-1.2761 2.5841-1.2761 2.9992 0 0.2218-0.52945 1.6751-1.1766 3.2296-1.7324 4.1613-3.02 5.153-4.2512 3.274zm37.244-15.961c0.52239-0.6849 0.94981-1.4269 0.94981-1.649 0-0.7132 1.1425-1.5739 2.0893-1.5739 1.104 0 3.4384-1.1407 4.3126-2.1074 0.3468-0.3835 0.81482-1.8674 1.04-3.2976 0.22522-1.4302 0.55942-3.103 0.74267-3.7174 0.18325-0.61437 0.51499-2.3737 0.7372-3.9096 0.53292-3.6834 1.3842-8.3858 1.8536-10.239 0.20745-0.81916 0.38118-2.0859 0.38606-2.815 0.0116-1.7276 1.6705-3.4676 3.8267-4.0137 0.86965-0.22024 2.3352-0.88547 3.2567-1.4783 1.9362-1.2455 5.2744-4.5756 6.3348-6.3192 0.88007-1.4472 1.2128-1.486 2.1153-0.24694 0.78173 1.0731 2.6626 1.6326 5.5347 1.6461 1.0923 0.005 2.1873 0.24353 2.6064 0.5674 0.71546 0.55287 0.71546 0.56416 0 1.117-0.39755 0.30718-0.95812 0.55851-1.2458 0.55851-0.28767 0-1.0138 0.28995-1.6137 0.64431-0.80073 0.47298-1.151 1.0211-1.3173 2.0614-0.13397 0.8377-0.51391 1.5709-0.92925 1.7932-1.1368 0.60841-1.5292 0.054-1.2551-1.7736 0.27375-1.8253-0.0411-2.4435-1.6751-3.2884-1.2896-0.6669-2.3226-0.37368-3.061 0.86893-1.2264 2.0637-3.8805 4.3746-6.4286 5.5974-1.4314 0.6869-2.844 1.3691-3.139 1.516-0.58756 0.29255-0.85036 1.0353-1.459 4.1234-0.22197 1.1263-0.82843 3.9748-1.3477 6.3298-1.2688 5.7549-2.0522 10.918-1.8019 11.875 0.3056 1.1686 1.341 0.95101 2.5668-0.53934 2.6054-3.1677 10.104-9.3666 16.064-13.281 6.448-4.2339 8.2097-5.7329 9.9762-8.4888 2.2679-3.5382 6.8834-12.094 6.8834-12.76 0-1.6129-1.3769-2.2762-9.1224-4.3947-1.4335-0.39209-3.6566-1.227-4.9403-1.8553-2.588-1.2668-2.7887-1.2491-7.0172 0.621-2.0959 0.9269-2.7925 1.5431-6.4417 5.6982-2.3559 2.6825-2.3823 2.7366-1.9351 3.9732 0.54877 1.5176 0.27515 2.1336-1.7676 3.979-2.1642 1.9552-2.9102 2.2462-5.6145 2.1895-3.9214-0.0822-4.2424 0.2485-6.2934 6.4835-0.33997 1.0336-0.88634 2.2902-1.2141 2.7926-0.32781 0.5024-1.0434 2.2989-1.5902 3.9922-0.54679 1.6933-1.4096 4.018-1.9173 5.166-1.7291 3.9099-0.90738 6.4628 2.0802 6.4628 1.7439 0 2.3985-0.77607 2.3174-2.7476-0.0574-1.3958 0.82591-5.4163 1.8096-8.2365 0.45032-1.2911 0.91687-3.2838 1.4114-6.0284 0.3577-1.985 1.3091-3.8387 1.9701-3.8387 0.21594 0 0.26296 0.35268 0.11169 0.83777-1.4604 4.6828-2.9885 11.977-3.7307 17.808-0.44134 3.467-4.9967 6.3635-7.1874 4.5701-0.60303-0.4937-0.9465-1.3477-1.2121-3.0136-0.35443-2.2232-0.31511-2.4507 0.90055-5.2128 1.7928-4.0734 3.44-8.2975 4.756-12.197 0.62206-1.8431 1.3498-3.77 1.6173-4.282 0.26744-0.51197 0.70071-1.6848 0.96282-2.6064 0.2621-0.92155 1.117-3.2926 1.8999-5.2689 0.78282-1.9763 1.4233-4.0998 1.4233-4.7188 0-0.65727 0.38724-1.5857 0.93086-2.2317 1.2312-1.4632 1.2133-2.302-0.0491-2.302-1.793 0-3.4204 1.3584-4.0113 3.3481-0.29501 0.9934-0.74563 2.1964-1.0014 2.6732-0.50533 0.94223-2.2317 5.5719-3.3281 8.9254-0.3778 1.1555-1.3674 3.5199-2.1991 5.2542-0.8317 1.7344-1.5122 3.3383-1.5122 3.5644 0 0.62844-1.0496 3.6297-2.4968 7.1392-2.741 6.6471-2.731 6.6157-2.3768 7.5158 0.18655 0.47403 0.94405 1.4234 1.6833 2.1097 1.283 1.191 1.3333 1.3298 1.1048 3.052-0.46343 3.4935 0.42127 4.8226 3.2101 4.8226 1.622 0 1.9177-0.1331 2.766-1.2452zm10.632-38.045c1.1259-1.1705 2.5498-2.5691 3.1641-3.1081 1.7247-1.5131 4.3988-4.2097 5.4143-5.46 1.0127-1.2468 4.3298-3.5147 6.2366-4.2639 1.4105-0.55422 4.4827-0.33645 7.3423 0.52046 5.1794 1.552 7.2337 2.0748 8.9325 2.2731l1.8617 0.21737 2.6716-2.5325 2.6716-2.5325 0.57062-3.9096c0.73899-5.0636 0.57628-5.3363-4.0844-6.8472-1.8254-0.59172-3.7216-1.2619-4.2139-1.4894-0.54228-0.25056-3.3302-0.41351-7.0745-0.41351-5.7341 0-6.3076 0.0631-7.9566 0.87507-0.97739 0.48129-2.4687 1.5396-3.3141 2.3518-0.84535 0.81221-2.1401 1.8865-2.8772 2.3873-0.73713 0.50081-2.3093 1.861-3.4937 3.0228-2.088 2.0479-2.1465 2.1591-1.9226 3.6522 0.19583 1.3059 0.0845 1.714-0.73217 2.6846-1.0039 1.1931-1.1842 1.7873-0.6438 2.1213 0.49894 0.30835 5.8672-2.0518 9.3616-4.1158 1.7407-1.0282 3.6544-1.9918 4.2526-2.1415 0.59821-0.14966 1.5061-0.60125 2.0175-1.0036 0.80173-0.63063 1.319-0.70328 3.7528-0.52711 5.1642 0.3738 10.456 1.0389 10.456 1.3141 0 0.54341-0.99967 1.0782-2.748 1.47-1.4522 0.32544-2.251 0.27881-4.2667-0.24907-3.2683-0.85589-7.9236-0.89066-8.8639-0.0662-0.84158 0.7379-5.6875 3.6763-6.0628 3.6763-0.14816 0-0.6629 0.41889-1.1439 0.93086-0.48097 0.51197-0.9962 0.93086-1.145 0.93086-0.14876 0-1.7077 0.67022-3.4643 1.4894-1.7566 0.81916-3.6882 1.4894-4.2923 1.4894-1.3915 0-2.2687 0.86663-2.2687 2.2414 0 0.58917-0.42705 2.4231-0.94901 4.0754-1.4219 4.5011-0.81272 4.704 2.8115 0.93622zm12.357-39.926c1.045-1.0903 1.6788-2.4061 2.8922-6.0046 2.1545-6.3892 5.3836-14.288 7.021-17.174 0.75522-1.3311 1.4967-2.8391 1.6478-3.3511 0.61299-2.0777-1.545-5.5852-3.4363-5.5852-0.53595 0-1.7258 0.47649-2.6441 1.0589-1.9454 1.2337-2.2892 2.0774-3.1341 7.6912-0.30823 2.0479-0.73038 4.4774-0.93812 5.399-1.4165 6.2838-2.6531 11.548-2.9742 12.66-0.43148 1.4945-1.4692 6.0059-1.4775 6.4229-0.016 0.80975 1.8547 0.12314 3.0434-1.117zm24.708-3.6134c0.50267-0.50266 0.91392-1.16 0.91392-1.4608s0.59579-1.3275 1.324-2.2815c1.7538-2.2976 2.0271-3.1183 2.0271-6.0877 0-1.3772 0.25134-3.4689 0.55852-4.6482 0.30718-1.1794 0.56049-2.6807 0.56295-3.3362 0.004-0.65558 0.25178-2.1135 0.55408-3.2398 0.75504-2.813 0.70418-3.3142-0.37826-3.7257-1.0534-0.4005-5.4004 0.35284-6.2884 1.0898-0.28741 0.23853-0.80351 1.9624-1.1469 3.8309-1.2533 6.8198-3.1831 12.222-5.6423 15.796-1.8934 2.7514-1.6745 3.4359 1.3547 4.2352 3.6267 0.95697 5.0722 0.91669 6.1606-0.17166zm-11.243-1.6946c1.3888-1.6505 6.1018-10.373 6.5371-12.099 0.20665-0.81916 0.63399-2.4056 0.94962-3.5253 1.132-4.0157 0.3818-5.5862-1.6762-3.5087-1.3273 1.3398-5.7606 8.6928-6.3431 10.521-0.23733 0.74468-0.8928 2.1917-1.4566 3.2157-1.4182 2.5755-2.3704 5.2601-2.1081 5.9435 0.14626 0.38121 0.71028 0.57256 1.6876 0.57256 1.1746 0 1.6562-0.22367 2.4097-1.1192zm-139.88 75.292c-0.34546-0.38173-0.62811-0.94486-0.62811-1.2514 0-0.99476-1.6882-2.1971-3.3696-2.3998-2.0701-0.2495-2.0746-0.25308-2.336-1.8642-0.26189-1.6138 0.44365-3.1912 2.0211-4.5185 2.336-1.9657 0.8438-2.1134-2.7832-0.2755-2.1202 1.0743-2.9618 1.2962-4.916 1.2962-1.2968 0-2.7962-0.19972-3.332-0.44383-0.90429-0.412-0.96558-0.59136-0.8553-2.5025 0.15665-2.7147-0.30045-2.7827-4.124-0.61314-1.6457 0.93376-3.2434 1.6978-3.5504 1.6978-0.72849 0-1.2461-1.0075-1.5544-3.0252-0.37389-2.4475-0.67798-2.6569-2.5027-1.7232-0.85475 0.43739-1.9336 1.1934-2.3974 1.68-0.96187 1.0091-2.4319 1.0063-2.6247-0.005-0.16181-0.84898 2.0509-3.4196 4.5658-5.3042 1.0931-0.81916 2.9849-2.4109 4.2041-3.5373 1.2192-1.1263 3.5956-3.0532 5.281-4.282 1.6854-1.2287 4.4338-3.2751 6.1078-4.5475 1.6739-1.2724 3.965-2.9604 5.0913-3.7512 5.296-3.7183 8.1257-5.7713 9.481-6.8787 0.81159-0.66314 2.3711-1.8356 3.4655-2.6054 1.0944-0.76982 3.5642-2.7386 5.4884-4.375 1.9242-1.6363 3.7294-2.9752 4.0115-2.9752 0.28214 0 0.73411 0.41318 1.0044 0.91817 0.62218 1.1626 0.3916 1.4535-2.9046 3.665-1.3854 0.92949-3.8576 2.8469-5.4939 4.2608-1.6363 1.414-3.2623 2.7316-3.6134 2.9281-0.35113 0.1965-1.9201 1.5238-3.4866 2.9496s-4.4574 3.7968-6.4242 5.2689-4.0668 3.0639-4.6668 3.5373c-0.59995 0.47336-1.6277 1.1958-2.2839 1.6054-3.6365 2.2698-5.5556 3.7202-7.3189 5.5315-1.2542 1.2882-1.3049 1.7311-0.19744 1.7235 1.0232-0.007 1.5621-0.3503 1.8729-1.1933 0.12988-0.35228 0.7041-0.74231 1.276-0.86675 1.5432-0.33574 2.4252-0.82775 3.8909-2.1705 1.8332-1.6794 12.007-8.7957 12.575-8.7957 0.16423 0 0.69819-0.30689 1.1866-0.68197 0.48839-0.37509 1.642-1.0839 2.5635-1.5752 0.92155-0.49126 2.262-1.3354 2.9788-1.8758 0.71676-0.54042 2.141-1.4076 3.1649-1.9272 1.0239-0.51954 2.4898-1.374 3.2576-1.8988 1.631-1.115 2.2501-0.98468 3.0129 0.63399 0.82973 1.7607 0.42962 3.0317-1.1865 3.7691-3.0434 1.3885-4.3523 3.5559-2.1474 3.5559 1.6664 0 2.09 0.37075 2.09 1.8292 0 0.88432 0.33313 1.8287 0.93085 2.6389 0.51198 0.69394 0.93086 1.656 0.93086 2.138 0 0.78855-1.5803 2.7025-2.2315 2.7025-0.14355 0-0.60791 0.29322-1.0319 0.6516s-2.0161 1.704-3.538 2.9902c-1.5219 1.2863-3.337 2.6408-4.0334 3.0102-3.3391 1.7708-5.5483 3.2305-5.5483 3.6659 0 0.26403 0.18627 0.48007 0.41393 0.48007 0.40156 0 4.0507-1.8823 5.9229-3.0552 0.50815-0.31835 1.5488-0.67163 2.3126-0.78505 1.1364-0.16882 1.5084-0.0557 2.0479 0.6229 0.36258 0.45601 1.6006 1.2094 2.7511 1.6742 1.3618 0.55014 2.2361 1.1618 2.5053 1.7526 0.41147 0.90304 2.0115 1.289 2.4438 0.58949 0.10811-0.17493 1.7911-1.1042 3.74-2.065 1.9489-0.96087 4.5931-2.3436 5.876-3.0728 1.2829-0.72916 3.0848-1.5549 4.0043-1.835 1.4369-0.43765 1.7473-0.43371 2.2092 0.0283 0.46827 0.46826 0.4562 0.62706-0.0939 1.2349-1.2045 1.331-8.8945 6.2183-12.35 7.8493-1.4332 0.67636-3.3601 1.7805-4.282 2.4537-1.8005 1.3149-8.5985 4.8013-12.846 6.5884-1.4335 0.60309-2.7845 1.176-3.0022 1.2733-0.21771 0.0972-0.67849-0.13554-1.024-0.51726zm-22.783-18.694c0.5886-0.61437 0.85524-1.117 0.59254-1.117-0.69237 0-2.5853 1.181-2.8032 1.7489-0.3523 0.91809 1.1323 0.49373 2.2107-0.6319zm-58.27 15.78c0-0.15422-0.82996-1.1598-1.8444-2.2345-1.0144-1.0748-2.005-2.5362-2.2015-3.2475-0.19642-0.71137-0.93176-2.0097-1.6341-2.8852-0.70233-0.87549-1.836-2.5861-2.5194-3.8013-0.68331-1.2153-1.7989-3.0545-2.4791-4.0873-0.68017-1.0328-1.2367-2.0165-1.2367-2.186 0-0.16949-0.67022-1.2951-1.4894-2.5014-0.81916-1.2062-1.4894-2.4204-1.4894-2.6981 0-0.27769-0.67021-1.5364-1.4894-2.797-0.81916-1.2606-1.4894-2.4929-1.4894-2.7384 0-0.24546-0.39478-0.96477-0.87729-1.5985-0.48251-0.6337-0.98378-1.4873-1.1139-1.8969-0.13016-0.40958-1.242-2.0851-2.4707-3.7234s-2.5897-3.6996-3.0244-4.5805c-0.43472-0.88096-1.1766-1.8548-1.6485-2.164-0.47197-0.30925-1.2077-1.3059-1.6349-2.2148-0.42722-0.90887-0.93915-1.6525-1.1376-1.6525-0.19848 0-0.63989-0.54455-0.9809-1.2101-0.34102-0.66557-0.72644-1.2939-0.85649-1.3963-0.54323-0.42772-3.3831-4.2192-3.3831-4.5168 0-0.17803-0.25047-0.3237-0.55661-0.3237-0.30613 0-0.91189-0.75584-1.3461-1.6796-0.43424-0.9238-1.6203-2.4266-2.6357-3.3395-1.0154-0.91294-2.2732-2.2934-2.795-3.0677-0.52184-0.77432-1.1797-1.5418-1.462-1.7056-0.28223-0.16377-0.51315-0.47142-0.51315-0.68367 0-0.54848-2.3095-2.9282-2.8418-2.9282-0.24414 0-1.7482-1.4175-3.3424-3.1501-1.5941-1.7325-3.3485-3.3365-3.8986-3.5643-1.3685-0.56683-3.0956-2.4287-2.7587-2.9738 1.5528-2.5124 16.227 10.417 23.575 20.773 0.68149 0.96035 1.9382 2.5082 2.7926 3.4396 0.85443 0.93141 2.2237 2.6614 3.0429 3.8444 0.81915 1.183 2.0758 2.9319 2.7926 3.8864 3.3684 4.4858 12.32 18.077 13.544 20.565 0.55426 1.1263 1.4962 2.8857 2.0932 3.9096 0.59699 1.024 1.474 2.6157 1.9488 3.5373 0.47486 0.92155 1.3433 2.1782 1.9299 2.7926 0.58659 0.61436 1.4777 2.0386 1.9802 3.1649 0.50251 1.1263 1.5265 2.7963 2.2756 3.711 0.74905 0.9147 1.642 2.2859 1.9843 3.0471 0.35458 0.78855 1.1155 1.639 1.7686 1.9768 0.63046 0.32602 1.1463 0.68325 1.1463 0.79383 0 0.66821-0.87784 1.6415-1.4805 1.6415-0.39028 0-0.81316 0.16755-0.93973 0.37234-0.2675 0.43281-1.3032 0.50587-1.3032 0.0919zm38.814-11.553c-0.78904-0.60736-0.8254-0.82664-0.59298-3.5761 0.21393-2.5309 0.38985-3.0746 1.2941-3.9996 1.1841-1.2113 1.1206-1.6922-0.48407-3.6674-0.5786-0.71225-1.052-1.5038-1.052-1.7591 0-0.50571-1.8702-1.6002-2.7342-1.6002-0.65433 0-0.98731-0.78908-0.99489-2.3576-0.0128-2.6398-1.4191-2.7216-4.2762-0.2488-2.0544 1.7781-3.4555 2.2418-4.102 1.3577-1.4616-1.9988 1.07-4.5987 11.497-11.807 1.61-1.1131 3.4532-2.4626 4.0958-2.999 0.64265-0.5364 2.3413-1.689 3.7748-2.5615 2.383-1.4502 5.3128-3.5453 5.7713-4.1271 0.10239-0.1299 0.99224-0.93012 1.9774-1.7782 2.1704-1.8684 3.3537-1.9962 4.154-0.44864 0.73427 1.4199 1.0582 1.5923 2.1862 1.1635 1.0673-0.40578 1.7788 0.17301 1.9254 1.5663 0.0481 0.45709 0.10887 0.97951 0.13501 1.1609 0.0261 0.18143 0.81087 0.22525 1.7438 0.0974 1.6676-0.22856 1.7056-0.2102 2.2458 1.0826 0.5553 1.329 0.68444 1.4252 2.4212 1.8023 0.6951 0.15095 1.1286 0.62747 1.5525 1.7066 0.32347 0.82348 0.82013 1.4972 1.1037 1.4972s1.3082-0.50266 2.277-1.117c0.96876-0.61437 1.9052-1.117 2.081-1.117 0.47009 0 0.77162 0.99432 0.77141 2.5438-0.00021 1.585-0.41204 1.9813-8.5637 8.2409-2.7646 2.123-5.3618 4.2318-5.7713 4.6862-1.1752 1.304-5.1198 4.6642-7.6274 6.4974-1.2606 0.92155-3.5636 2.8065-5.1178 4.1889-1.5542 1.3823-3.0244 2.5133-3.2672 2.5133s-0.76064 0.35964-1.1508 0.7992c-0.94846 1.0687-3.5115 2.9263-4.0232 2.916-0.22526-0.004-0.78782-0.29948-1.2501-0.65533zm29.604-25.121c-0.1757-0.52712-0.77447-0.46917-0.96189 0.0931-0.0683 0.20479 0.15515 0.37235 0.49646 0.37235 0.34132 0 0.55076-0.20945 0.46543-0.46543zm-73.109 13.308c-0.60796-0.92788-0.60783-1.0885 0.003-3.0246 1.0644-3.3768 3.0497-7.2728 4.9468-9.7079 0.98392-1.2629 2.7105-3.6036 3.8368-5.2016 1.1263-1.5979 3.5694-4.4991 5.4291-6.4471s4.3357-4.6804 5.5022-6.072 3.3312-3.5562 4.8103-4.8103c3.1998-2.7127 5.6839-5.2117 8.4412-8.4915 1.1156-1.327 3.0752-3.5019 4.3547-4.833 2.8198-2.9337 4.8984-5.6387 8.2972-10.798 1.4166-2.1503 3.0435-4.4764 3.6153-5.1691 0.96982-1.175 3.8587-5.8639 3.8587-6.2632 0-0.0986 0.59071-0.95973 1.3127-1.9135 0.72198-0.95379 2.3029-3.0746 3.5131-4.7129s2.7785-3.6072 3.4851-4.3752c0.70658-0.76805 1.5372-1.7819 1.8459-2.253 0.52588-0.80259 5.856-4.7283 6.4198-4.7283 0.14185 0 0.88562-0.49716 1.6528-1.1048 4.4863-3.5532 9.0392-4.4524 22.484-4.4405 5.3836 0.005 10.196-0.091 10.694-0.21282 0.4983-0.12179 2.414-0.46606 4.2571-0.76505 5.8376-0.94696 6.64-1.1455 9.5118-2.354 1.9754-0.83125 3.3169-1.7064 4.5181-2.9478 3.215-3.3224 3.1642-7.2725-0.14992-11.651-2.363-3.122-3.2682-5.0815-3.2682-7.0746 0-1.5229 0.23731-2.085 1.7036-4.0357 0.937-1.2465 1.8586-2.3621 2.0479-2.4791 0.18933-0.11701 0.34425-0.5559 0.34425-0.97531 0-0.58234-0.15399-0.69782-0.65161-0.48865-1.5414 0.64789-2.2993 0.57739-3.7694-0.35066-1.7857-1.1273-1.9958-2.2506-0.79039-4.2276 1.4522-2.3819 0.66897-2.9233-2.2879-1.5816-2.3588 1.0703-4.1755 0.98955-5.1334-0.2282-0.42444-0.53959-0.77171-1.3156-0.77171-1.7246 0-0.65357 0.18174-0.71912 1.5026-0.54196 1.8436 0.24727 3.7516-0.24145 4.3763-1.1209 0.25709-0.36195 1.1033-1.5796 1.8804-2.706 0.95927-1.3903 2.0508-2.4066 3.3995-3.1649 2.6196-1.473 2.9444-2.0269 1.9905-3.3952-1.8301-2.6252-2.1834-6.8325-0.7669-9.1322 0.78096-1.2679 3.999-4.042 4.6889-4.042 0.17011 0 0.84024-0.58347 1.4892-1.2966 0.64893-0.71313 1.6071-1.5765 2.1292-1.9186 1.9253-1.2615 3.3474-5.1302 2.6911-7.3207-0.44313-1.479-3.897-5.4748-4.7322-5.4748-0.24045 0-1.7032-0.85433-3.2506-1.8985-2.7101-1.8287-3.7805-2.8532-11.376-10.888-4.1831-4.4249-4.9697-4.8982-7.5327-4.5326-1.0385 0.14815-2.5864 0.29361-3.4397 0.32324-0.8533 0.0296-1.6161 0.13766-1.6952 0.24006-0.079 0.10239-0.43195 0.64694-0.78427 1.2101-0.88103 1.4083-1.9828 1.3218-2.7147-0.21304-0.84844-1.7792-1.7344-2.178-5.5218-2.4854-1.9093-0.15501-3.8554-0.53648-4.4881-0.87973-0.61437-0.33333-1.3684-0.61241-1.6756-0.62019-0.30718-0.008-0.85017-0.23558-1.2066-0.50624-0.61133-0.46416-0.6059-0.53032 0.0956-1.1652 0.86806-0.78558 4.0655-0.88971 6.5732-0.21406 0.85394 0.23007 2.8646 0.48462 4.4681 0.56567 1.6035 0.081 3.2905 0.26476 3.7488 0.40827 1.5625 0.48928 1.4151-0.77974-0.27764-2.39-0.85746-0.81569-1.4529-1.6547-1.3232-1.8646 0.12968-0.20983 0.3946-2.2728 0.58872-4.5844 0.55019-6.5519 0.74794-7.6392 1.5565-8.558 0.41508-0.47169 1.1793-1.4085 1.6983-2.0818 0.6295-0.81672 1.2042-1.1885 1.7264-1.117 0.55722 0.0763 0.8153-0.12038 0.8955-0.68242 0.0781-0.54748-0.56055-1.4798-2.0828-3.0403-1.8911-1.9387-2.4417-2.2876-3.9715-2.517-0.97682-0.14648-2.7967-0.15965-4.0441-0.0293-2.8455 0.29742-4.2704 1.2487-8.038 5.3664-2.8437 3.108-5.606 4.8714-9.3435 5.9648-3.5278 1.0321-3.8196 0.97774-5.3208-0.99069-2.0804-2.7279-1.6858-3.6594 0.67277-1.5885 0.90125 0.79131 1.4804 1.0231 2.2084 0.88396 1.7885-0.34189 2.6958-1.5713 6.2354-8.4494 0.74988-1.4571 5.0228-4.9179 6.5118-5.274 0.57692-0.13799 1.2434-0.40342 1.4811-0.58985 0.77411-0.60719 7.0902-0.80063 9.493-0.29072 2.6879 0.57041 3.132 0.22522 2.377-1.8478-0.26626-0.73118-0.66968-1.9996-0.89648-2.8188-0.22681-0.81915-0.65058-2.3271-0.94173-3.3511-0.60279-2.12-1.6376-7.207-2.083-10.239-0.16543-1.1263-0.98782-3.7628-1.8275-5.8587-0.83973-2.096-1.5268-3.9404-1.5268-4.0987 0-0.15835-0.41199-1.0618-0.91553-2.0077-0.50353-0.94589-1.2055-2.4526-1.56-3.3481-1.8523-4.6799-9.1344-12.997-13.337-15.232-3.6422-1.9374-3.9513-2.8803-1.7379-5.3008 2.0693-2.2628 2.843-3.9458 2.6991-5.8717-0.0236-0.31577-0.80578-1.4049-1.7382-2.4202-1.7795-1.9377-2.9298-3.9276-3.3338-5.7671-0.13246-0.60309-0.65033-1.4186-1.1508-1.8123-0.50049-0.39369-1.0858-1.2201-1.3006-1.8364-0.21485-0.61634-0.60088-1.2013-0.85784-1.2999-0.70402-0.27016-6.2711 3.3232-6.8447 4.4181-0.78868 1.5053-0.43638 2.8257 1.0138 3.7998 0.70558 0.47395 1.4857 0.78388 1.7336 0.68874 0.78044-0.29948 1.6378 1.0706 1.6378 2.6173 0 0.81327 0.19603 1.6747 0.43563 1.9143 0.33261 0.33261 0.31702 0.8125-0.0659 2.0293-0.68855 2.1878-0.73573 2.2486-1.349 1.7396-0.43877-0.36415-0.7713-0.2251-1.7651 0.73812l-1.2245 1.1868-2.5768-0.80212c-1.4172-0.44117-2.9298-0.93447-3.3611-1.0962-1.1065-0.4149-1.9052-3.2494-1.9725-7.0008-0.0458-2.5515 0.0813-3.3265 0.71304-4.3487 0.89878-1.4542 1.2627-1.6317 2.8494-1.3894 1.0414 0.15901 1.2865 0.013 2.1144-1.2599 0.51501-0.79189 2.2224-2.6965 3.7943-4.2324s3.1756-3.4142 3.5639-4.174c0.90456-1.7701 0.89581-4.0858-0.0266-7.0497-0.82738-2.6584-0.51805-3.5968 0.76326-2.3155 1.4009 1.4009 1.6714 3.2761 1.3353 9.2572-0.0536 0.95356 0.0704 1.117 0.84722 1.117 1.2855 0 2.225-1.7999 2.5051-4.7992 0.12643-1.3538 0.29531-2.4615 0.37529-2.4615 0.08 0 0.54874 0.26426 1.0417 0.58724 0.49293 0.32298 1.2783 0.53242 1.7452 0.46543 1.2091-0.17349 1.7128-2.7605 0.87942-4.5168-1.4499-3.0553-9.0463-9.9402-10.968-9.9402-1.1207 0-0.94688 0.96475 0.34598 1.9206 1.3939 1.0305 1.3992 1.4535 0.0281 2.2335-0.60745 0.34557-1.1386 0.99831-1.2078 1.4844-0.0944 0.66277-0.43116 0.92256-1.4267 1.1006-1.8688 0.33415-3.0702 0.89845-3.8129 1.7909-1.299 1.5611-2.6152 0.85143-4.0018-2.1578-0.85647-1.8588-3.0989-4.52-5.1474-6.109-0.60074-0.46597-0.82581-0.97238-0.74469-1.6756 0.10043-0.87055 0.30635-1.0235 1.5125-1.1233 1.1686-0.0967 1.3963-0.25312 1.3963-0.95903 0-1.1432-3.0396-3.5797-4.4657-3.5797-0.24267 0-2.1437-0.81393-4.2245-1.8087-3.5137-1.6799-4.7876-2.0397-10.672-3.0144-2.6423-0.43768-11.211-0.24524-13.497 0.30313-0.97275 0.23331-2.5645 0.61507-3.5373 0.84836-0.97275 0.23328-2.5226 0.54232-3.4442 0.68675-3.2501 0.50938-7.9262 3.0515-8.4085 4.5712-0.24814 0.78182 0.49134 2.8818 1.0148 2.8818 0.18433 0 0.51916 0.40384 0.74405 0.89742 0.32332 0.70961 0.28268 1.0776-0.19416 1.7584-0.60879 0.86917-0.79343 2.7446-0.37704 3.8297 0.3746 0.97618 1.495 0.67151 3.3113-0.90041 1.8852-1.6316 2.0614-1.6992 2.7181-1.0426 0.66281 0.66281 0.5416 2.467-0.24129 3.5915-0.78639 1.1295-1.6761 4.3862-1.3448 4.9223 0.12184 0.19716 1.2574-0.7175 2.5235-2.0326 2.3823-2.4745 3.6747-3.3068 5.7461-3.7006 2.3347-0.44381 0.87079 1.5543-2.2431 3.0617-1.9608 0.94918-2.6214 1.6425-3.1963 3.3543-1.0614 3.1604-0.15945 5.9613 2.4471 7.5992 1.9537 1.2276 3.2053 1.3851 6.4364 0.80953 3.3856-0.60305 5.4276-1.4237 5.9441-2.3886 1.2815-2.3944-1.0885-4.2154-3.8492-2.9575-0.76857 0.35018-1.1066 0.28503-2.0662-0.39824-4.285-3.0512 0.11768-6.1888 5.735-4.0871 2.7172 1.0166 4.4627 2.971 4.0944 4.5844-0.14537 0.63678-0.24937 2.0374-0.23112 3.1126 0.0358 2.1049 0.002 2.1526-1.0956 1.5651-0.58433-0.31272-1.0393-0.1769-2.3027 0.68736-5.5809 3.8179-5.7425 3.8972-8.4462 4.1451-3.1734 0.29087-3.9605 0.86308-2.6547 1.9299 0.50194 0.41006 1.1599 0.63359 1.4894 0.50601 2.2254-0.86164 2.5684-0.72779 3.4916 1.3624 1.424 3.224 1.4748 3.7739 0.47396 5.1305-1.4908 2.0206-2.0093 2.2423-5.2746 2.2551-3.1825 0.0125-4.2943-0.24478-7.5746-1.7528l-2.027-0.93184-8.9572 0.64122c-8.7546 0.62672-20.506 2.2528-24.223 3.3519-1.0239 0.30273-3.621 0.70669-5.7713 0.89769-4.1768 0.371-7.9697 1.0312-9.0243 1.5707-0.3556 0.18192-0.90823 0.33078-1.2281 0.33078-0.50279 0-7.4794 3.3407-10.785 5.1644-2.7786 1.5329-6.0858 3.6412-7.4852 4.7717-0.84023 0.67879-1.6182 1.2342-1.7287 1.2342-0.11052 0-1.5175 0.91898-3.1266 2.0422s-3.5417 2.458-4.2946 2.9662c-2.0757 1.401-7.142 7.6518-8.9982 11.102-1.6916 3.144-3.0891 6.8611-2.7189 7.2314 0.35533 0.35532 3.578-2.7201 5.0454-4.8148 0.76837-1.0969 1.8564-2.8382 2.4177-3.8697 1.138-2.0909 6.8392-8.1426 9.0401-9.5959 0.78289-0.51694 2.0936-1.4423 2.9128-2.0563 2.0367-1.5267 4.282-2.7249 4.282-2.2851 0 0.38925-0.62252 0.87194-3.5352 2.7411-2.5582 1.6417-7.8536 6.9478-10.295 10.316-2.7536 3.7986-4.3889 7.5988-3.9655 9.2155 0.22229 0.84888 0.53603 1.2101 1.0509 1.2101 0.40373 0 0.73404-0.16755 0.73404-0.37234s0.25133-0.37235 0.55851-0.37235c0.74402 0 0.70418 0.45737-0.13352 1.5322-1.7288 2.2182-3.1617 6.0925-2.6246 7.096 0.52135 0.97419 0.97863 0.84427 1.659-0.47134 0.74707-1.4447 1.1383-1.1474 0.58365 0.4435-0.22847 0.65538-0.41539 1.6287-0.41539 2.163 0 0.53424-0.41888 1.7582-0.93085 2.72-0.51198 0.96173-0.93086 2.0222-0.93086 2.3566 0 0.33438-0.64449 2.4784-1.4322 4.7644-1.4126 4.0998-1.5419 5.0873-0.66604 5.0873 0.59001 0 2.4899-3.8361 3.9647-8.0054 0.65198-1.8431 1.3984-3.77 1.6587-4.282 0.26031-0.51197 0.75113-1.7839 1.0908-2.8265 0.57158-1.7548 1.9484-3.7654 2.3223-3.3914 0.1852 0.18518-0.82619 3.4786-1.3648 4.4442-0.87798 1.5741 0.35395 1.3965 1.2721-0.18347 1.0769-1.8531 1.1058-0.68734 0.0551 2.2252-1.1015 3.0537-1.183 3.931-0.34952 3.7619 0.35019-0.071 1.1204-1.4182 1.8781-3.2853 0.70649-1.7407 1.4494-3.5652 1.6509-4.0543 0.65432-1.5885 0.74819-0.58015 0.17311 1.8595-0.70087 2.9732-0.70373 3.3118-0.0279 3.3118 0.32137 0 0.71129-0.62064 0.95238-1.516 0.41665-1.5475 3.4098-7.6351 4.0869-8.3122 0.53149-0.5315 0.48383 0.36889-0.0732 1.3818-0.24597 0.44731-0.50129 1.1396-0.56742 1.5385-0.0661 0.39885-0.33742 0.9853-0.60297 1.3032-0.83457 0.99912-1.3925 3.4426-0.91697 4.0156 0.54768 0.65992 0.97498 0.21631 1.962-2.037 1.1371-2.5957 2.4632-5.0331 2.6414-4.8549 0.0854 0.0854-0.14633 1.2427-0.51492 2.5719-0.36858 1.3292-0.60371 2.616-0.52251 2.8596 0.36836 1.1051 1.2981 0.1932 2.8702-2.8151 0.93644-1.7919 2.1164-3.7607 2.6221-4.375 0.84174-1.0226 0.91961-1.0495 0.92131-0.31835 0.001 0.43928-0.65636 2.1084-1.4608 3.7091-0.80447 1.6007-1.381 3.0425-1.2812 3.204 0.41512 0.67169 0.93209 0.17352 1.9855-1.9133 0.61273-1.2138 1.3041-2.3244 1.5363-2.4679 0.23224-0.14353 0.80915-1.1358 1.282-2.2051 0.47288-1.0693 1.0855-2.1788 1.3613-2.4657 0.27586-0.28684 0.70891-0.94041 0.96233-1.4524l0.46077-0.93086-0.24205 0.93086c-0.2568 0.98759-1.1098 2.8391-2.573 5.5852-0.49105 0.92155-1.2348 2.7911-1.6528 4.1546-0.41799 1.3635-1.3439 3.7604-2.0576 5.3265-0.71371 1.5661-1.2976 3.0106-1.2976 3.2098 0 0.19927-0.6125 1.653-1.3611 3.2306-2.0693 4.3606-4.5899 11.91-4.847 14.518-0.1575 1.5971-0.38779 2.3272-0.73415 2.3272-0.63153 0-0.67584-2.5163-0.0922-5.2376 0.53011-2.4718 0.16033-3.2569-2.0819-4.42-2.0216-1.0486-2.8675-0.79621-3.1747 0.94735-0.23882 1.3553-0.77417 1.3756-1.4079 0.0533-0.80642-1.6826-1.5754-1.1824-2.2898 1.4894-0.46275 1.7308-0.60823 1.8196-1.6671 1.0184-0.90774-0.68684-1.7061-0.1132-1.7061 1.2259 0 0.91342-0.0231 0.92225-0.73083 0.28159-0.73624-0.6663-1.8756-0.56067-1.8756 0.1739 0 0.21779-0.25517 1.0067-0.56708 1.7532-0.42001 1.0053-0.67566 1.2486-0.98589 0.93831-0.31028-0.31025-0.25975-1.0756 0.19477-2.9516 0.46167-1.9054 0.53603-3.086 0.30022-4.7668l-0.31344-2.2341-0.93451 2.0479c-0.51402 1.1263-1.0397 2.8416-1.1683 3.8117-0.12853 0.97011-0.73985 2.7666-1.3585 3.9921s-1.1248 2.5868-1.1248 3.025c0 0.70544-0.146 0.76935-1.2742 0.55771-0.71933-0.13495-1.3742-0.0772-1.5038 0.13253-0.1263 0.20437-0.69331 0.27885-1.26 0.1655-0.65853-0.1317-1.1917-0.0117-1.4775 0.3327-1.5498 1.8674-1.1332 15.525 0.62729 20.563 0.21469 0.61437 0.72015 3.0439 1.1232 5.399 1.2634 7.3816 1.7068 8.7325 3.4519 10.519 2.0365 2.0843 2.4775 0.94195 1.225-3.1729-2.891-9.4977-3.5718-12.207-4.2496-16.912-0.47128-3.271-0.48207-4.9713-0.0361-5.6761 0.60674-0.95884 1.486 0.22111 1.4639 1.9646-0.0313 2.49 1.2004 9.6142 2.135 12.347 0.28015 0.81916 0.66713 2.5193 0.85993 3.7781 0.4248 2.7733 1.751 5.9864 2.675 6.4809 0.94337 0.50488 1.5603-0.68167 1.1042-2.1238-0.51428-1.6262-0.73527-4.2022-0.37938-4.4221 0.48803-0.30163 1.1715 1.2017 2.0362 4.4785 0.77876 2.9513 2.0405 5.3939 3.3908 6.5641 0.62945 0.54551 1.3183 0.56425 6.8436 0.18617l6.1437-0.4204-0.032-1.5825c-0.0175-0.87035 0.10556-1.5824 0.2739-1.5824 0.1683 0 0.81353 1.0053 1.4338 2.2341 0.62025 1.2287 1.3767 2.2341 1.6809 2.2341 0.30424 0 0.67133 0.0419 0.81573 0.0931 0.14444 0.0512 0.3973-0.55523 0.56194-1.3476 0.21381-1.0291 0.0856-2.3407-0.44876-4.5906-0.41147-1.7324-0.74486-4.0163-0.74088-5.0753 0.0108-2.8204 0.93383-8.8742 1.5766-10.338 0.30617-0.69739 0.75937-2.022 1.0071-2.9435 0.73649-2.7395 2.8767-8.2551 3.901-10.053 0.52494-0.92155 1.4226-2.5971 1.9948-3.7234s1.4969-2.7614 2.0548-3.6336c0.55796-0.87212 1.3424-2.4176 1.7431-3.4343 0.40076-1.0167 0.89005-2.1463 1.0873-2.5101 0.7552-1.3928 1.5897-4.5455 2.2941-8.6669 0.40253-2.3551 1.0601-6.2088 1.4614-8.5639 0.40123-2.3551 0.73299-5.1299 0.73723-6.1663 0.0117-2.8613 2.0094-10.065 3.8775-13.983 1.7811-3.7352 4.9422-7.5477 7.189-8.6706 1.9711-0.98511 6.419-0.80412 8.8828 0.36147 2.9348 1.3884 3.5783 1.1799 4.1029-1.3294 0.23547-1.1263 0.72032-2.8019 1.0774-3.7234 0.35712-0.92155 1.1093-2.9506 1.6715-4.509 1.2407-3.4393 4.9018-8.8233 7.1488-10.513 3.0682-2.3073 8.0935-4.5604 12.055-5.4051 4.7024-1.0026 5.3167-0.99591 9.3478 0.10184 6.3936 1.7411 7.1924 2.0134 8.1771 2.788 0.54661 0.42997 1.1807 0.78226 1.4091 0.78287 0.22836 0.00075 1.8394 1.0063 3.5801 2.2349s4.0027 2.6712 5.0266 3.2058c1.024 0.53461 2.8166 1.5465 3.9837 2.2486 4.1016 2.4676 7.2806 2.7935 12.359 1.2671 5.9705-1.7946 9.4069-2.1683 14.143-1.5381 4.3076 0.57324 8.0525 1.9139 8.0525 2.8829 0 0.67373-0.33668 0.6356-3.6474-0.41304-4.89-1.5489-8.1673-1.5912-13.48-0.17398-2.1426 0.5715-5.738 2.171-5.4738 2.4351 0.11115 0.11116 0.75942 0.48065 1.4406 0.82111 1.5458 0.77258 1.8231 1.8086 0.56845 2.1235-0.49933 0.12532-1.1153 0.61546-1.3688 1.0892-0.25354 0.47374-0.86145 1.0438-1.3509 1.2668-1.1028 0.50245-1.1508 1.6214-0.14979 3.489l0.74015 1.381-2.2186 1.7784c-3.7886 3.0369-4.2726 3.3652-6.3574 4.3121-4.4364 2.0151-7.1568 2.2564-10.66 0.94553-2.4377-0.91207-5.4173-3.5078-7.1804-6.2553-1.6159-2.5181-1.3901-3.0447 0.45486-1.0609 1.4589 1.5686 3.625 3.2785 4.1533 3.2785 0.12197 0 0.22177-0.25133 0.22177-0.55851 0-0.74849 0.15487-0.71736 2.0988 0.42187 1.4488 0.84902 1.9638 0.954 3.8442 0.78349 4.0992-0.3717 6.1183-2.1362 2.4444-2.1362-2.5434 0-5.2227-0.63039-5.8398-1.374-0.39428-0.47508-0.11564-0.51563 2.1297-0.30996 2.2274 0.20403 2.7536 0.12977 3.8188-0.53903 1.561-0.98002 1.4387-1.9086-0.30521-2.3169-3.1878-0.74631-4.0955-1.1051-4.0955-1.6187 0-0.66467-0.0649-0.6648 1.8294 0.003 1.3724 0.48422 1.8165 0.48127 3.8633-0.0257 1.272-0.31503 3.5693-1.0841 5.1053-1.709 6.0691-2.4694 6.9973-3.3869 3.8165-3.7726-5.678-0.68852-9.147-1.7098-11.356-3.3434-0.66565-0.49217-1.5118-1.0013-1.8804-1.1315-1.0864-0.38365-6.2804-3.61-7.8938-4.9035-3.9455-3.1629-6.9418-4.1977-11.841-4.0894-3.7261 0.0824-4.7059 0.56295-3.3053 1.6213 0.68936 0.52092 0.84023 0.94062 0.74469 2.0716-0.10782 1.2764-0.2689 1.4731-1.6092 1.9651-3.1837 1.1686-4.282 1.731-4.282 2.1927 0 0.6582 0.42626 0.86705 1.9033 0.93257 2.2719 0.10078 3.8421 0.76982 5.4778 2.3339 2.1447 2.051 2.6037 3.2703 2.5352 6.7349-0.0313 1.5819 0.0829 2.9626 0.2538 3.0682 0.17089 0.10561 0.6861-0.16064 1.1449-0.59168 0.45881-0.43103 1.028-0.78369 1.2649-0.78369 0.23689 0 0.81254 1.2148 1.2792 2.6995 1.1473 3.6502 1.1286 8.2631-0.0439 10.798-0.44993 0.97275-0.96647 1.7686-1.1479 1.7686-0.1814 0-0.43263 0.32391-0.55828 0.7198-0.27036 0.85182-3.3196 2.4252-4.1113 2.1214-0.66188-0.25399-0.71753-1.4674-0.11179-2.4374 0.35089-0.56186 0.31555-0.89168-0.17591-1.6417-0.33826-0.51624-0.59159-1.5616-0.56297-2.3231 0.0593-1.5767-0.59835-2.2518-2.55-2.6179-0.98981-0.18569-1.5756-0.003-2.9894 0.93378-0.96713 0.6406-2.4039 1.2679-3.1928 1.3941-2.1416 0.34246-3.708 1.5718-4.3635 3.4248-0.31205 0.88211-0.89176 1.7836-1.2882 2.0032-0.69632 0.38578-4.4307 0.51651-6.726 0.23546-1.072-0.13127-1.1252-0.0693-1.3203 1.5388-0.11179 0.92155-0.4168 2.0636-0.67779 2.5378-0.69065 1.2549-3.1502 2.1517-6.7021 2.4436-2.7353 0.22482-3.3141 0.15968-4.7478-0.5344-2.6076-1.2623-4.8532-4.4404-5.2552-7.4376-0.10934-0.81524 0.0712-2.1482 0.43406-3.2052 0.52166-1.5195 0.883-1.9396 2.2543-2.6205l1.633-0.81086 1.9255 0.73163c1.059 0.4024 2.148 0.9541 2.4199 1.226 0.95953 0.95954 2.7758 4.1008 2.7758 4.8009 0 0.91691-2.3215 3.241-3.2374 3.241-0.40953 0-1.3045-0.7856-2.1337-1.8729-1.9356-2.5381-3.147-3.4692-3.804-2.9239-1.3965 1.159 0.35105 4.9749 2.9547 6.452 2.3642 1.3412 3.7881 1.7188 5.0207 1.3314 0.55744-0.17521 1.4712-0.41861 2.0307-0.54091 0.6143-0.13428 1.2411-0.65531 1.5825-1.3155 0.7125-1.3778 0.72731-5.1077 0.0252-6.3429-0.29102-0.51197-0.96134-1.7902-1.4896-2.8406-1.2956-2.5761-2.3932-3.5907-5.5966-5.1736l-2.7127-1.3404-2.0617 0.59937c-4.7369 1.3771-7.2353 4.2351-9.1904 10.514-0.96593 3.102 0.51598 8.4559 3.2125 11.606 1.7756 2.0743 3.856 3.2 7.3071 3.9537 2.4598 0.53719 3.488 0.57255 6.8884 0.23684 4.1468-0.4094 9.0572-1.5495 13.864-3.2189 3.7949-1.3179 4.4681-1.4656 4.4681-0.98001 0 0.49586-2.3241 2.0017-4.7485 3.0766-0.97211 0.43102-2.4377 1.0825-3.2568 1.4476-5.4139 2.4136-9.1276 3.3209-13.452 3.2867-2.8786-0.0228-3.9536 0.4911-3.6401 1.7402 0.16557 0.65967-0.0379 1.2256-0.74133 2.0616-0.58104 0.69054-0.96955 1.6076-0.96955 2.2887v1.1364l-1.9548-0.28971c-3.2891-0.48748-3.747-0.43455-4.213 0.48699-0.23691 0.46845-0.78917 1.2332-1.2272 1.6996-0.45708 0.48654-0.79648 1.3355-0.79648 1.9922 0 0.75715-0.56698 1.946-1.6756 3.5133-0.92156 1.3029-2.0434 3.1113-2.493 4.0188-0.44956 0.90747-1.6224 2.494-2.6064 3.5256-0.98395 1.0316-1.789 2.0281-1.789 2.2144 0 0.44553-1.9426 2.8077-4.3615 5.3037-2.7995 2.8887-4.8942 7.3187-5.2827 11.172-0.16488 1.6355-0.50737 3.3616-0.7611 3.8357-0.26634 0.49767-0.37987 1.514-0.26862 2.4048 0.10599 0.84853 0.36639 3.0829 0.57867 4.9653 0.37591 3.3334 2.2269 9.2111 3.7297 11.844 0.35073 0.61437 0.85541 1.8996 1.1215 2.8562 0.29183 1.049 1.1897 2.5739 2.2625 3.8428 1.7158 2.0292 6.8069 5.7782 8.6178 6.3459 0.48382 0.15167 1.2793 0.58784 1.7677 0.96924 0.48839 0.38141 1.129 0.69347 1.4236 0.69347 0.75689 0 0.44297-1.1414-0.44986-1.6356-1.9088-1.0567-4.7205-3.79-6.3462-6.1693-0.98322-1.439-1.6866-2.7174-1.563-2.841 0.12354-0.12355 0.74598 0.0833 1.3832 0.45975 1.4241 0.84122 1.9169 0.3274 1.5941-1.662l-0.211-1.3002 1.2381 0.24762c0.68098 0.1362 2.0895 0.89662 3.13 1.6898 3.0348 2.3135 5.6509 3.3992 9.5249 3.9528 1.5668 0.2239 1.8629 0.11587 4.5612-1.6637 1.5871-1.0467 2.8857-2.0541 2.8857-2.2386 0-0.3589-2.4233-0.0901-3.3511 0.37169-0.30718 0.15289-1.7314 0.38826-3.1649 0.52304-3.5649 0.33516-5.1512-0.23125-7.3766-2.634-1.6689-1.8019-1.8076-2.1112-2.3367-5.2128-0.3094-1.8135-0.73229-4.2793-0.93976-5.4794-0.44285-2.5618-2.4597-7.0608-3.8264-8.5355-0.52762-0.56931-1.1339-1.3613-1.3473-1.76-0.4636-0.86624-4.1235-2.0242-5.3918-1.7059-0.4809 0.12069-1.237 0.80617-1.6802 1.5233-1.438 2.3267-2.5834 1.1722-1.2997-1.31 0.74627-1.4431 1.6114-1.8543 3.9017-1.8543 3.3641 0 6.4022 2.0828 8.7591 6.0049 0.41232 0.68613 1.0643 1.3081 1.4489 1.3822 0.61882 0.11918 0.67824-0.0518 0.51658-1.486-0.10048-0.8914-0.71416-2.6919-1.3638-4.0012-0.64959-1.3093-1.1102-2.4513-1.0236-2.5379s1.1144 1.0269 2.2839 2.4744 2.2416 2.6318 2.3824 2.6318c0.54165 0 1.1496-0.93149 1.1496-1.7614 0-1.1495-2.541-5.5882-4.8862-8.5355-1.0341-1.2993-1.7241-2.3626-1.5334-2.3626 0.19068 0 0.63256 0.31588 0.98196 0.70195 0.34939 0.38607 1.106 0.79609 1.6813 0.91115 0.57531 0.11507 1.5544 0.63696 2.1757 1.1598 0.62133 0.52281 1.3149 0.95057 1.5414 0.95057 0.53308 0 0.52381-1.2149-0.0232-3.0406-0.31308-1.045-0.32153-1.5648-0.0302-1.8561 0.29136-0.29136 0.62381 0.0248 1.1871 1.129 0.77016 1.5096 1.8843 2.0792 1.8843 0.9632 0-0.31376-0.25133-1.172-0.55852-1.9072-0.30718-0.7352-0.55851-1.5936-0.55851-1.9075 0-0.49619 0.0889-0.49026 0.68092 0.0455 0.3745 0.33893 0.97928 0.61623 1.3439 0.61623 0.70001 0 0.69985 0.11808 0.005-4.0027-0.21578-1.2805-0.15942-1.5825 0.29529-1.5825 0.30907 0 0.77054 0.25134 1.0255 0.55852 0.62641 0.75477 1.8617 0.71633 1.8617-0.0579 0-0.33905-0.43539-1.1873-0.96754-1.885-0.91388-1.1982-0.93266-1.307-0.33878-1.9633 0.98933-1.0932 0.15212-3.104-1.564-3.7564-1.2218-0.46453-1.1044-1.4618 0.17086-1.4516 2.5305 0.0202 6.8861 2.9922 9.133 6.2318 1.749 2.5218 1.7959 3.3535 0.19786 3.5104-1.075 0.10559-1.2547 0.31121-1.8914 2.1646-0.38694 1.1263-0.92032 2.2992-1.1853 2.6064-0.95832 1.1111-1.2866 3.1979-1.1373 7.2299 0.14358 3.8786 0.10867 4.1147-0.76106 5.1483-0.50135 0.59582-0.91155 1.3159-0.91155 1.6002 0 0.28427-0.33313 0.69514-0.74029 0.91304-0.40716 0.21791-0.84598 0.85213-0.97515 1.4094-0.12918 0.55726-0.46297 1.3793-0.74175 1.8267-0.48221 0.77387-0.96417 2.3888-1.6046 5.3767-0.15912 0.74235-0.63043 1.8314-1.0474 2.4202-1.1173 1.5778-1.7236 6.8602-0.88384 7.7 0.20956 0.20956 0.97253 0.0533 1.958-0.40092 0.88809-0.40935 2.5397-1.0112 3.6702-1.3375 2.4063-0.6945 4.3778-2.7444 5.7048-5.9318 0.44377-1.0659 1.2643-2.7023 1.8233-3.6364 0.92038-1.5378 0.97313-1.8132 0.55792-2.9132-0.43923-1.1637-0.40366-1.2609 0.84359-2.3072 1.2052-1.011 1.2536-1.1298 0.65055-1.596-0.8706-0.67293-0.82348-1.139 0.27926-2.7618 0.51197-0.75344 0.93086-1.7442 0.93086-2.2017 0-0.45748 0.27852-1.4159 0.61895-2.1297 0.50861-1.0666 0.53367-1.4007 0.14057-1.8744-0.2631-0.31702-0.70918-0.5764-0.99129-0.5764-0.97453 0-0.52562-1.7033 0.78326-2.972 0.71291-0.69097 1.4833-1.8232 1.7119-2.516 0.22866-0.69284 0.99364-2.1291 1.7-3.1918 1.1918-1.793 1.2676-2.0802 1.0536-3.9909-0.19789-1.7668-0.12413-2.1552 0.52001-2.7381 0.41283-0.37361 0.85364-1.2065 0.97957-1.8508 0.12592-0.64433 0.41201-1.5428 0.63574-1.9966 0.48698-0.98774-0.13654-1.9675-1.2521-1.9675-0.39093 0-0.81319-0.26687-0.93835-0.59304-0.35505-0.92525 2.2344-3.2207 6.1936-5.4904 5.4899-3.1471 4.6404-3.8674-1.3446-1.1399-1.5277 0.69619-3.1179 1.2658-3.5339 1.2658-0.70116 0-0.67487-0.11068 0.36085-1.519 2.0878-2.8389 5.4735-4.7843 9.9311-5.7061 4.9011-1.0136 10.426-0.53914 10.426 0.89531 0 0.43474-0.53639 0.56812-2.4202 0.60183-2.5733 0.0461-7.2835 1.0331-8.0785 1.6929-0.26246 0.21783-0.38538 0.54462-0.27316 0.7262 0.30304 0.49032 1.3263 0.39703 2.5298-0.23065 1.2166-0.63452 4.1704-0.7473 4.5255-0.17279 0.19846 0.32111-1.205 2.3394-2.4081 3.4632-0.18215 0.17013-0.86412 0.80232-1.5155 1.4049-1.1382 1.0529-1.1612 1.1309-0.58859 2.0047 0.32764 0.50006 0.59572 1.2129 0.59572 1.5841 0 0.37122 0.22623 1.0054 0.50274 1.4094 0.79376 1.1596 1.0234 3.4054 0.40097 3.9219-0.29225 0.24254-0.53137 0.94084-0.53137 1.5518 0 0.6416-0.39318 1.578-0.93086 2.217-0.51197 0.60845-0.93085 1.3317-0.93085 1.6072 0 0.27551-0.69313 1.0942-1.5403 1.8193-1.4869 1.2728-1.5239 1.3579-1.0679 2.4588 0.40956 0.98878 0.38506 1.2368-0.18436 1.866-0.60949 0.67348-0.61339 0.79174-0.0542 1.6451 0.38628 0.58954 0.52404 1.3116 0.3839 2.0123-0.12567 0.62837-0.0444 1.2004 0.1913 1.3461 0.61822 0.38208 0.4921 1.7354-0.2368 2.5408-0.61559 0.68021-0.61163 0.74016 0.0824 1.2476 0.40098 0.29321 0.9852 0.43151 1.2983 0.30733 1.5246-0.60474 6.6847-1.3341 8.0828-1.1424 3.3576 0.46022 15.412-4.4446 15.691-6.3846 0.13806-0.96021-0.43508-1.0461-1.7945-0.26899-1.4104 0.80629-1.8158 0.67997-2.5136-0.78321l-0.63983-1.3417-3.777 0.25744-3.777 0.25744 0.41212-1.3167c0.38457-1.2287 0.57441-1.3567 2.8404-1.9159 4.2706-1.0538 6.4868-1.9449 6.8476-2.7535 0.1878-0.42088 0.69449-0.87143 1.126-1.0012 0.43149-0.1298 1.5829-0.71993 2.5588-1.3114 0.97582-0.59147 1.9309-1.0754 2.1223-1.0754 0.19144 0 1.0749-0.49055 1.9633-1.0901 0.88839-0.59956 2.0408-1.1969 2.5609-1.3275 0.87148-0.21873 0.94489-0.14049 0.93554 0.99704-0.006 0.67891 0.11687 1.6619 0.27211 2.1844 0.23872 0.80342-0.037 1.3396-1.7874 3.475-1.7716 2.1613-2.0697 2.747-2.0697 4.0667 0 1.3954-0.20663 1.7383-2.1762 3.6126-2.074 1.9736-4.024 3.2439-7.3185 4.7679-2.3896 1.1053-9.8449 3.1055-10.638 2.8539-0.91197-0.28945-7.2946 0.77133-10.064 1.6727-4.155 1.3522-5.8835 2.8142-4.7119 3.9858 0.46745 0.46745 0.70052 0.46592 1.805-0.0118 3.0873-1.3354 5.1739-2.1012 5.7254-2.1012 0.32762 0 1.0173-0.27624 1.5326-0.61387 0.66191-0.4337 1.0531-0.49764 1.3329-0.21786 0.27978 0.27979 0.0556 0.57204-0.76381 0.99577-0.74096 0.38317-1.1598 0.88284-1.1598 1.3836 0 0.67797 0.16507 0.75706 1.2221 0.58553 0.677-0.10987 1.6223 0.0159 2.1194 0.28189 0.74356 0.39794 1.1561 0.38606 2.4083-0.0694 4.0112-1.4589 10.063-1.7563 14.282-0.70185 2.916 0.72882 3.7986 1.3154 3.7986 2.5246 0 0.71003-0.15177 0.74712-2.141 0.52334-5.1003-0.57379-8.4186-0.67339-9.7147-0.29161-0.7494 0.22075-2.703 0.6884-4.3413 1.0392-1.6383 0.35082-3.1463 0.75535-3.3511 0.89896-0.20479 0.14361-0.87501 0.37822-1.4894 0.52135-2.3384 0.54481-7.3912 3.3288-8.7788 4.837-0.7699 0.8368-1.9172 2.092-2.5496 2.7892-0.63237 0.69728-1.3458 1.9219-1.5853 2.7215-0.23954 0.79952-0.78304 1.6382-1.2078 1.8638-0.42474 0.22557-1.6938 1.1999-2.8202 2.1652-2.5027 2.1448-2.9273 2.3688-5.9662 3.1472-1.3263 0.33976-2.957 0.93553-3.6237 1.3239-0.6667 0.38839-2.6269 1.1377-4.356 1.6651-3.5344 1.0781-5.2776 2.5487-4.8833 4.1198 0.12031 0.47935-0.0692 1.3444-0.43987 2.0074-0.6248 1.1178-0.62309 1.1862 0.042 1.6836 1.236 0.92435 4.6009 1.0728 9.7738 0.43107 6.6294-0.82238 12.403-3.0017 11.183-4.2215-0.12328-0.12329-1.4425-0.0383-2.9317 0.18884-4.6404 0.70781-9.5959 0.87645-9.5959 0.32654 0-0.26259 0.5442-0.63777 1.2093-0.83371 0.75329-0.22191 1.2592-0.63708 1.3416-1.1009 0.21925-1.2341 1.0042-1.8394 5.1145-3.9437 4.6455-2.3784 6.3061-3.6607 7.0518-5.4455 0.46192-1.1055 0.6374-1.2402 1.1074-0.8502 0.30716 0.25492 0.55848 0.7452 0.55848 1.0895s0.764 2.1658 1.6978 4.0478c2.1004 4.2332 4.3948 6.3904 9.544 8.9728 1.9686 0.98734 4.7269 2.558 6.1294 3.4905 2.4588 1.6346 3.2099 2.5326 6.2075 7.421 1.196 1.9504 5.7491 2.4391 7.6696 0.82314 0.63008-0.53018 1.1456-1.1864 1.1456-1.4583 0-0.66274 0.78035-0.90558 1.5832-0.49266 0.61694 0.31731 0.61334 0.41046-0.0663 1.7183-0.83915 1.6148-2.9151 3.3462-4.6085 3.8438-1.566 0.4601-3.7488 0.0811-5.9615-1.035-2.5561-1.2893-3.9038-2.6112-5.1262-5.0277-0.58768-1.1618-1.701-2.6238-2.4739-3.2489-2.5652-2.0746-4.8853-3.7165-6.3188-4.4718-0.77905-0.41046-2.5006-1.7589-3.8256-2.9966s-2.6116-2.2503-2.8591-2.2503c-0.6037 0-1.6201 1.048-1.6201 1.6704 0 0.96669-3.5347 3.0926-7.0745 4.2549-3.9046 1.2821-9.8463 2.0983-12.814 1.7603-7.5723-0.86225-8.2425-0.89353-9.353-0.43649-2.9141 1.1994-10.456 9.7759-13.064 14.856-3.2342 6.2999-3.5387 7.1147-3.4214 9.1544 0.10688 1.8591 0.19727 2.033 1.2324 2.3704 2.6752 0.87205 4.2359 2.9047 5.7731 7.519l1.1429 3.4306 2.1088 0.21765 2.1088 0.21765 2.0662-2.2708c1.1364-1.2489 2.122-2.4132 2.1903-2.5872 0.18949-0.4831-1.2181-0.37672-1.7252 0.13039-0.28527 0.28528-0.44681 0.30327-0.44681 0.0498 0-0.39834 7.0837-5.3815 8.2603-5.8108 0.34499-0.12588 0.81166-0.57346 1.037-0.9946 0.36227-0.67691 0.30286-0.76572-0.51219-0.76572-0.50709 0-1.0252 0.16709-1.1515 0.37132-0.12621 0.20422-1.1833 0.82605-2.3491 1.3818-1.1658 0.5558-2.8408 1.4921-3.7223 2.0807-2.0623 1.3771-3.7963 1.91-3.7963 1.1668 0-0.29288 0.12567-0.53329 0.27926-0.53424 0.15359-0.001 0.78192-0.47039 1.3963-1.0432 0.61436-0.57282 2.4575-2.0768 4.0958-3.3422s4.4867-3.579 6.3298-5.1415c1.8431-1.5624 4.0213-3.2827 4.8405-3.8228 2.4283-1.601 9.6767-7.5552 13.898-11.417 3.9137-3.5799 4.5328-4.077 4.5328-3.6401 0 0.20779-2.2085 2.5827-4.9078 5.2777-3.2121 3.2069-4.7814 5.0262-4.5421 5.2655 0.23933 0.23933 0.91176-0.0359 1.9462-0.7967 1.8613-1.3688 2.622-1.0873 0.95752 0.35442-0.63065 0.54625-1.8034 1.5626-2.6062 2.2586-0.80272 0.69597-2.8256 2.4178-4.4952 3.8262s-3.1284 2.8024-3.2417 3.0977c-0.41799 1.0892 0.55334 0.92645 3.2268-0.54083 2.7309-1.4988 4.5543-2.0503 3.0506-0.92267-3.4147 2.5608-5.7713 4.6194-5.7713 5.0416 0 0.18358 0.62833 0.33272 1.3963 0.33143 1.6488-0.003 6.7134-2.4019 8.3202-3.9413 0.59057-0.5658 1.1938-0.90872 1.3405-0.76204 0.29102 0.29103-1.9888 2.485-5.1984 5.0026-1.122 0.8801-2.5222 2.1867-3.1114 2.9036-4.2276 5.1429-5.8528 6.7824-13.505 13.624l-1.9514 1.7446 0.0712 4.0267c0.0392 2.2147-0.0521 4.4897-0.20289 5.0555-0.35745 1.3416 0.20576 1.9853 1.9862 2.27 1.7883 0.28597 4.2221 2.0308 5.4764 3.9261 1.4077 2.1272 2.1304 6.1471 1.9478 10.834-0.13432 3.4467-0.29087 4.1962-1.3222 6.3298-2.9729 6.1506-4.105 7.5029-8.6195 10.296-1.5082 0.93305-1.9424 1.0144-5.271 0.98727-2.4027-0.0195-3.9849-0.2136-4.6863-0.57472-0.58235-0.29984-1.6453-0.84862-2.362-1.2195-0.71677-0.37087-1.9164-1.1517-2.6659-1.7352-1.6302-1.2691-4.0264-2.1686-5.7772-2.1686-1.3556 0-3.472 0.90412-3.472 1.4832 0 0.19089-0.79589 0.80688-1.7686 1.3688-0.97275 0.56197-1.8666 1.1625-1.9864 1.3344-0.39732 0.5705-4.9669 1.7653-6.7626 1.7682-1.5148 0.003-1.994-0.19682-3.3511-1.3934-0.87095-0.76796-1.6394-1.522-1.7076-1.6755-0.0683-0.15359-0.35995-0.27926-0.64818-0.27926-0.28827 0-0.90263-0.57776-1.3653-1.2839-1.3936-2.127-2.2973-2.0063-4.0362 0.53922-1.6085 2.3546-4.5866 5.5405-7.7891 8.3327-1.0796 0.94123-6.625 3.5823-7.5218 3.5823-0.28648 0-0.70745 0.18659-0.93551 0.41465-0.45043 0.45043-8.2031 0.53985-10.035 0.11575-5.4049-1.251-9.2016-3.23-12.219-6.3692-3.5128-3.6541-4.7155-6.2572-4.9484-10.711-0.112-2.1412-0.008-4.2116 0.26578-5.2995 0.77894-3.0934 3.7924-6.0588 6.7242-6.6167 0.71676-0.13641 1.7075-0.44771 2.2015-0.69177 1.8067-0.89244 3.4377-6.6045 2.1735-7.6118-0.25599-0.20397-1.3517-0.45185-2.4349-0.55086-4.3196-0.39483-6.8899-4.5249-6.8984-11.084-0.007-5.1065 0.76893-7.153 4.106-10.835 4.1919-4.6256 4.5749-5.7466 3.4698-10.158-0.67845-2.7081-0.73944-3.5021-0.40719-5.2994 0.21495-1.1628 0.68522-2.5738 1.045-3.1357 3.7411-5.8418 4.8846-6.8667 9.1096-8.1647 1.4932-0.45874 3.3467-1.0684 4.1188-1.3549 2.0857-0.77377 6.0832-0.65514 8.054 0.23899 1.5402 0.69879 1.6802 0.70573 2.3324 0.11552 0.38158-0.34535 0.61552-0.89302 0.51983-1.217-0.0957-0.32402-0.26738-1.6572-0.38154-2.9626-0.11412-1.3054-0.54876-3.71-0.96582-5.3434-0.41706-1.6335-0.85754-4.084-0.97885-5.4457-0.23577-2.6463-0.74007-3.9399-2.3441-6.013-0.55461-0.71677-1.4951-2.1139-2.09-3.1047-0.59489-0.99085-1.3669-2.2475-1.7156-2.7926-0.97878-1.53-2.1586-4.1836-2.1585-4.8549 0.00004-0.33234-0.32539-1.6096-0.7232-2.8383-1.1986-3.7024-1.8829-6.3444-1.8891-7.2934-0.004-0.49398-0.33831-2.4734-0.74468-4.3988-0.40638-1.9254-0.73884-4.4134-0.73884-5.5289 0-1.7537 0.14484-2.1634 1.0702-3.0279 1.0061-0.93981 1.052-1.1106 0.76688-2.8489-0.16684-1.017-0.31332-2.1358-0.32554-2.4862-0.0123-0.3504-0.39033-0.98006-0.84027-1.3992-0.74632-0.69531-0.81967-1.1292-0.83639-4.9481-0.01-2.3022 0.18301-5.3588 0.42909-6.7923 0.24612-1.4335 0.69319-4.1144 0.99352-5.9575 1.1096-6.8088 4.0457-18.268 5.7241-22.341 0.50642-1.2287 1.0468-2.5692 1.2009-2.9788 0.15407-0.40958 0.63805-1.517 1.0755-2.461 0.43739-0.94398 0.79528-1.8866 0.79528-2.0946 0-0.99844 3.8066-8.8008 6.292-12.897 1.9499-3.2135 6.2357-7.937 10.091-11.122 0.92155-0.76124 2.6735-2.2149 3.8933-3.2304 1.7978-1.4968 8.0659-5.342 9.6882-5.9433 1.0848-0.40208 5.1426-2.316 10.839-5.1123 3.4991-1.7176 7.1015-3.3607 8.0054-3.6513 0.90389-0.29055 3.2352-1.2072 5.1807-2.037 1.9455-0.82979 3.9592-1.5139 4.4748-1.5202 1.3147-0.0161 3.7168-1.7285 3.7168-2.6498 0-0.41237-0.27683-1.2851-0.61517-1.9394-0.99535-1.9248-0.85141-7.7611 0.26005-10.544 1.047-2.622 2.0944-3.8592 4.8232-5.6973 2.314-1.5587 4.3935-2.2658 6.664-2.2658 1.1426 0 1.6106-0.17158 1.7775-0.65161 1.3663-3.9302 3.0776-7.15 4.5968-8.6488 4.0009-3.9471 5.4946-5.1744 7.2018-5.9172 0.99501-0.43292 2.3804-1.2887 3.0787-1.9018 0.69825-0.61308 1.7272-1.224 2.2867-1.3576 0.55941-0.13359 1.2106-0.3946 1.447-0.58002 0.23646-0.18542 1.5112-0.64635 2.8328-1.0243 1.3216-0.37794 2.7574-0.8769 3.1907-1.1088 0.43333-0.23191 2.0619-0.58319 3.619-0.78061 10.439-1.3235 21.061-0.36123 26.417 2.393 1.0239 0.52657 2.2067 0.9581 2.6283 0.95895 0.42162 0.00075 1.6783 0.5469 2.7926 1.2134 2.5796 1.543 4.4379 2.3345 7.2388 3.0831 5.6762 1.5171 7.6661 2.2658 10.612 3.9926 1.7407 1.0204 3.2487 1.9608 3.3511 2.0898 0.10239 0.12896 0.45433 0.40202 0.78207 0.60681 3.3742 2.1083 5.7759 4.509 8.4746 8.4708 0.66261 0.97275 1.3642 1.7686 1.5592 1.7686 0.19495 0 0.35446 0.3816 0.35446 0.84801s0.2287 1.1785 0.50821 1.5825c0.27952 0.40395 0.62796 1.7081 0.77433 2.8982 0.40228 3.271-0.89951 7.2065-3.231 9.7677-0.96928 1.0648-2.27 2.1462-2.8904 2.4032-1.4307 0.59262-1.7964 1.892-0.9179 3.2614 0.36033 0.56168 1.8822 2.2103 3.382 3.6635 2.4007 2.3263 2.7948 2.9034 3.2955 4.8256 0.31277 1.2008 0.56868 2.4049 0.56868 2.6756 0 0.27077-0.77132 1.6631-1.7141 3.0941-1.9992 3.0347-2.0078 4.1282-0.0387 4.951 1.0426 0.43564 2.3271 1.532 4.2684 3.6434 0.25725 0.27979 1.3882 1.4253 2.5133 2.5456s2.0456 2.2143 2.0456 2.4311c0 0.21678 0.55038 0.97571 1.2231 1.6865 1.4296 1.5106 2.5004 3.1245 2.5004 3.7686 0 0.24999 0.332 0.80792 0.73777 1.2398 0.8239 0.877 2.9857 6.5523 2.9857 7.8383 0 0.45538 0.25134 1.0366 0.55852 1.2915 0.30718 0.25494 0.55852 0.82461 0.55852 1.266 0 0.44133 0.25976 1.1733 0.57725 1.6266 0.31749 0.45328 0.81986 1.9567 1.1164 3.3408 1.3718 6.4035 1.9791 9.8054 2.2109 12.384 0.13804 1.5359 0.4789 3.0461 0.75746 3.3559 0.27855 0.30983 0.70379 1.3989 0.94497 2.4202s0.55282 2.1082 0.69253 2.4154c0.13971 0.30719 0.65698 1.7627 1.1495 3.2344 0.79595 2.3786 0.84768 2.8751 0.4655 4.4681-0.23647 0.98572-0.52347 2.9366-0.63776 4.3353-0.1143 1.3987-0.37349 2.8526-0.576 3.231-0.2025 0.37838-0.27172 0.93938-0.15381 1.2466 0.11791 0.30728 0.0188 1.8486-0.22012 3.4251-0.51545 3.4004-0.29171 4.9519 0.89945 6.2372l0.87966 0.94917 2.146-0.66399c1.688-0.52227 2.4911-1.0529 3.7628-2.4863l1.6168-1.8223 0.96151 1.0763c1.5304 1.7131 0.65554 3.9564-2.1454 5.5015-0.87642 0.48346-1.6406 1.1281-1.6982 1.4326-0.0576 0.30444 1.658 2.3909 3.8124 4.6365s3.917 4.2024 3.917 4.3484c0 0.14602 0.22564 0.48691 0.50142 0.75752 1.1502 1.1287 5.2329 4.6294 6.0018 5.1463 0.45693 0.30718 1.0975 0.80985 1.4235 1.117 0.32599 0.30719 1.204 0.9774 1.9513 1.4894 2.0036 1.3728 3.8987 3.0114 3.8987 3.371 0 0.17331 0.4816 1.0356 1.0702 1.9162 1.4393 2.1532 1.7231 3.1847 1.0883 3.955-0.28326 0.34371-0.7347 1.2715-1.0032 2.0618-1.0324 3.0387-2.7901 4.9168-6.9275 7.402-3.6943 2.219-4.0982 2.8314-4.0758 6.18 0.0206 3.0844 0.32567 3.8236 2.687 6.5111 1.4949 1.7014 1.441 2.4014-0.49821 6.4658-0.70235 1.4721-1.277 2.8586-1.277 3.0811 0 0.22253 0.3377 1.3639 0.75044 2.5363s0.91118 3.1267 1.1076 4.3429c0.33806 2.0926 0.3037 2.2823-0.64056 3.5373-0.54877 0.72932-1.3104 1.5533-1.6925 1.831-0.38209 0.27773-1.1855 1.1825-1.7854 2.0107-0.84471 1.1661-1.0907 1.908-1.0907 3.2893 0 1.5654 0.23237 2.0938 1.8991 4.3192 1.0445 1.3946 2.372 2.9559 2.95 3.4696 0.97441 0.86603 1.0785 1.2318 1.43 5.026 0.34773 3.7532 0.32283 4.1537-0.30085 4.8373-0.37398 0.40995-0.80393 1.1527-0.95545 1.6506-0.48275 1.5864-1.5502 3.0392-2.914 3.9659-0.72857 0.49508-1.446 0.90014-1.5944 0.90014-0.14833 0-0.53422 0.22432-0.85753 0.4985-0.32331 0.27417-1.5932 0.79838-2.8219 1.1649-1.2287 0.36651-2.3932 0.81241-2.5878 0.99087-0.19455 0.17847-0.88166 0.32448-1.5269 0.32448s-1.659 0.15089-2.2527 0.33531c-2.6246 0.81525-8.2548 1.1932-19.697 1.3221-12.955 0.14596-14.938 0.36462-18.431 2.0325-0.92155 0.44003-2.1925 1.1721-2.8244 1.6269-0.63189 0.45478-2.3395 1.6153-3.7946 2.579-1.4551 0.96367-2.8464 2.1366-3.0918 2.6064-0.24536 0.46985-1.3369 1.7758-2.4257 2.9022-1.0888 1.1263-2.364 2.5862-2.8338 3.244-2.7451 3.8437-3.3639 4.78-4.0576 6.1398-1.0159 1.9913-7.1198 12.226-8.8377 14.818-2.6137 3.9444-8.4652 10.617-15.681 17.88-10.797 10.869-19.12 19.618-19.752 20.762-0.30719 0.55651-1.0193 1.6141-1.5825 2.3502-0.56317 0.73609-1.024 1.4743-1.024 1.6404 0 0.16613-0.42954 0.86522-0.95454 1.5535-0.525 0.68831-1.3024 2.0446-1.7276 3.0139-0.42517 0.96933-1.2898 2.4872-1.9214 3.3731-0.63162 0.88591-1.3203 2.13-1.5304 2.7646-0.50219 1.5169-1.1186 1.6663-1.9075 0.46234zm-85.961-58.746c2.9118-0.95374 6.2416-3.0169 8.1931-5.0763 3.4873-3.6802 7.0164-9.6549 6.8013-11.514-0.12489-1.0794 0.19336-1.0304-4.511-0.69477-2.7718 0.19774-4.0226 1.0918-4.6124 3.2967-0.63049 2.3574-6.4495 8.0769-8.2645 8.1232-0.28473 0.007-1.2474 0.37763-2.1393 0.82305-1.1792 0.58894-1.833 1.2467-2.3969 2.4115-0.42641 0.8809-0.71952 1.8914-0.65131 2.2457 0.26824 1.3928 3.936 1.5793 7.5809 0.38546zm25.864-9.969c0-0.37323-0.67022-1.453-1.4894-2.3994-0.81915-0.94646-1.4894-1.9434-1.4894-2.2155 0-0.27204-0.32431-0.89018-0.72067-1.3736-0.64136-0.78228-0.78286-0.81755-1.2858-0.32051-0.71091 0.7026-0.31314 4.2723 0.63779 5.7236 1.0516 1.6049 4.3474 2.0487 4.3474 0.58541zm-42.24 0.39313c0.41673 0 1.2896-2.369 1.0968-2.9766-0.16089-0.50694 0.0694-0.89263 0.81859-1.3711 0.57334-0.36616 1.7483-1.3808 2.611-2.2548 0.86272-0.87397 1.7711-1.589 2.0187-1.589 0.24757 0 1.5123 0.42493 2.8105 0.94429 2.0593 0.82387 2.8228 0.93071 5.9867 0.83777 3.2856-0.0965 3.6264-0.17343 3.6264-0.81855 0-0.57754-0.45716-0.80519-2.4202-1.2052-3.3431-0.68123-6.035-1.8365-8.5105-3.6526-1.1557-0.84785-2.3073-1.6667-2.559-1.8196-0.6516-0.39582-1.9625 0.40243-1.9625 1.195 0 0.36726-0.52426 1.4592-1.165 2.4266-0.89232 1.3472-1.7471 2.052-3.6518 3.0112-2.9511 1.4862-3.535 2.0854-3.1657 3.2488 0.43028 1.3558 3.2134 4.4484 3.8004 4.2232 0.28577-0.10966 0.58532-0.19937 0.66571-0.19937zm74.935-2.1488c0.083-0.55337-0.354-1.087-1.5825-1.9322-2.0181-1.3885-2.2306-2.5014-0.64931-3.4007 1.4591-0.82978 2.6756-4.6166 2.6756-8.3289 0-1.5195 0.14516-2.8525 0.32258-2.9622 0.74903-0.46292 3.0285 3.5129 3.0285 5.2822 0 1.2933 0.91301 2.6715 1.4137 2.1339 1.0896-1.1699 1.5237-6.4927 0.69188-8.4828-0.64241-1.5368-1.2107-1.9712-3.0021-2.2945-1.4182-0.25597-1.5093-0.20467-3.6002 2.0269-2.0005 2.1352-3.116 3.9799-4.616 7.6334-0.64551 1.5723-0.53632 5.781 0.21335 8.2232 0.35996 1.1727 1.9367 2.8978 2.9418 3.2186 0.90767 0.28975 2.0392-0.29475 2.1626-1.1171zm-26.685-0.80668c0.65028-0.53364 0.78213-0.8597 0.50668-1.253-1.6429-2.3457-3.2847-4.9943-3.5844-5.7826-0.19824-0.52144-0.32707-2.0917-0.28626-3.4894 0.0796-2.7276-0.0558-3.1189-0.95938-2.7721-1.6358 0.62769-1.744 4.883-0.23808 9.3642 1.5411 4.5861 2.6258 5.5213 4.5614 3.9329zm19.682-1.2999c0-0.88983-0.85571-2.0745-1.4984-2.0745-0.71586 0-2.225 0.89019-2.225 1.3124 0 0.42393 2.2548 1.5521 3.258 1.6301 0.25598 0.0199 0.46543-0.37074 0.46543-0.86808zm-4.3814-1.6454c-0.18016-2.2584-0.69132-2.7805-2.4494-2.5016-0.85081 0.13494-1.7727 0.46936-2.0487 0.74316-1.1201 1.1112 1.4718 3.2968 3.6667 3.0918 0.81321-0.0759 0.91829-0.24445 0.83143-1.3334zm-11.347-0.0533c0.78213-0.40767 2.2326-0.89263 3.2232-1.0777 1.7369-0.32448 2.5675-0.93871 2.3237-1.7184-0.21234-0.67901-1.9027-1.2942-3.0364-1.105-0.61437 0.10252-2.1224 0.25565-3.3511 0.34029-2.708 0.18653-3.4448 0.44516-3.7177 1.3051-0.32796 1.0333 0.19161 1.9189 1.4463 2.4651 1.4983 0.65224 1.4528 0.6553 3.112-0.20953zm-20.757-5.2176c2.9448-0.877 4.1365-1.722 5.0027-3.5474 1.1881-2.5038-0.14562-2.7206-4.7159-0.76659-0.76137 0.32552-1.9533 0.59185-2.6487 0.59185-0.86968 0-1.5708 0.30646-2.246 0.98163-0.53989 0.5399-0.98164 1.11-0.98164 1.2668 0 0.15683-0.50267 0.46038-1.117 0.67455-1.4214 0.49549-1.4048 0.69609 0.0931 1.1286 1.9566 0.56495 3.9425 0.46603 6.6135-0.32942zm-15.643-1.0085c0-0.35063-0.7031-1.3539-1.5624-2.2295-1.3504-1.376-1.5509-1.7876-1.4774-3.0333 0.0799-1.3536-0.0571-1.5577-2.2525-3.3556-2.9908-2.4493-3.7541-2.4783-4.5398-0.17249-0.90274 2.6494-0.76918 3.2187 1.2812 5.4621 1.5689 1.7167 2.3128 2.2026 4.5612 2.9794 3.2567 1.1252 3.9897 1.1894 3.9897 0.34946zm51.713-7.3499c1.072-1.3212 2.2737-2.5053 2.6706-2.6312 0.92514-0.29363 2.721-2.9035 3.6907-5.3636 1.54-3.9071 0.56187-10.965-1.6276-11.743-1.3781-0.49005-2.2432 0.12617-2.3847 1.6988-0.29219 3.2455-1.5665 9.3304-2.3215 11.086-0.93888 2.1825-2.0948 2.9973-4.3791 3.0868-2.4519 0.0961-2.4437-0.30506 0.0565-2.775 3.0621-3.025 4.0337-5.0925 5.2617-11.196 0.45078-2.2406 0.48718-3.0489 0.15534-3.4488-0.68608-0.82667-1.4517 0.0982-1.4517 1.7536 0 2.059-1.7169 3.94-3.8942 4.2665-2.2618 0.33918-2.8133 0.0677-4.2974-2.1151l-1.3032-1.9168 0.0621-4.092c0.0481-3.1675 0.19471-4.2246 0.64894-4.6788 1.0495-1.0495 1.4783 0.009 1.5053 3.7154 0.0204 2.7955 0.13952 3.4808 0.66259 3.8108 0.90119 0.56846 1.3333 0.0157 2.0324-2.5999 1.2163-4.5504 0.27612-9.2073-2.0536-10.172-0.95214-0.39438-1.2499-0.31198-2.9729 0.82277-3.2379 2.1324-4.432 4.4748-4.7867 9.3897-0.19066 2.6419-0.10546 3.2471 0.75334 5.3513 1.3542 3.3182 3.2766 5.5352 5.7469 6.6277 1.939 0.85752 2.0162 0.94542 1.7963 2.045-0.12638 0.63193-0.22979 1.5393-0.22979 2.0164 0 0.71147-0.25106 0.91061-1.3963 1.1075-0.76796 0.13203-2.7367 0.64955-4.375 1.15-1.6383 0.50048-3.3914 1.0302-3.8957 1.1772-0.60321 0.17577-1.101 0.75077-1.4549 1.6806-0.48382 1.2712-0.47554 1.4758 0.0823 2.0337 0.57882 0.57881 0.70855 0.57274 1.9406-0.0907 1.0454-0.56298 2.0119-0.70024 4.6422-0.65932 1.8271 0.0284 3.6501 0.22726 4.0511 0.44187 0.40099 0.2146 1.1577 0.39019 1.6815 0.39019 0.58889 0 1.3324 0.42639 1.9477 1.117 0.54741 0.61437 1.1059 1.117 1.2411 1.117 0.13518 0 1.1228-1.081 2.1948-2.4022zm-39.735 1.1394c3.0714-0.54148 6.1973-1.8464 6.5358-2.7284 0.35335-0.92081-2.8186-6.0621-3.7401-6.0621-0.2437 0-1.3102 0.8983-2.37 1.9962-1.9806 2.0519-3.0191 2.5003-5.655 2.442-2.1974-0.0486-5.0486-1.1591-5.1814-2.018-0.0633-0.40958-0.50903-1.5825-0.99055-2.6064-1.5063-3.2033-1.5155-4.1624-0.054-5.6239 1.5372-1.5372 1.9077-1.5675 2.608-0.21335 0.29892 0.57808 0.8059 1.2688 1.1266 1.535 0.88421 0.73384 0.71178 1.8516-0.3478 2.2544-1.1285 0.42905-1.2099 1.4938-0.18517 2.4212 0.65298 0.59093 0.93053 0.61948 2.2319 0.22958 2.2348-0.66956 3.2537-3.1264 2.129-5.1331-0.66627-1.1886-3.2253-3.1028-4.1482-3.1028-0.44048 0-1.4647-0.33879-2.276-0.75286-3.6493-1.8626-8.3862 0.81501-8.3501 4.7199 0.0175 1.8724 0.91254 5.5837 1.5403 6.3856 2.4916 3.1829 7.2906 5.8184 11.625 6.384 1.2508 0.16322 2.358 0.31471 2.4604 0.33665 0.10239 0.0219 1.4712-0.18665 3.0418-0.46355zm-27.001-9.4421c2.3474-3.7978 3.9655-6.1176 5.1239-7.3458 1.4849-1.5745 1.813-3.3485 0.68328-3.6949-1.0101-0.30968-3.4418 0.37975-4.0231 1.1406-0.49205 0.64403-1.2761 2.872-1.2807 3.6393-0.004 0.5271-1.5572 2.0719-2.0843 2.0719-0.25465 0-1.292-0.41635-2.3051-0.92522l-1.8421-0.92523 0.35969-1.5881c0.80017-3.5328 1.227-4.4908 2.6223-5.8862 1.6367-1.6367 2.9991-2.1278 6.7847-2.4457 3.4534-0.29 4.4952 0.14577 5.4367 2.2741 0.63778 1.4418 0.89612 1.6771 1.8415 1.6771 0.60487 0 1.4362-0.33663 1.8478-0.74822 0.70738-0.70737 0.7165-0.82421 0.16699-2.141-0.99743-2.3902-3.4207-3.8098-6.5004-3.8081-2.1364 0.001-5.9752 0.72982-7.2104 1.3686-1.8514 0.95741-6.5119 5.3816-6.9288 6.5775-0.65008 1.8649-0.47042 6.0558 0.32625 7.6093 1.8124 3.5342 5.6689 5.2742 6.9818 3.1501zm32.497-9.8594c0.63976-1.8352 0.52017-3.3437-0.25323-3.1949-0.37834 0.0728-0.66981 0.48505-0.69505 0.98296-0.0238 0.47167-0.25558 1.254-0.51488 1.7385-0.56026 1.0469-0.25498 2.1226 0.51823 1.8259 0.30063-0.11536 0.72585-0.72398 0.94493-1.3525zm5.9612-3.2657c0.27252 0 0.88629-0.42173 1.364-0.93717 0.74357-0.80233 1.08-0.90335 2.3383-0.70214 1.4093 0.22535 1.5094 0.17228 2.4322-1.2895 0.52932-0.83848 0.9624-1.6728 0.9624-1.854 0-0.6296 1.5469-2.2917 2.1328-2.2917 0.32419 0 1.1386-0.41889 1.8098-0.93086 0.67123-0.51197 1.5482-0.93086 1.9487-0.93086 1.0364 0 2.3685-1.1901 1.9906-1.7786-0.21692-0.33783-1.7002-0.49941-5.1271-0.55852l-4.8219-0.0832-3.3639 1.6234c-4.2682 2.0598-4.9398 3.1248-4.846 7.6852 0.078 3.7968 0.35038 4.2842 1.6811 3.0093 0.55193-0.52877 1.2264-0.96139 1.4989-0.96139zm-18.967-3.1646c0.36962-0.44535 0.36843-0.78711-0.006-1.6908-0.70891-1.7115-1.824-2.9638-2.639-2.9638-1.5654 0-1.3319 2.4101 0.4015 4.1435 1.2155 1.2155 1.5883 1.3004 2.2433 0.51114zm3.3181-3.0548c0.77525-1.7015 0.87437-4.2586 0.25542-6.5903-1.2977-4.8887-5.0022-7.9055-6.1891-5.0401-0.41498 1.0019-0.3729 1.3385 0.34777 2.7815 0.69893 1.3995 0.76222 1.8492 0.42901 3.049-0.60811 2.1898-0.5123 2.5189 1.3736 4.72 2.0064 2.3417 3.07 2.6452 3.7833 1.0798zm-16.815-1.8345c0.95699-0.25647 1.06-0.75134 0.33254-1.5977-0.27788-0.32331-0.69442-1.3418-0.92561-2.2634-0.3967-1.5812-0.36806-1.7184 0.50858-2.4369 0.82593-0.6769 0.9029-0.95143 0.69409-2.475-0.21421-1.5628-0.14898-1.77 0.74133-2.3533 0.53692-0.3518 0.97621-0.97855 0.97621-1.3928 0-0.6975-0.15761-0.7346-2.1336-0.50237-1.1735 0.13792-2.5308 0.51099-3.0162 0.82905-0.95789 0.62764-0.96445 1.4792-0.0287 3.7574 0.45061 1.0972 0.4203 1.2735-0.36192 2.1061-1.2068 1.2846-1.5991 5.3229-0.58886 6.0616 0.72201 0.52796 2.3916 0.64535 3.8022 0.26732zm29.632-1.0222c1.8687-1.5132 3.3445-2.283 5.0893-2.6542 0.71676-0.15252 1.7221-0.56432 2.2341-0.91511 0.51197-0.35079 1.2241-0.74359 1.5825-0.87288 1.1446-0.41291 0.69561-1.4918-1.8119-4.3542-1.3455-1.5359-3.0284-3.6304-3.7397-4.6543-1.5481-2.2284-3.8599-5.336-5.8979-7.9285-0.81916-1.042-2.0658-2.7003-2.7703-3.6852-1.4929-2.087-3.5456-4.9256-5.0021-6.9174-0.5644-0.7718-1.196-1.2983-1.4037-1.17-0.39933 0.24681-0.10302 3.4036 0.45896 4.8896 0.17202 0.45482 0.58204 2.3789 0.91112 4.2758 0.65309 3.7641 0.96519 4.4073 2.0064 4.135 0.37894-0.0991 0.80155 0.002 0.93917 0.22461 0.41955 0.67886 1.62 0.45243 2.2317-0.42095 0.53424-0.76272 0.62461-0.77949 1.1843-0.2198 0.37964 0.37963 0.71154 1.6267 0.88874 3.3391 0.15553 1.5032 0.46986 3.2048 0.69852 3.7813 0.64062 1.6152 0.51141 2.0045-0.74886 2.2566-1.288 0.2576-1.272-0.0341-0.27881 5.073 0.17925 0.92155 0.42328 2.6809 0.54236 3.9096 0.36299 3.7454 0.50307 3.838 2.8863 1.9081zm51.762-7.4813c0.11536-0.30062 0.0422-0.65016-0.16265-0.77674-0.46895-0.28983-1.5194 0.54845-1.2446 0.99318 0.3202 0.51809 1.1758 0.38649 1.4072-0.21644zm-83.981-5.3761c0.75731-0.39041 1.8744-0.85339 2.4825-1.0289 0.608-0.17546 1.3564-0.76613 1.6632-1.3126 0.50877-0.90646 0.49656-1.0611-0.13929-1.7637-1.0159-1.1226-1.783-0.9547-3.2858 0.71924-0.73538 0.81916-1.5125 1.4894-1.7271 1.4894-0.34359 0-1.5262 1.861-1.5262 2.4018 0 0.42091 1.2008 0.18139 2.5326-0.50518zm219.73-2.7943c0.3127-0.3768 0.32056-0.59673 0.0278-0.77769-0.59556-0.36808-1.4896 0.0718-1.4896 0.73285 0 0.71521 0.88303 0.74229 1.4619 0.0448zm-156.74-13.294c3.42-3.7692 3.5431-3.4069-2.2074-6.4995-1.1155-0.5999-2.5352-1.5515-3.1548-2.1147-2.4372-2.215-3.307-0.35969-1.5274 3.258 0.5037 1.024 0.92674 2.2806 0.94009 2.7926 0.0134 0.51197 0.34802 1.6011 0.7437 2.4202 0.39568 0.81915 0.72511 1.7547 0.73205 2.0789 0.007 0.32425 0.12434 0.70125 0.26087 0.83778 0.67177 0.67177 1.7029-0.007 4.213-2.7734zm-15.631-8.521c0-0.20479-0.17745-0.37234-0.39432-0.37234-0.21688 0-0.29076 0.16755-0.1642 0.37234 0.12657 0.20479 0.30401 0.37235 0.39432 0.37235 0.0903 0 0.1642-0.16756 0.1642-0.37235zm4.7706-0.34907c0.0931-0.27926-0.0465-0.41889-0.3258-0.3258-0.26879 0.0896-0.562 0.38282-0.6516 0.6516-0.0931 0.27926 0.0465 0.41889 0.3258 0.3258 0.26878-0.0896 0.562-0.38282 0.6516-0.6516zm-7.3771-0.0233c0-0.20479-0.16755-0.37234-0.37234-0.37234s-0.37234 0.16755-0.37234 0.37234 0.16755 0.37234 0.37234 0.37234 0.37234-0.16755 0.37234-0.37234zm-24.416-13.69c-0.65596-1.3707-1.1493-1.9488-1.6629-1.9488-0.87497 0-0.93421 0.75954-0.17381 2.23 0.64122 1.24 2.0741 2.363 2.4876 1.9495 0.15497-0.15498-0.13795-1.1588-0.65093-2.2306zm2.6947-1.7878c0.26507-0.69086-0.50475-2.2713-1.2446-2.5553-0.76405-0.29318-1.0169 0.75495-0.48933 2.0286 0.49704 1.2 1.3734 1.4662 1.734 0.52671zm66.774-5.3739c0-0.20479-0.25133-0.37235-0.55851-0.37235-0.30719 0-0.55852 0.16756-0.55852 0.37235s0.25133 0.37234 0.55852 0.37234c0.30718 0 0.55851-0.16755 0.55851-0.37234zm-78.192-5.3685c0-0.59457-0.53796-1.3337-0.9707-1.3337-0.53491 0-0.70969 0.80192-0.27043 1.2412 0.27117 0.27117 1.2411 0.34347 1.2411 0.0925zm-0.86804-4.6458c-0.26508-2.5363-0.89277-4.1348-1.6236-4.1348-0.79495 0-1.0218 1.0874-0.57519 2.7569 0.71486 2.6723 1.1705 3.5729 1.8075 3.5729 0.53521 0 0.58916-0.30254 0.39134-2.1951zm66.401-4.1348c0-0.20479-0.17745-0.37235-0.39432-0.37235-0.21688 0-0.29076 0.16756-0.1642 0.37235 0.12657 0.20479 0.30401 0.37234 0.39432 0.37234 0.0903 0 0.1642-0.16755 0.1642-0.37234zm124.95-7.3595c0.23847-0.16393 0.38768-1.691 0.37234-3.8108-0.0141-1.9455 0.11351-5.2547 0.28352-7.3538 0.29266-3.6136 0.27136-3.8165-0.40052-3.8165-0.74965 0-1.9546 1.1298-2.6546 2.4888-0.52605 1.0214-0.54791 8.3881-0.0304 10.251 0.36407 1.3109 1.2266 2.5326 1.7791 2.5202 0.13896-0.003 0.43173-0.1288 0.65059-0.27926zm-95.732-59.524c5.7286-2.488 8.7341-6.8007 8.3094-11.923-0.14508-1.7495-0.36824-2.244-1.5411-3.4154l-1.3714-1.3696-3.8086 0.008c-4.1786 0.008-4.7573 0.22091-7.4224 2.7246-1.515 1.4232-2.1132 3.126-1.4002 3.9852 0.64042 0.77165 2.9277 0.6724 4.6416-0.20142 2.5188-1.2842 5.399-0.8196 5.399 0.87085 0 1.4587-1.8336 4.6362-3.142 5.4448-1.6205 1.0015-5.0087 1.0145-7.1828 0.0276-3.23-1.4662-3.8935-4.4914-1.8694-8.5227 1.032-2.0554 1.6075-2.6864 3.9096-4.2874 1.4847-1.0325 2.6995-2.0943 2.6995-2.3595 0-0.32076-0.5417-0.48223-1.6178-0.48223-1.145 0-1.8148-0.21766-2.2918-0.74469-1.4727-1.6274-3.9661-0.35551-6.2046 3.1649-2.0972 3.2983-2.2697 3.8261-2.2708 6.9481-0.001 3.4249 0.79483 5.3469 3.269 7.8925 3.7204 3.8279 6.872 4.4213 11.895 2.2398zm-26.236-42.307c0-0.43605-0.54241-0.32757-0.69815 0.13963-0.0768 0.23038 0.0489 0.35605 0.27926 0.27925 0.23039-0.0768 0.41889-0.26529 0.41889-0.41888zm4.298-0.74543c0.0984-0.2564 0.2188-1.8901 0.26757-3.6304 0.0821-2.9289 0.0342-3.1642-0.64416-3.1642-0.89629 0-2.4171 2.5209-2.426 4.0212-0.009 1.5146 0.99046 3.2395 1.8768 3.2395 0.41074 0 0.82731-0.20978 0.9257-0.46617zm3.0698-2.1908c0.13599-0.70612-1.0009-1.2525-1.522-0.73141-0.53805 0.53806 0.0144 1.6 0.7579 1.4568 0.35665-0.0687 0.70049-0.3951 0.7641-0.72536zm12.553-0.69426c0-0.62929-0.31297-1.0707-0.98872-1.3946-0.54459-0.26101-1.1723-1.0005-1.3974-1.6463-0.22479-0.64483-0.74555-1.4084-1.1572-1.6967-1.9214-1.3458-2.8369-5.6917-1.8159-8.6204 0.50816-1.4577 0.12662-3.7292-0.67828-4.0381-1.4683-0.56344-3.2166 3.5884-3.1297 7.4324 0.0949 4.197 1.1481 6.4336 3.4764 7.3828 0.67251 0.27414 1.9396 1.2297 2.8158 2.1235 1.7514 1.7866 2.875 1.9654 2.875 0.45747zm13.963 0.24063c0-0.27728-0.377-0.93242-0.83777-1.4559-0.46078-0.52346-1.3094-1.637-1.8859-2.4746-1.1028-1.6023-1.6345-1.8703-1.971-0.99345-0.27337 0.7124 0.38255 1.8589 2.1775 3.8062 1.491 1.6176 2.5171 2.0732 2.5171 1.1177zm-26.688-10.444c0.25107-0.6543-0.049-0.96726-0.92743-0.96726-0.66708 0-0.92853 0.747-0.4344 1.2411 0.42149 0.42149 1.1513 0.27471 1.3618-0.27388zm202.57 280.71c-0.11867-0.30925 0.32666-1.8591 0.98962-3.4442 0.66296-1.585 1.4456-3.4684 1.7391-4.1851 0.57855-1.4126 1.8946-3.1868 2.1641-2.9173 0.0918 0.0918-0.14818 1.079-0.53334 2.1937s-1.0634 3.1997-1.5071 4.6332c-1.1716 3.7847-2.2752 5.2238-2.8524 3.7197zm-321.8-12.95c-1.2917-0.59457-1.2772-0.57139-0.75217-1.204 0.25908-0.31214 0.7909-0.56752 1.1819-0.56752 1.23 0 5.2001-1.4737 9.1002-3.3779 4.1045-2.004 7.6345-3.3243 8.8883-3.3243 0.44078 0 1.1266 0.24167 1.5242 0.53704 0.71434 0.53079 0.71408 0.54526-0.022 1.2427-0.40958 0.38814-2.2527 1.2655-4.0958 1.9497-1.8431 0.68418-4.3564 1.7422-5.5852 2.3511-2.1226 1.0519-3.1492 1.4006-6.1437 2.0867-0.71676 0.16422-1.7221 0.39675-2.2341 0.51673-0.51198 0.11998-1.3498 0.0253-1.8617-0.21035zm358.48-30.721c-0.31508-0.35839-0.9128-1.3218-1.3283-2.141-1.0457-2.0617-2.99-3.8069-4.5616-4.0947-1.5106-0.27657-3.4652 0.39124-6.7474 2.3053-2.3068 1.3453-3.2884 1.5418-3.2884 0.65842 0-0.6009-2.645-3.3422-4.4975-4.6613-1.357-0.96624-5.9442-3.3294-6.4689-3.3324-0.21454-0.001-0.83464-0.23426-1.378-0.51776-0.54337-0.28351-1.6325-0.72462-2.4202-0.98025-3.9472-1.2809-5.0653-3.5532-6.132-12.463-0.41078-3.4309-0.19608-17.829 0.38034-25.506 0.35414-4.7165 1.3727-12.255 2.1381-15.825 0.30739-1.4335 1.0305-4.8684 1.607-7.633 0.57645-2.7646 2.0725-8.1128 3.3245-11.885 1.252-3.772 2.2764-7.0713 2.2764-7.3318 0-0.73791 0.71916-1.0024 1.3353-0.49103 0.39648 0.32905 0.67335 0.34772 0.95657 0.0645 0.52667-0.52667 0.0674-1.2328-0.62824-0.9659-0.7052 0.27061-0.7311-0.92516-0.0418-1.928 0.27766-0.40395 0.79064-1.6046 1.14-2.6682 0.34932-1.0636 0.96573-2.354 1.3698-2.8677 0.40406-0.51368 1.395-2.4216 2.2021-4.2399 1.6572-3.7336 3.1008-6.4444 4.306-8.0864 0.45096-0.61436 1.3064-2.0386 1.9011-3.1649 0.59463-1.1263 1.7574-3.0532 2.5839-4.282 0.82649-1.2287 1.6218-2.5692 1.7673-2.9788 0.65655-1.8478 5.4976-8.7489 7.7594-11.061l2.497-2.5529 1.365 0.57034c0.75076 0.31369 2.4298 0.57034 3.7312 0.57034 2.6753 0 4.5493-0.62204 11.595-3.8486 4.4858-2.0542 5.4147-2.2934 12.043-3.1009 1.1846-0.14431 2.062-0.0244 2.8672 0.39202 0.63813 0.32998 1.4898 0.59996 1.8925 0.59996 1.2729 0 3.9141 1.3628 5.1547 2.6596 0.65764 0.68748 2.3247 2.758 3.7046 4.601 1.3799 1.8431 2.7008 3.5186 2.9354 3.7234 0.23458 0.20479 0.82705 0.95878 1.3166 1.6755 1.9528 2.859 3.616 4.0267 7.5527 5.3023 2.9879 0.96821 3.8367 1.402 4.1967 2.1446 0.24813 0.51197 0.63958 3.1091 0.86987 5.7713 0.23026 2.6623 0.60149 5.5107 0.82493 6.3298 0.23297 0.85416 0.41728 5.0625 0.43214 9.8671 0.0597 19.277-3.2557 39.753-8.9828 55.479-1.0068 2.7646-1.9267 5.3618-2.0441 5.7713-0.7928 2.7652-4.219 11.085-5.6954 13.83-0.97546 1.8137-2.1846 4.0852-2.6869 5.0477-1.9096 3.6591-3.574 3.7674-2.3299 0.1517 0.35987-1.046 1.0966-2.5534 1.6372-3.35 0.54057-0.79654 0.98287-1.7395 0.98287-2.0954 0-0.35592 0.25134-0.85572 0.55852-1.1107 0.30718-0.25494 0.55852-0.84138 0.55852-1.3032s0.25133-1.0483 0.55851-1.3032c0.30718-0.25494 0.55852-0.67715 0.55852-0.93824s0.48222-1.4554 1.0716-2.6539c0.58938-1.1986 1.4545-3.3521 1.9224-4.7856 0.46796-1.4335 1.0468-2.8577 1.2862-3.1649 0.84667-1.0862 1.6042-3.1898 1.8704-5.1943 0.14826-1.1162 0.58338-2.7615 0.96697-3.6564 1.4005-3.2671 3.0702-10.244 4.5649-19.075 1.187-7.013 1.3913-8.4375 1.7616-12.287 0.20688-2.1503 0.47091-4.7474 0.58682-5.7713 0.34963-3.0893 0.32807-25.38-0.0291-30.058-0.38299-5.0165-0.49622-5.2015-3.5762-5.8443-3.3732-0.70402-8.3722-4.6207-10.967-8.5927-0.46826-0.71676-1.2068-1.6211-1.6413-2.0097-0.43445-0.38859-1.4068-1.7611-2.1607-3.05-1.1958-2.0441-1.6361-2.4604-3.4473-3.2592-2.3194-1.023-6.7886-2.1081-8.6659-2.1041-1.4439 0.003-5.6944 1.3895-8.3197 2.7138-3.6513 1.8418-5.5228 2.8791-6.0997 3.3808-0.32286 0.28072-1.341 0.60619-2.2625 0.72324-0.92155 0.11705-2.7634 0.38269-4.0929 0.59031s-2.7967 0.28227-3.2604 0.16588c-2.7113-0.68049-5.506 1.4552-8.3175 6.3563-0.90371 1.5754-2.3661 3.9734-3.2497 5.3288s-1.8368 2.9097-2.1183 3.454c-0.28145 0.54427-1.0798 1.6695-1.7741 2.5006-1.0939 1.3093-1.878 2.7339-3.9509 7.1778-0.23881 0.51198-1.1098 2.1875-1.9354 3.7234-0.82566 1.5359-2.4187 5.0546-3.54 7.8192s-2.2038 5.3618-2.4056 5.7713c-0.20171 0.40958-0.51923 1.2474-0.7056 1.8617-0.18636 0.61437-0.70232 2.0386-1.1466 3.1649-0.44425 1.1263-0.95485 2.7624-1.1347 3.6357-0.17982 0.87328-0.48437 1.8819-0.67678 2.2414-0.1924 0.35951-0.61429 1.907-0.93753 3.4388-0.55258 2.6188-0.89145 3.9129-2.338 8.9289-0.32482 1.1263-0.7146 2.8019-0.86616 3.7234-0.76952 4.6789-1.1314 7.1717-1.4594 10.053-0.19815 1.7407-0.53471 4.6729-0.74792 6.516s-0.48226 7.2048-0.59788 11.915c-0.30702 12.508 0.51421 19.445 2.5221 21.305 0.46447 0.4302 2.1864 1.2966 3.8265 1.9254 2.9509 1.1312 8.1889 4.1077 10.502 5.9676 2.4592 1.9776 3.3996 2.6376 3.7578 2.6376 0.20258 0 1.4327-0.52986 2.7337-1.1775 2.3788-1.1842 5.107-1.7093 6.7446-1.2983 1.6896 0.42405 4.1988 2.8499 5.1835 5.0112 0.40209 0.88253 1.0002 1.7079 1.3292 1.8341 0.32893 0.12622 1.9503-0.21509 3.6031-0.75848 4.6896-1.5418 5.6534-1.7097 10.921-1.9028 3.3775-0.1238 5.436-0.0328 6.516 0.28805 0.86827 0.25796 2.4411 0.51227 3.4952 0.56514 2.3879 0.11976 2.8726-0.3422 5.2271-4.9817 0.93537-1.8431 1.9808-3.77 2.3233-4.282 0.34248-0.51197 0.8225-1.3963 1.0667-1.9652 0.4435-1.0331 1.3951-1.6823 1.8294-1.2481 0.29501 0.29501-0.56637 3.2262-1.1631 3.958-0.25047 0.30718-0.92311 1.627-1.4947 2.9329-1.0486 2.3957-4.6343 7.2532-5.6385 7.6386-0.29862 0.11458-1.9222-0.0569-3.608-0.38103-5.4653-1.0509-15.344-0.28751-22.238 1.7184-1.7568 0.51118-2.0287 0.48361-2.6939-0.27311zm-150.43-23.926c-1.9949-0.37056-5.0109-1.0915-6.7022-1.602-1.6913-0.51057-4.1642-1.2319-5.4954-1.6029-1.3311-0.37104-2.8391-0.8892-3.3511-1.1514-0.51197-0.26226-1.1465-0.47787-1.41-0.47914-0.26352-0.001-2.5323-0.92724-5.0418-2.0578-4.0185-1.8103-4.8572-2.3543-7.0317-4.5612-3.4718-3.5234-5.4854-5.9454-6.9954-8.414-0.71676-1.1718-1.8571-2.8908-2.5341-3.8199-1.6409-2.252-2.035-3.3502-1.5365-4.2818 0.4617-0.86269 1.12-0.75714 1.6504 0.26461 0.96132 1.852 4.9273 7.5869 6.2604 9.0528 2.0255 2.2272 6.2612 6.0872 8.1772 7.4519 0.8652 0.61626 2.8297 1.7248 4.3657 2.4635 1.5359 0.73865 3.1277 1.5043 3.5373 1.7014 0.73048 0.35153 2.8127 0.97947 6.8884 2.0773 1.1263 0.3034 2.7181 0.8657 3.5373 1.2496 0.81915 0.38386 2.3272 0.87686 3.3511 1.0956 1.9451 0.41546 6.2988 1.7546 7.2607 2.2333 0.85521 0.42558 0.66511 0.93502-0.37234 0.99776-0.51197 0.031-2.563-0.24688-4.5579-0.61743zm-110.67-19.7c-0.12446-0.39216-0.11636-1.1511 0.018-1.6864 0.18146-0.72301-0.0193-1.3537-0.78029-2.4519-0.56354-0.81317-1.224-1.4785-1.4676-1.4785-0.24363 0-0.84918-0.43238-1.3456-0.96085-0.72621-0.77302-0.90268-1.3555-0.90268-2.9797v-2.0189l2.7926-2.5964c1.5359-1.428 2.8943-2.6005 3.0185-2.6054 0.12428-0.005 1.3261-0.83138 2.6707-1.8365 2.8788-2.152 3.718-2.4881 4.3403-1.7384 0.34579 0.41665 0.68365 0.45933 1.42 0.17938 1.1986-0.45571 2.0142-0.18011 1.7218 0.58183-0.1566 0.4081 0.18035 0.74213 1.1626 1.1526 1.1379 0.47543 1.3463 0.72266 1.1754 1.3942-0.7102 2.7915-0.71043 2.784 0.0927 3.0389 0.4296 0.13635 0.78109 0.48064 0.78109 0.76509 0 0.66977-13.292 13.954-13.962 13.954-0.27987 0-0.6107-0.32086-0.73517-0.71302zm242.09-22.98c-0.30084-0.30085 0.43684-1.7211 1.0962-2.1105 0.69136-0.40832 0.63588-2.0118-0.0835-2.4144-0.49608-0.27762-0.42503-0.43549 0.45575-1.0126 0.5739-0.37604 1.2154-0.82027 1.4255-0.98719 0.21011-0.16693 0.90887-0.72491 1.5528-1.24 0.64393-0.51506 1.356-0.93647 1.5825-0.93647 0.22642 0 0.41168-0.16756 0.41168-0.37235s0.16755-0.37234 0.37234-0.37234 0.33046 0.20547 0.27926 0.45659c-0.15586 0.76458 1.3944 0.74075 2.0939-0.0322 0.56336-0.62252 0.58685-0.84114 0.16562-1.5413-0.43925-0.73012-0.3939-0.88071 0.43121-1.432 0.50714-0.33882 1.4287-1.0513 2.0479-1.5833 1.7376-1.4928 5.0855-3.7611 5.2737-3.5729 0.0927 0.0927-0.55133 0.67633-1.4311 1.297-0.87982 0.62068-2.3834 1.7718-3.3414 2.5582-2.8534 2.3421-2.0966 3.7172 0.99707 1.8117 0.81915-0.50453 1.6542-0.92256 1.8557-0.92895 0.60968-0.0194-4.6866 4.7817-6.9446 6.2953-3.4948 2.3426-6.6059 4.9143-6.841 5.655-0.2178 0.68623-0.93772 0.92425-1.3993 0.46265zm-179.46-12.288c-0.5314-0.27843-1.073-0.88391-1.2035-1.3455-0.94911-3.3567-2.832-4.507-5.9489-3.6343-0.93683 0.2623-1.7927 0.62148-1.9019 0.79817-0.34275 0.55459-2.5393 0.33362-3.3661-0.33861-1.1667-0.94861-1.888-2.2413-2.7548-4.937-0.7344-2.284-0.74933-4.6903-0.0323-5.2003 0.14462-0.10286 0.70928-0.95993 1.2548-1.9046 2.2744-3.9387 5.3677-5.1825 7.5346-3.0298 1.1322 1.1247 2.5464 4.0585 2.2149 4.5948-0.42164 0.68223-0.94203 0.29795-2.0625-1.523-1.4745-2.3964-2.2967-2.4305-4.479-0.18566-2.2229 2.2867-2.9328 3.728-2.9311 5.9512 0.003 3.5854 2.5902 5.9733 5.521 5.0952 0.79882-0.23933 2.2417-0.43515 3.2065-0.43515 1.9271 0 3.1124 0.89085 4.3967 3.3045 0.81183 1.5257 1.5462 1.3423 1.6962-0.4238 0.0822-0.96738-0.16459-1.7649-0.88115-2.8477-0.66072-0.99842-0.90313-1.7261-0.72113-2.1648 0.24173-0.58267 0.32392-0.54952 0.69497 0.28037 0.23145 0.51767 0.8721 1.5264 1.4237 2.2415 1.3136 1.7033 1.8851 4.1485 1.1986 5.1287-0.6844 0.9771-1.7023 1.182-2.8596 0.57559zm180.31-0.69542c0.25494-0.30718 0.63109-0.55851 0.83587-0.55851 0.20771 0 0.16739 0.24696-0.0912 0.55851-0.25494 0.30719-0.63108 0.55852-0.83587 0.55852-0.2077 0-0.16738-0.24696 0.0912-0.55852zm-96.495-0.6516c-0.94562-0.76825-1.5491-4.4142-1.0435-6.3048 0.53545-2.0024 0.96459-2.5384 2.0326-2.5384 1.4773 0 1.7977 0.8497 1.5827 4.1966-0.28185 4.3866-1.0914 5.8493-2.5717 4.6466zm112.32 0.0931c0.12656-0.20479 0.39766-0.37234 0.60245-0.37234s0.26879 0.16755 0.14224 0.37234c-0.12656 0.20479-0.39767 0.37234-0.60246 0.37234s-0.26879-0.16755-0.14223-0.37234zm-108.07-0.63624c-0.85576-0.3135-0.47933-0.81214 1.1608-1.5376 1.2023-0.53184 2.0857-1.3633 3.3888-3.1894 1.9805-2.7755 2.5687-3.2006 4.4286-3.2006 2.4201 0 3.3206 2.1062 1.1645 2.7238-0.61237 0.1754-1.6998 0.49086-2.4166 0.701-0.71676 0.21015-1.9734 0.99847-2.7926 1.7518-1.7231 1.5847-4.2584 2.9984-4.9336 2.7511zm94.11-0.0953c0-0.21199 0.15559-0.38544 0.34575-0.38544s0.57237-0.20945 0.84936-0.46543c0.27699-0.25599 0.91729-0.79792 1.4229-1.2043 0.71589-0.5754 0.67214-0.46534-0.19776 0.49747-1.2778 1.4143-2.4202 2.1496-2.4202 1.5577zm-203.28-4.7175c-0.43915-0.74429-1.0752-2.5064-1.4135-3.9159-0.57527-2.397-0.57435-2.6033 0.0143-3.192 0.88989-0.88989 1.3669-0.25261 1.5309 2.0452 0.0772 1.0816 0.47742 2.4613 0.92322 3.1826 0.90503 1.4644 1.0501 3.2333 0.26523 3.2333-0.28696 0-0.88104-0.60897-1.3202-1.3533zm211.47-1.4008c0-0.0957 0.54455-0.55578 1.2101-1.0225 0.85859-0.60208 1.0568-0.65762 0.68221-0.1912-0.53286 0.66357-1.8923 1.5355-1.8923 1.2137zm2.6064-2.223c0-0.26117 3.048-2.1522 3.2092-1.991 0.21722 0.21724-2.3077 2.1277-2.812 2.1277-0.21846 0-0.39718-0.0615-0.39718-0.13669zm-3.8541-2.7523c-0.21384-0.34595 1.9186-2.1494 2.204-1.864 0.0841 0.0842-0.32952 0.61532-0.91927 1.1804-0.5898 0.56503-1.1679 0.87268-1.2847 0.68366zm7.5776-0.0508c0-0.19647 0.46078-0.70266 1.024-1.1249 0.56317-0.42221 1.2263-0.93704 1.4737-1.1441 0.24735-0.20701 0.58246-0.37784 0.74469-0.37962 0.16223-0.002 0.93223-0.60721 1.7111-1.3454s1.5329-1.2251 1.6756-1.0821c0.14264 0.14302-0.18301 0.62278-0.72373 1.0661-0.54072 0.44336-1.6889 1.3925-2.5516 2.1093-1.8706 1.5542-3.3537 2.3948-3.3537 1.9006zm-1.2677-5.3962c0.11725-0.30554 0.65555-0.84536 1.1962-1.1996 1.1663-0.76416 0.98385-0.61988 4.6758-3.6986 1.6108-1.3432 3.0058-2.3651 3.1001-2.2708 0.19187 0.19186-2.98 3.2143-3.9295 3.7444-0.33544 0.18728-0.69371 0.4443-0.79611 0.57114-0.26421 0.32727-3.4453 2.8299-3.9984 3.1457-0.30577 0.17454-0.38936 0.0761-0.24802-0.29226zm8.3422-0.20588c0-0.21687 0.16756-0.39432 0.37235-0.39432 0.20478 0 0.37234 0.0739 0.37234 0.1642s-0.16756 0.26775-0.37234 0.39432c-0.20479 0.12657-0.37235 0.0527-0.37235-0.1642zm5.5926-4.6853c0.25904-0.31213 0.54764-0.49083 0.64136-0.39711 0.25822 0.25822-0.26641 0.96463-0.71642 0.96463-0.2469 0-0.21864-0.21365 0.0751-0.56752zm-4.4756-2.7127c0-0.19994 0.26534-0.46535 0.58965-0.5898 0.36262-0.13915 0.53282-0.0559 0.44215 0.21615-0.18553 0.5566-1.0318 0.86305-1.0318 0.37365zm7.8192-0.003c0-0.45 0.70641-0.97464 0.96463-0.71643 0.0937 0.0937-0.085 0.38235-0.3971 0.64139-0.35388 0.29369-0.56753 0.32194-0.56753 0.075zm-4.4481-2.8925c1.4899-1.5507 3.2993-2.9161 3.5424-2.673 0.26604 0.26602-1.4172 1.9373-2.7353 2.7159-0.65968 0.38969-1.1994 0.83995-1.1994 1.0006 0 0.16063-0.20043 0.29206-0.4454 0.29206-0.24496 0 0.13204-0.60102 0.83778-1.3356zm6.496 0.9633c0.12656-0.20479 0.39766-0.37235 0.60245-0.37235s0.2688 0.16756 0.14224 0.37235-0.39767 0.37234-0.60246 0.37234c-0.20478 0-0.26879-0.16755-0.14223-0.37234zm2.1321-1.5559c0.20405-0.61219 1.3159-1.2639 1.6265-0.95329 0.35425 0.35423-0.5619 1.3921-1.2288 1.3921-0.29918 0-0.47813-0.19748-0.39767-0.43883zm-233.01-1.5932c0.39752-0.31612 1.2353-0.59165 1.8617-0.61229 0.62642-0.0206 3.8349-0.0799 7.13-0.13162 5.6098-0.0881 6.1305-0.15793 8.1815-1.0969 2.7249-1.2475 3.367-1.823 4.4778-4.0135 1.3318-2.6263 2.3129-2.9416 1.8737-0.60223-0.23605 1.2574-2.214 3.6031-4.1747 4.9509-1.7112 1.1764-4.6289 1.604-12.626 1.8507-6.7529 0.20828-7.3795 0.17612-6.7241-0.34507zm79.148-1.771c-2.6091-1.9118-3.168-2.553-2.5606-2.9377 0.72261-0.45777 0.63991-0.48921 3.302 1.2551 1.3311 0.87221 2.4202 1.8349 2.4202 2.1393 0 1.0002-1.4615 0.78905-3.1616-0.45665zm150.42-0.10997c0.51197-0.60366 1.2088-1.3095 1.5486-1.5686 0.33977-0.25907 2.0153-1.8474 3.7234-3.5295 2.737-2.6954 5.6913-4.7248 6.1745-4.2415 0.091 0.091-0.56232 0.67585-1.4517 1.2998-1.8716 1.3129-3.5119 2.6846-6.9636 5.8229-3.1897 2.9001-4.2982 3.7108-3.0312 2.2169zm-338.83-9.4607c0-1.0259 0.16301-1.5204 0.50114-1.5204 0.34501 0 0.47504 0.43044 0.41729 1.3813-0.11785 1.9415-0.91843 2.0627-0.91843 0.13909zm59.761-0.40337c-0.12657-0.20479-0.0626-0.37234 0.14222-0.37234 0.20479 0 0.4759 0.16755 0.60246 0.37234 0.12657 0.20479 0.0626 0.37235-0.14222 0.37235-0.20479 0-0.4759-0.16756-0.60246-0.37235zm-2.3194-1.342c0.12373-0.12372 0.44488-0.13695 0.71366-0.0294 0.29703 0.11886 0.20881 0.20709-0.22496 0.22496-0.39251 0.0162-0.61242-0.0718-0.4887-0.19556zm-20.085-7.4393c-0.24549-0.63979 0.85095-6.0622 2.3654-11.698 2.2536-8.3862 8.623-23.767 10.573-25.532 1.1372-1.0292 0.83855 0.0632-1.3306 4.8666-0.27745 0.61437-1.2081 3.2952-2.0681 5.9575-1.7377 5.3791-2.9081 8.5788-4.3584 11.915-0.97798 2.2497-1.8866 5.1853-2.881 9.3086-1.19 4.934-1.4442 5.7713-1.7524 5.7713-0.17671 0-0.42313-0.26539-0.5476-0.58975zm91.487-7.3871c0.29987-0.29147 1.5505-1.068 2.7793-1.7256 2.7634-1.479 2.9475-1.6442 2.6617-2.3889-0.20119-0.5243-0.4405-0.48112-1.9244 0.34732-1.7478 0.97576-3.0143 1.2456-2.5848 0.55078 0.13438-0.21743 0.60504-0.55213 1.0459-0.7438 0.44088-0.19167 1.0529-0.51417 1.3601-0.71666 0.30719-0.20249 1.4852-0.77744 2.6179-1.2777 1.1326-0.50023 2.3734-1.2565 2.7572-1.6806 0.68749-0.75967 0.68456-0.77093-0.19764-0.75927-0.49252 0.007-1.2207 0.25785-1.6182 0.55852-0.39753 0.30067-0.9581 0.54667-1.2457 0.54667-0.28762 0-0.98431 0.32851-1.5482 0.73003-0.98168 0.69901-3.1846 1.54-5.2919 2.0201-0.54414 0.12399-1.2562 0.32784-1.5825 0.45302-0.3262 0.12518-0.5931 0.0403-0.5931-0.18863 0-0.22892 0.92155-0.86819 2.0479-1.4206 2.1669-1.0627 2.7427-1.855 1.0239-1.4089-1.0387 0.26961-5.2471 0.94194-6.6091 1.0559-0.40958 0.0343-0.75193-0.10527-0.76079-0.31006-0.0172-0.39821 0.7311-0.70558 5.9736-2.4536 4.4476-1.483 9.6386-4.0819 9.7972-4.905 0.19034-0.98833-1.0533-0.80363-2.938 0.43631-0.90546 0.59571-2.4003 1.2797-3.3218 1.5201-0.92155 0.24032-2.642 0.86628-3.8233 1.391-1.6905 0.75093-2.3247 0.8727-2.9788 0.57193-0.76809-0.35319-0.71824-0.40316 0.65837-0.65996 1.8133-0.33827 8.3908-3.5319 8.6533-4.2015 0.29117-0.74279-0.1758-0.98394-1.7814-0.91991-0.81014 0.0323-1.473-0.0904-1.473-0.27277 0-0.49064 1.5544-1.4908 2.3169-1.4908 0.36401 0 0.66184-0.15073 0.66184-0.33496 0-0.18422-2.1363-0.40834-4.7474-0.49804-3.6125-0.12411-5.1248-0.33332-6.3261-0.87517-0.86827-0.39164-1.5804-0.8077-1.5825-0.92458-0.002-0.11688 1.3785-0.14216 3.068-0.0562 2.3322 0.11869 3.8339-0.0384 6.2368-0.65228 5.6544-1.4446 8.66-2.5787 10.89-4.1089 1.2035-0.82593 2.3455-1.4045 2.5376-1.2858 0.74662 0.46144 0.27902 1.7582-1.3593 3.7696-1.9034 2.3369-2.6471 3.7134-2.231 4.1295 0.15241 0.1524 0.49132-0.0159 0.75313-0.37392 0.46501-0.63593 2.0751-0.92596 2.0638-0.37176-0.0106 0.51779-0.54458 1.0426-2.5076 2.4642-1.9837 1.4366-2.4187 2.097-1.3814 2.097 0.78169 0 3.275-1.3011 3.8722-2.0207 0.61256-0.73808 1.8843-0.76529 1.8843-0.0403 0 0.29997-0.377 0.74516-0.83778 0.9893-1.4347 0.76018-2.1514 1.8312-1.8989 2.8374 0.19023 0.75793-0.0566 1.1746-1.4019 2.3659-1.4562 1.2896-1.5623 1.4887-0.98117 1.8406 1.0889 0.65946 0.73918 1.4185-0.87653 1.9026-1.707 0.51145-2.157 1.1857-1.4968 2.2429 0.61238 0.98059 0.27377 1.3652-2.1425 2.4337-1.1513 0.50911-2.7531 1.2444-3.5595 1.634-1.8301 0.88407-2.8772 0.97483-2.0577 0.17836zm-5.7846-3.5658c0.12657-0.20479 0.51346-0.36978 0.85975-0.36664 0.54261 0.005 0.55244 0.0556 0.0711 0.36664-0.72918 0.47124-1.2221 0.47124-0.93086 0zm-4.4681-18.606c-2.3879-0.27323-3.228-0.61967-5.6086-2.3129-2.3406-1.6648-6.3389-2.8797-10.973-3.3342-5.1327-0.50337-6.065-0.27625-12.022 2.9287-2.9362 1.5797-4.6404 2.292-5.1197 2.1399-0.39517-0.12543-0.71849-0.3489-0.71849-0.49662 0-0.32819 3.5272-2.4787 4.9154-2.997 0.55322-0.20652 1.713-0.82187 2.5772-1.3674 2.7659-1.746 6.3095-2.7637 9.6237-2.7637 3.7057 0 9.0659 1.6068 11.998 3.5965 1.0872 0.73781 2.5158 1.5709 3.1748 1.8512 1.5886 0.67586 7.2609 0.65462 9.4136-0.0353 4.9282-1.5793 6.6114-2.373 8.8127-4.1556 0.85362-0.69126 1.6495-1.2568 1.7686-1.2568 0.54089 0 0.10745 0.93873-1.1316 2.4508-1.8148 2.2147-7.4241 4.9764-10.929 5.381-1.3366 0.15427-2.6814 0.35845-2.9886 0.45373-0.30719 0.0953-1.5638 0.0582-2.7926-0.0824zm27.181-48.132c-0.81915-0.20143-2.6045-0.68292-3.9674-1.07-1.3629-0.38706-2.9289-0.70375-3.48-0.70375-2.0617 0-7.0838-1.7899-7.7199-2.7514-0.57554-0.86993-0.2444-3.1526 0.73899-5.0941 0.9884-1.9514 1.0883-2.0306 2.8771-2.282 1.3846-0.19462 2.004-0.12401 2.4496 0.27926 0.96786 0.8759 2.4228 0.65466 3.4099-0.51853 0.48976-0.58205 1.6356-1.4956 2.5464-2.03 1.715-1.0064 5.2883-5.2852 6.6232-7.9311 0.40352-0.79976 0.84533-2.4176 0.98181-3.5951 0.15165-1.3085 0.4258-2.141 0.70506-2.141 0.59403 0 1.3536 2.1218 1.3424 3.7499-0.0147 2.1471-1.3962 6.6395-2.8305 9.2042l-1.3604 2.4326 1.1723 0.96366c1.3713 1.1272 1.405 1.4545 0.43865 4.2632-0.39984 1.1621-0.84056 3.1571-0.97938 4.4333-0.23566 2.1663-0.67477 3.315-1.2249 3.2042-0.12852-0.0259-0.90389-0.21186-1.723-0.41328zm-20.196-5.9531c-0.68538-0.72956-0.77765-1.1771-0.63586-3.0844 0.24239-3.2605 0.43266-3.822 2.1012-6.2006 1.3671-1.9489 3.9546-4.2569 6.6997-5.976 2.2016-1.3787 3.334-6.0643 1.9449-8.0475-0.70637-1.0085-0.45157-1.9273 0.53444-1.9273 1.0095 0 1.618-0.88944 1.347-1.9689-0.19776-0.78795-0.64997-1.0329-3.0879-1.6726-1.5709-0.41221-3.6102-0.94941-4.5317-1.1938-0.92155-0.24436-2.3745-0.49318-3.2288-0.55292-1.9459-0.13609-5.3351-0.93525-5.3351-1.258 0.00001-0.50816 6.5481-0.41333 9.7437 0.1411 5.8233 1.0104 8.4968 2.4544 12.257 6.6204 2.6518 2.9378 2.9295 4.2282 1.5796 7.3408-0.79814 1.8404-1.2061 2.3177-2.4934 2.9172-0.8465 0.39426-2.3769 0.82097-3.4008 0.94825-2.1824 0.27127-5.4499 2.1466-8.135 4.669-2.4382 2.2904-2.9589 3.4136-3.2012 6.9048-0.22976 3.3112-0.7331 3.8571-2.158 2.3404zm20.317-28.784c-3.0039-3.088-3.633-4.0727-3.0036-4.7021 0.82148-0.82147 8.282 4.8259 8.282 6.2692 0 0.45707-1.406 1.2362-2.2309 1.2362-0.17637 0-1.5478-1.2614-3.0476-2.8032z"/>
  </g>
  <metadata>
    <rdf:RDF>
      <cc:Work>
        <dc:format>image/svg+xml</dc:format>
        <dc:type rdf:resource="http://purl.org/dc/dcmitype/StillImage"/>
        <cc:license rdf:resource="http://creativecommons.org/licenses/publicdomain/"/>
        <dc:publisher>
          <cc:Agent rdf:about="http://openclipart.org/">
            <dc:title>Openclipart</dc:title>
          </cc:Agent>
        </dc:publisher>
        <dc:title>Lady with hand mirror</dc:title>
        <dc:date>2013-08-09T10:10:49</dc:date>
        <dc:description>Lady with hand mirror traced from http://thegraphicsfairy.com/retro-ladies-a-day-of-beauty/</dc:description>
        <dc:source>https://openclipart.org/detail/181705/lady-with-hand-mirror-by-liftarn-181705</dc:source>
        <dc:creator>
          <cc:Agent>
            <dc:title>liftarn</dc:title>
          </cc:Agent>
        </dc:creator>
        <dc:subject>
          <rdf:Bag>
            <rdf:li>1940s</rdf:li>
            <rdf:li>40s</rdf:li>
            <rdf:li>beauty</rdf:li>
            <rdf:li>lady</rdf:li>
            <rdf:li>mirror</rdf:li>
            <rdf:li>retro</rdf:li>
            <rdf:li>vintage</rdf:li>
          </rdf:Bag>
        </dc:subject>
      </cc:Work>
      <cc:License rdf:about="http://creativecommons.org/licenses/publicdomain/">
        <cc:permits rdf:resource="http://creativecommons.org/ns#Reproduction"/>
        <cc:permits rdf:resource="http://creativecommons.org/ns#Distribution"/>
        <cc:permits rdf:resource="http://creativecommons.org/ns#DerivativeWorks"/>
      </cc:License>
    </rdf:RDF>
  </metadata>
</svg>